AreaDataFile
Start Object000
    71000.000000 -39000.000000 16179.500000
    215252160
    0.000000#270.000000#0.000000
    0.000000
End Object
Start Object001
    71000.000000 -42500.000000 16179.500000
    215252160
    0.000000#270.000000#0.000000
    0.000000
End Object
Start Object002
    71000.000000 -46000.000000 16179.500000
    215252160
    0.000000#270.000000#0.000000
    0.000000
End Object
Start Object003
    71000.000000 -49500.000000 16179.500000
    215252160
    0.000000#270.000000#0.000000
    0.000000
End Object
Start Object004
    71000.000000 -52000.000000 16179.500000
    215252160
    0.000000#270.000000#0.000000
    0.000000
End Object
ObjectCount 5
