AreaDataFile

Start Object000
    50861.675781 -38969.015625 18262.501953
    1107711305
    15.000000#105.000000#315.000000
    -70.000000
End Object
Start Object001
    40312.609375 -25745.996094 18446.982422
    1288452050
    15.000000#105.000000#315.000000
    -55.000000
End Object
Start Object002
    28621.482422 -30685.855469 19513.242188
    1503676723
    15.000000#105.000000#315.000000
    -35.000000
End Object
Start Object003
    42160.800781 -31044.685547 17618.720703
    2314800971
    15.000000#105.000000#315.000000
    -80.000000
End Object
Start Object004
    41436.472656 -47691.601563 18576.054688
    4138381346
    15.000000#105.000000#315.000000
    -70.000000
End Object

ObjectCount 5
