AreaDataFile

Start Object000
    90060.429688 -61112.191406 20780.500000
    68844411
    0.000000#0.000000#270.000000
    0.000000
End Object
Start Object001
    89645.468750 -60175.742188 20780.500000
    358206493
    0.000000#0.000000#285.000000
    0.000000
End Object
Start Object002
    89489.242188 -61450.945313 20780.500000
    358206493
    0.000000#0.000000#285.000000
    0.000000
End Object
Start Object003
    89537.000000 -61520.000000 20781.000000
    358206493
    0.000000#0.000000#285.000000
    0.000000
End Object
Start Object004
    88667.867188 -61495.796875 20785.669922
    366748368
    0.000000#0.000000#285.000000
    0.000000
End Object
Start Object005
    87752.734375 -60303.445313 20751.029297
    538957537
    0.000000#0.000000#60.000000
    0.000000
End Object
Start Object006
    88924.421875 -62610.941406 20773.435547
    538957537
    0.000000#0.000000#345.000000
    0.000000
End Object
Start Object007
    87936.953125 -59989.718750 20759.197266
    538957537
    0.000000#0.000000#45.000000
    0.000000
End Object
Start Object008
    88193.070313 -59733.066406 20772.589844
    538957537
    0.000000#0.000000#30.000000
    0.000000
End Object
Start Object009
    88574.015625 -62512.203125 20762.824219
    538957537
    0.000000#0.000000#345.000000
    0.000000
End Object
Start Object010
    88316.390625 -62251.968750 20751.205078
    538957537
    0.000000#0.000000#315.000000
    0.000000
End Object
Start Object011
    88512.445313 -59555.000000 20774.404297
    538957537
    0.000000#0.000000#30.000000
    0.000000
End Object
Start Object012
    89738.984375 -61654.621094 20780.500000
    565526255
    0.000000#0.000000#270.000000
    0.000000
End Object
Start Object013
    89623.281250 -60544.417969 20780.500000
    625808473
    0.000000#0.000000#270.000000
    0.000000
End Object
Start Object014
    89725.476563 -61813.511719 20780.500000
    625808473
    0.000000#0.000000#270.000000
    0.000000
End Object
Start Object015
    87986.304688 -69990.132813 20346.750000
    728883128
    0.000000#0.000000#0.000000
    0.000000
End Object
Start Object016
    89971.914063 -60271.324219 20780.500000
    1065153595
    0.000000#0.000000#330.000000
    0.000000
End Object
Start Object017
    89745.546875 -60434.832031 20780.500000
    1167113627
    0.000000#0.000000#285.000000
    0.000000
End Object
Start Object018
    89756.046875 -60524.945313 20780.500000
    1167113627
    0.000000#0.000000#255.000000
    0.000000
End Object
Start Object019
    89882.492188 -60477.386719 20780.500000
    1167113627
    0.000000#0.000000#270.000000
    0.000000
End Object
Start Object020
    89487.906250 -60726.972656 20780.500000
    1217578642
    0.000000#0.000000#270.000000
    0.000000
End Object
Start Object021
    81423.031250 -63964.734375 20431.777344
    1337000003
    0.000000#0.000000#0.000000
    -5.000000
End Object
Start Object022
    78231.820313 -55745.531250 20334.500000
    1337000003
    0.000000#0.000000#0.000000
    -5.000000
End Object
Start Object023
    78155.906250 -58198.039063 20349.820313
    1337000003
    0.000000#0.000000#0.000000
    -5.000000
End Object
Start Object024
    80926.242188 -75512.968750 20610.345703
    1337000005
    0.000000#0.000000#0.000000
    -5.000000
End Object
Start Object025
    79511.750000 -61552.242188 20354.160156
    1337000005
    0.000000#0.000000#0.000000
    -5.000000
End Object
Start Object026
    78777.054688 -71753.507813 20358.000000
    1337000008
    0.000000#0.000000#0.000000
    -5.000000
End Object
Start Object027
    82915.101563 -62228.398438 20396.527344
    1337000008
    0.000000#0.000000#0.000000
    -5.000000
End Object
Start Object028
    90290.015625 -70580.742188 20546.775391
    1337000013
    0.000000#0.000000#0.000000
    -5.000000
End Object
Start Object029
    81438.742188 -64170.820313 20436.019531
    1337000013
    0.000000#0.000000#0.000000
    -5.000000
End Object
Start Object030
    89043.960938 -57360.414063 20805.964844
    1337000013
    0.000000#0.000000#0.000000
    -5.000000
End Object
Start Object031
    82629.000000 -61985.328125 20380.419922
    1337000013
    0.000000#0.000000#0.000000
    -5.000000
End Object
Start Object032
    81164.546875 -75415.945313 20595.644531
    1337000016
    0.000000#0.000000#0.000000
    -5.000000
End Object
Start Object033
    89135.867188 -64277.687500 20667.533203
    1337000016
    0.000000#0.000000#0.000000
    -5.000000
End Object
Start Object034
    78873.546875 -53591.984375 20334.500000
    1337000019
    0.000000#0.000000#0.000000
    -5.000000
End Object
Start Object035
    85647.406250 -59021.695313 20434.707031
    1337000019
    0.000000#0.000000#0.000000
    -5.000000
End Object
Start Object036
    82458.750000 -65216.500000 20483.535156
    1337000019
    0.000000#0.000000#0.000000
    -5.000000
End Object
Start Object037
    81064.304688 -60171.550781 20372.056641
    1337000019
    0.000000#0.000000#0.000000
    -5.000000
End Object
Start Object038
    85868.210938 -58697.906250 20458.822266
    1337000019
    0.000000#0.000000#0.000000
    -5.000000
End Object
Start Object039
    80347.210938 -71082.562500 20419.744141
    1337000019
    0.000000#0.000000#0.000000
    -5.000000
End Object
Start Object040
    86403.328125 -76446.695313 20849.392578
    1337000019
    0.000000#0.000000#0.000000
    -5.000000
End Object
Start Object041
    78693.039063 -61117.175781 20355.039063
    1337000019
    0.000000#0.000000#0.000000
    -5.000000
End Object
Start Object042
    88792.140625 -70959.093750 20353.660156
    1337000019
    0.000000#0.000000#0.000000
    -5.000000
End Object
Start Object043
    85817.828125 -63628.328125 20384.902344
    1337000019
    0.000000#0.000000#0.000000
    -5.000000
End Object
Start Object044
    82185.710938 -75159.679688 20598.511719
    1337000053
    0.000000#0.000000#0.000000
    -5.000000
End Object
Start Object045
    87076.328125 -65858.343750 20543.324219
    1337000060
    0.000000#0.000000#0.000000
    -30.000000
End Object
Start Object046
    83304.429688 -70582.250000 20358.000000
    1337000060
    0.000000#0.000000#0.000000
    -30.000000
End Object
Start Object047
    83347.781250 -56138.328125 20375.648438
    1337000074
    0.000000#0.000000#0.000000
    -30.000000
End Object
Start Object048
    89423.898438 -72516.359375 20345.500000
    1337000074
    0.000000#0.000000#0.000000
    -30.000000
End Object
Start Object049
    86109.382813 -73418.023438 20352.267578
    1337000098
    0.000000#0.000000#0.000000
    -22.000000
End Object
Start Object050
    90525.109375 -70013.703125 20642.802734
    1337000098
    0.000000#0.000000#0.000000
    -22.000000
End Object
Start Object051
    82485.578125 -61298.800781 20376.437500
    1337000098
    0.000000#0.000000#0.000000
    -22.000000
End Object
Start Object052
    87024.765625 -53213.578125 20441.851563
    1337000098
    0.000000#0.000000#0.000000
    -22.000000
End Object
Start Object053
    77094.398438 -72238.156250 20400.500000
    1337000098
    0.000000#0.000000#0.000000
    -22.000000
End Object
Start Object054
    81466.960938 -69828.937500 20586.025391
    1337000098
    0.000000#0.000000#0.000000
    -22.000000
End Object
Start Object055
    79011.476563 -52672.523438 20334.500000
    1337000106
    0.000000#0.000000#0.000000
    -22.000000
End Object
Start Object056
    90986.945313 -73841.960938 20444.335938
    1337000106
    0.000000#0.000000#0.000000
    -22.000000
End Object
Start Object057
    82022.039063 -70908.687500 20365.484375
    1337464007
    0.000000#0.000000#0.000000
    0.000000
End Object
Start Object058
    89489.632813 -62707.996094 20778.404297
    1535330398
    0.000000#0.000000#180.000000
    0.000000
End Object
Start Object059
    89311.546875 -59221.476563 20780.500000
    1535330398
    0.000000#0.000000#180.000000
    0.000000
End Object
Start Object060
    90282.984375 -60800.808594 20780.500000
    1552435463
    0.000000#0.000000#270.000000
    0.000000
End Object
Start Object061
    90209.101563 -60695.589844 20780.500000
    1552435463
    0.000000#0.000000#330.000000
    0.000000
End Object
Start Object062
    90071.257813 -61857.804688 20780.500000
    1703863918
    0.000000#0.000000#0.000000
    0.000000
End Object
Start Object063
    88828.171875 -59372.027344 20789.099609
    1817296008
    0.000000#0.000000#30.000000
    0.000000
End Object
Start Object064
    89985.890625 -62629.761719 20775.884766
    1817296008
    0.000000#0.000000#195.000000
    0.000000
End Object
Start Object065
    89785.585938 -59374.882813 20780.500000
    1817296008
    0.000000#0.000000#150.000000
    0.000000
End Object
Start Object066
    89588.437500 -62111.777344 20780.500000
    1948794023
    0.000000#0.000000#270.000000
    0.000000
End Object
Start Object067
    88146.781250 -61239.082031 20774.802734
    2401125466
    0.000000#0.000000#0.000000
    0.000000
End Object
Start Object068
    88850.140625 -61510.593750 20782.000000
    2435647381
    0.000000#0.000000#270.000000
    0.000000
End Object
Start Object069
    85240.210938 -60596.179688 20402.269531
    2707916055
    0.000000#0.000000#0.000000
    -4.000000
End Object
Start Object070
    88751.687500 -67120.578125 20616.000000
    2707916055
    0.000000#0.000000#180.000000
    0.000000
End Object
Start Object071
    83072.398438 -71589.742188 20358.000000
    2707916055
    0.000000#0.000000#0.000000
    -30.000000
End Object
Start Object072
    80511.351563 -53948.093750 20346.136719
    2715558757
    0.000000#0.000000#0.000000
    0.000000
End Object
Start Object073
    85812.164063 -52865.335938 20378.000000
    2767369424
    0.000000#0.000000#0.000000
    -30.000000
End Object
Start Object074
    85248.773438 -69825.929688 20345.500000
    2767369424
    0.000000#0.000000#0.000000
    -30.000000
End Object
Start Object075
    84015.703125 -63490.726563 20371.988281
    2767369424
    0.000000#0.000000#0.000000
    -30.000000
End Object
Start Object076
    89604.085938 -61584.914063 20780.500000
    3115423655
    0.000000#0.000000#270.000000
    0.000000
End Object
Start Object077
    90162.109375 -61334.605469 20780.500000
    3115423655
    0.000000#0.000000#270.000000
    0.000000
End Object
Start Object078
    90309.210938 -61071.476563 20780.500000
    3115423655
    0.000000#0.000000#270.000000
    0.000000
End Object
Start Object079
    89463.257813 -60263.652344 20780.500000
    3115423655
    0.000000#0.000000#270.000000
    0.000000
End Object
Start Object080
    89618.609375 -60246.250000 20780.500000
    3251244830
    0.000000#0.000000#270.000000
    0.000000
End Object
Start Object081
    80929.640625 -52348.273438 20334.500000
    3381040417
    0.000000#0.000000#0.000000
    0.000000
End Object
Start Object082
    85867.242188 -62224.843750 20404.607422
    3381040417
    0.000000#0.000000#0.000000
    0.000000
End Object
Start Object083
    92521.007813 -75500.796875 20363.734375
    3748653682
    0.000000#0.000000#0.000000
    0.000000
End Object
Start Object084
    86961.281250 -67764.554688 20489.767578
    3748653682
    0.000000#0.000000#0.000000
    0.000000
End Object
Start Object085
    86651.289063 -57792.007813 20525.640625
    3748653682
    0.000000#0.000000#0.000000
    0.000000
End Object
Start Object086
    88731.382813 -61619.507813 20785.693359
    3783665902
    0.000000#0.000000#285.000000
    0.000000
End Object
Start Object087
    88863.078125 -61750.351563 20782.125000
    3986283277
    0.000000#0.000000#345.000000
    0.000000
End Object
Start Object088
    79442.640625 -54973.546875 20335.914063
    4138408309
    0.000000#0.000000#0.000000
    0.000000
End Object
Start Object089
    79038.921875 -73936.234375 20358.720703
    4236108718
    0.000000#0.000000#0.000000
    -30.000000
End Object
Start Object090
    77199.265625 -75989.671875 20294.539063
    4236108718
    0.000000#0.000000#0.000000
    -30.000000
End Object
Start Object091
    85464.093750 -66442.109375 20349.919922
    4236108718
    0.000000#0.000000#0.000000
    -30.000000
End Object
Start Object092
    79999.210938 -53868.761719 20334.500000
    4236108718
    0.000000#0.000000#0.000000
    -30.000000
End Object
Start Object093
    90207.429688 -60976.316406 20780.500000
    4280501650
    0.000000#0.000000#270.000000
    0.000000
End Object
Start Object094
    90217.101563 -61233.351563 20780.500000
    4280501650
    0.000000#0.000000#270.000000
    0.000000
End Object
Start Object095
    89655.085938 -60347.476563 20780.500000
    4287115072
    0.000000#0.000000#270.000000
    0.000000
End Object

ObjectCount 96
