AreaDataFile

Start Object000
    10972.945313 -95141.507813 23250.070313
    157332292
    0.000000#0.000000#330.000000
    0.000000
End Object
Start Object001
    11450.665039 -94148.875000 23248.000000
    486960621
    0.000000#0.000000#330.000000
    0.000000
End Object
Start Object002
    9131.296875 -96342.585938 23251.500000
    486960621
    0.000000#0.000000#330.000000
    0.000000
End Object
Start Object003
    14293.410156 -92303.765625 20125.261719
    486960621
    0.000000#0.000000#0.000000
    0.000000
End Object
Start Object004
    20718.861328 -100446.960938 20160.210938
    486960621
    0.000000#0.000000#0.000000
    0.000000
End Object
Start Object005
    25073.009766 -86321.875000 19723.169922
    569394331
    0.000000#0.000000#0.000000
    0.000000
End Object
Start Object006
    19458.769531 -98633.554688 20426.980469
    569394331
    0.000000#0.000000#0.000000
    0.000000
End Object
Start Object007
    16546.457031 -82609.406250 20056.796875
    569394331
    0.000000#0.000000#0.000000
    0.000000
End Object
Start Object008
    18508.537109 -101691.343750 20142.500000
    1107711305
    0.000000#0.000000#0.000000
    0.000000
End Object
Start Object009
    10302.668945 -86515.250000 22907.945313
    1289994135
    0.000000#0.000000#150.000000
    0.000000
End Object
Start Object010
    5276.958008 -93514.671875 23252.000000
    1289994135
    0.000000#0.000000#150.000000
    0.000000
End Object
Start Object011
    21311.156250 -84193.203125 19712.962891
    1289994135
    0.000000#0.000000#0.000000
    0.000000
End Object
Start Object012
    8884.534180 -96447.656250 23251.500000
    1289994135
    0.000000#0.000000#330.000000
    0.000000
End Object
Start Object013
    24114.000000 -88957.000000 20127.000000
    1353164984
    0.000000#0.000000#0.000000
    0.000000
End Object
Start Object014
    22335.150391 -97009.656250 20148.000000
    1353164984
    0.000000#0.000000#0.000000
    0.000000
End Object
Start Object015
    10453.095703 -100569.953125 20654.421875
    1353164984
    0.000000#0.000000#0.000000
    0.000000
End Object
Start Object016
    18581.535156 -90804.250000 20110.546875
    2188671155
    0.000000#0.000000#0.000000
    0.000000
End Object
Start Object017
    23630.980469 -101016.843750 20381.490234
    2188671155
    0.000000#0.000000#0.000000
    0.000000
End Object
Start Object018
    20965.707031 -95782.750000 20120.230469
    2376089798
    0.000000#0.000000#0.000000
    0.000000
End Object
Start Object019
    15962.620117 -83695.625000 20070.285156
    2376089798
    0.000000#0.000000#0.000000
    0.000000
End Object
Start Object020
    8699.295898 -78393.257813 21545.148438
    2399205967
    0.000000#0.000000#150.000000
    0.000000
End Object
Start Object021
    14538.755859 -91042.492188 20116.365234
    2399205967
    0.000000#0.000000#0.000000
    0.000000
End Object
Start Object022
    5733.753906 -95338.648438 23252.000000
    2399205967
    0.000000#0.000000#150.000000
    0.000000
End Object
Start Object023
    16323.433594 -99686.601563 20433.000000
    2585303992
    0.000000#0.000000#0.000000
    0.000000
End Object
Start Object024
    7614.696289 -86263.875000 22996.910156
    2707916055
    0.000000#0.000000#150.000000
    0.000000
End Object
Start Object025
    10719.142578 -79898.992188 21648.068359
    2707916055
    0.000000#0.000000#150.000000
    0.000000
End Object
Start Object026
    5278.069336 -94027.773438 23252.000000
    2707916055
    0.000000#0.000000#90.000000
    0.000000
End Object
Start Object027
    7984.437988 -86516.609375 23002.109375
    2763472928
    0.000000#0.000000#150.000000
    0.000000
End Object
Start Object028
    10338.626953 -85431.664063 22739.212891
    2763472928
    0.000000#0.000000#150.000000
    0.000000
End Object
Start Object029
    8578.655273 -78351.171875 21526.953125
    2763472928
    0.000000#0.000000#150.000000
    0.000000
End Object
Start Object030
    7980.854492 -86361.015625 22977.748047
    2767369424
    0.000000#0.000000#150.000000
    0.000000
End Object
Start Object031
    8422.490234 -78342.804688 21517.150391
    2767369424
    0.000000#0.000000#150.000000
    0.000000
End Object
Start Object032
    11122.454102 -96775.421875 23251.000000
    3134961381
    0.000000#0.000000#150.000000
    0.000000
End Object
Start Object033
    22985.234375 -92456.015625 20108.574219
    3193282972
    0.000000#0.000000#0.000000
    0.000000
End Object
Start Object034
    8367.273438 -78557.859375 21545.134766
    3280855028
    0.000000#0.000000#150.000000
    0.000000
End Object
Start Object035
    18911.083984 -81199.695313 19499.269531
    3455398876
    0.000000#0.000000#0.000000
    0.000000
End Object
Start Object036
    23003.960938 -101326.179688 20389.000000
    3455398876
    0.000000#0.000000#0.000000
    0.000000
End Object
Start Object037
    18991.490234 -89599.859375 20079.724609
    3455398876
    0.000000#0.000000#0.000000
    0.000000
End Object
Start Object038
    20396.875000 -101325.617188 20142.500000
    3689520799
    0.000000#0.000000#0.000000
    0.000000
End Object
Start Object039
    19013.880859 -77853.750000 19021.001953
    3689520799
    0.000000#0.000000#0.000000
    0.000000
End Object
Start Object040
    10637.306641 -85555.968750 22711.742188
    3689520799
    0.000000#0.000000#150.000000
    0.000000
End Object
Start Object041
    7805.990234 -86361.570313 22994.345703
    3696590585
    0.000000#0.000000#150.000000
    0.000000
End Object
Start Object042
    10810.948242 -80126.937500 21666.919922
    3696590585
    0.000000#0.000000#150.000000
    0.000000
End Object
Start Object043
    5344.299805 -93799.000000 23252.000000
    3696590585
    0.000000#0.000000#75.000000
    0.000000
End Object
Start Object044
    22126.527344 -95283.726563 20122.080078
    3748653682
    0.000000#0.000000#0.000000
    0.000000
End Object
Start Object045
    11293.873047 -96443.812500 23250.140625
    3748653682
    0.000000#0.000000#330.000000
    0.000000
End Object
Start Object046
    10586.626953 -80137.437500 21703.332031
    4236108718
    0.000000#0.000000#150.000000
    0.000000
End Object

Start Object047
	6279.24462891 -97799.65625 23006.9941406
	1337464010
	0.0#0.0#0.0
	0.000000
End Object
Start Object048
	6112.93994141 -97606.7578125 22985.4277344
	1337464012
	0.0#0.0#0.0
	0.000000
End Object
Start Object049
	6330.36474609 -97388.4453125 22979.9492188
	1337464014
	0.0#0.0#0.0
	0.000000
End Object
Start Object050
	5967.15380859 -97434.8125 22980.7050781
	1337464014
	0.0#0.0#0.0
	0.000000
End Object
Start Object051
	5136.99511719 -88647.3828125 22974.6601563
	1337464014
	0.0#0.0#0.0
	0.000000
End Object
Start Object052
	5333.640625 -88434.546875 22979.2226563
	1337464014
	0.0#0.0#0.0
	0.000000
End Object
Start Object053
	4971.33300781 -88530.2265625 22988.3515625
	1337464013
	0.0#0.0#0.0
	0.000000
End Object
Start Object054
	5165.76367188 -88271.40625 23000.0078125
	1337464012
	0.0#0.0#0.0
	0.000000
End Object
Start Object055
	7607.12744141 -85305.140625 22620.28125
	1337464012
	0.0#0.0#0.0
	0.000000
End Object
Start Object056
	7453.20214844 -85113.6015625 22610.2324219
	1337464011
	0.0#0.0#0.0
	0.000000
End Object
Start Object057
	7376.66748047 -85446.109375 22690.5117188
	1337464010
	0.0#0.0#0.0
	0.000000
End Object
Start Object058
	7683.20019531 -85064.2578125 22566.734375
	1337464013
	0.0#0.0#0.0
	0.000000
End Object
Start Object059
	7633.17480469 -84780.8125 22517.6230469
	1337464014
	0.0#0.0#0.0
	0.000000
End Object
Start Object060
	7742.64648438 -84899.9453125 22533.4707031
	1337464014
	0.0#0.0#0.0
	0.000000
End Object
Start Object061
	13444.6484375 -76983.4453125 20963.9179688
	1337464008
	0.0#0.0#0.0
	0.000000
End Object
Start Object062
	9025.53027344 -80564.9140625 21654.8691406
	1337464008
	0.0#0.0#0.0
	0.000000
End Object
Start Object063
	8515.99121094 -80638.078125 21675.3066406
	1337464008
	0.0#0.0#0.0
	0.000000
End Object
Start Object064
	10658.2353516 -80910.8125 21614.7519531
	1337464008
	0.0#0.0#0.0
	0.000000
End Object
Start Object065
	10431.7441406 -81742.125 21818.546875
	1337464008
	0.0#0.0#0.0
	0.000000
End Object
Start Object066
	10760.9960938 -82244.921875 21922.9277344
	1337464008
	0.0#0.0#0.0
	0.000000
End Object
Start Object067
	10877.3935547 -101591.882813 20516.0683594
	1337464008
	0.0#0.0#0.0
	0.000000
End Object
Start Object068
	11103.7636719 -101688.929688 20517.6445313
	1337464008
	0.0#0.0#0.0
	0.000000
End Object
Start Object069
	14671.1601563 -101487.273438 20137.8183594
	1337464008
	0.0#0.0#0.0
	0.000000
End Object
Start Object070
	14793.4619141 -101795.039063 20137.9023438
	1337464008
	0.0#0.0#0.0
	0.000000
End Object
Start Object071
	14601.5263672 -102010.820313 20120.8691406
	1337464008
	0.0#0.0#0.0
	0.000000
End Object
Start Object072
	15517.0615234 -101845.195313 20134.0976563
	1337464008
	0.0#0.0#0.0
	0.000000
End Object
Start Object073
	15553.6113281 -102259.132813 20061.3222656
	1337464008
	0.0#0.0#0.0
	0.000000
End Object
Start Object074
	15924.6796875 -99935.5859375 20160.2011719
	1337464008
	0.0#0.0#0.0
	0.000000
End Object
Start Object075
	15570.7421875 -99735.65625 20153.7890625
	1337464008
	0.0#0.0#0.0
	0.000000
End Object
Start Object076
	15838.7226563 -99605.109375 20161.3203125
	1337464008
	0.0#0.0#0.0
	0.000000
End Object
Start Object077
	15786.8232422 -99044.0625 20099.0566406
	1337464008
	0.0#0.0#0.0
	0.000000
End Object
Start Object078
	15664.2548828 -98516.8203125 20044.0351563
	1337464008
	0.0#0.0#0.0
	0.000000
End Object
Start Object079
	12842.6015625 -99746.5078125 20026.9589844
	1337464008
	0.0#0.0#0.0
	0.000000
End Object
Start Object080
	12980.1376953 -100014.367188 20041.7070313
	1337464008
	0.0#0.0#0.0
	0.000000
End Object
Start Object081
	12650.1494141 -100258.710938 20039.890625
	1337464008
	0.0#0.0#0.0
	0.000000
End Object
Start Object082
	12803.8007813 -101358.78125 20052.359375
	1337464008
	0.0#0.0#0.0
	0.000000
End Object
Start Object083
	11084.1611328 -99021.9609375 20272.5449219
	1337464014
	0.0#0.0#0.0
	0.000000
End Object
Start Object084
	11337.0859375 -98828.9375 20247.3164063
	1337464014
	0.0#0.0#0.0
	0.000000
End Object
Start Object085
	11303.2011719 -99099.9140625 20190.1757813
	1337464013
	0.0#0.0#0.0
	0.000000
End Object
Start Object086
	14029.7714844 -96855.9140625 20009.453125
	1337464008
	0.0#0.0#0.0
	0.000000
End Object
Start Object087
	14228.0654297 -96378.1015625 19992.5195313
	1337464008
	0.0#0.0#0.0
	0.000000
End Object
Start Object088
	14319.2685547 -96018.3828125 19997.9570313
	1337464008
	0.0#0.0#0.0
	0.000000
End Object
Start Object089
	14084.2929688 -96617.3359375 20038.1289063
	1337464008
	0.0#0.0#0.0
	0.000000
End Object
Start Object090
	14010.4365234 -97304.875 19970.6269531
	1337464008
	0.0#0.0#0.0
	0.000000
End Object
Start Object091
	14933.8964844 -93660.078125 19917.6777344
	1337464008
	0.0#0.0#0.0
	0.000000
End Object
Start Object092
	14821.4902344 -93466.015625 19917.3007813
	1337464008
	0.0#0.0#0.0
	0.000000
End Object
Start Object093
	14924.3720703 -94008.046875 19920.6308594
	1337464008
	0.0#0.0#0.0
	0.000000
End Object
Start Object094
	14465.4521484 -94623.7421875 19961.5859375
	1337464008
	0.0#0.0#0.0
	0.000000
End Object
Start Object095
	17867.4453125 -99607.15625 20159.2988281
	1337464008
	0.0#0.0#0.0
	0.000000
End Object
Start Object096
	17721.40625 -99223.0078125 20144.6640625
	1337464008
	0.0#0.0#0.0
	0.000000
End Object
Start Object097
	17639.9160156 -99803.84375 20155.6054688
	1337464008
	0.0#0.0#0.0
	0.000000
End Object
Start Object098
	18165.0722656 -99448.0703125 20159.3144531
	1337464008
	0.0#0.0#0.0
	0.000000
End Object
Start Object099
	18038.6601563 -99179.390625 20161.109375
	1337464008
	0.0#0.0#0.0
	0.000000
End Object
Start Object100
	17887.3261719 -98882.6875 20113.8085938
	1337464008
	0.0#0.0#0.0
	0.000000
End Object
Start Object101
	18196.9902344 -98939.609375 20154.6171875
	1337464008
	0.0#0.0#0.0
	0.000000
End Object
Start Object102
	17381.9707031 -97927.90625 20048.6699219
	1337464008
	0.0#0.0#0.0
	0.000000
End Object
Start Object103
	17609.7363281 -98241.78125 20058.3125
	1337464008
	0.0#0.0#0.0
	0.000000
End Object
Start Object104
	17792.1503906 -97916.7109375 20048.9746094
	1337464008
	0.0#0.0#0.0
	0.000000
End Object
Start Object105
	19071.109375 -98501.5234375 20159.6855469
	1337464008
	0.0#0.0#0.0
	0.000000
End Object
Start Object106
	18887.3457031 -98936.8046875 20160.9492188
	1337464008
	0.0#0.0#0.0
	0.000000
End Object
Start Object107
	19254.03125 -99132.90625 20152.5429688
	1337464008
	0.0#0.0#0.0
	0.000000
End Object
Start Object108
	22799.7148438 -99941.1328125 20162.4921875
	1337464008
	0.0#0.0#0.0
	0.000000
End Object
Start Object109
	22646.5878906 -99511.8203125 20166.3164063
	1337464008
	0.0#0.0#0.0
	0.000000
End Object
Start Object110
	22328.9199219 -99823.4453125 20165.7773438
	1337464008
	0.0#0.0#0.0
	0.000000
End Object
Start Object111
	22181.4414063 -101026.867188 20162.8222656
	1337464008
	0.0#0.0#0.0
	0.000000
End Object
Start Object112
	22093.3085938 -101281.632813 20130.0761719
	1337464008
	0.0#0.0#0.0
	0.000000
End Object
Start Object113
	21790.8554688 -101158.546875 20149.7441406
	1337464008
	0.0#0.0#0.0
	0.000000
End Object
Start Object114
	24059.0722656 -99907.859375 20204.9707031
	1337464011
	0.0#0.0#0.0
	0.000000
End Object
Start Object115
	23847.0078125 -99799.7265625 20177.5527344
	1337464013
	0.0#0.0#0.0
	0.000000
End Object
Start Object116
	24046.2929688 -100103.21875 20164.0214844
	1337464013
	0.0#0.0#0.0
	0.000000
End Object
Start Object117
	20676.2128906 -97740.0234375 19893.3945313
	1337464008
	0.0#0.0#0.0
	0.000000
End Object
Start Object118
	20768.1542969 -97409.78125 19926.7382813
	1337464008
	0.0#0.0#0.0
	0.000000
End Object
Start Object119
	21210.2285156 -97631.4296875 19927.6308594
	1337464008
	0.0#0.0#0.0
	0.000000
End Object
Start Object120
	21136.1542969 -97115.5234375 19928.4863281
	1337464008
	0.0#0.0#0.0
	0.000000
End Object
Start Object121
	21726.4082031 -98710.9140625 19958.4492188
	1337464008
	0.0#0.0#0.0
	0.000000
End Object
Start Object122
	21299.78125 -98859.359375 19938.953125
	1337464008
	0.0#0.0#0.0
	0.000000
End Object
Start Object123
	20265.8183594 -99204.21875 19938.3320313
	1337464008
	0.0#0.0#0.0
	0.000000
End Object
Start Object124
	18867.4550781 -96746.1640625 19928.4355469
	1337464008
	0.0#0.0#0.0
	0.000000
End Object
Start Object125
	19052.90625 -96254.3359375 19918.7539063
	1337464008
	0.0#0.0#0.0
	0.000000
End Object
Start Object126
	18736.9804688 -96367.9453125 19927.6757813
	1337464008
	0.0#0.0#0.0
	0.000000
End Object
Start Object127
	18350.0175781 -95041.1484375 19908.1640625
	1337464008
	0.0#0.0#0.0
	0.000000
End Object
Start Object128
	18045.0625 -95630.5234375 19914.4160156
	1337464008
	0.0#0.0#0.0
	0.000000
End Object
Start Object129
	18393.6992188 -95607.859375 19910.4628906
	1337464008
	0.0#0.0#0.0
	0.000000
End Object
Start Object130
	17351.0898438 -96105.9765625 19927.8085938
	1337464008
	0.0#0.0#0.0
	0.000000
End Object
Start Object131
	16146.3798828 -97014.125 19948.3671875
	1337464008
	0.0#0.0#0.0
	0.000000
End Object
Start Object132
	16200.7314453 -97378.75 19951.4550781
	1337464008
	0.0#0.0#0.0
	0.000000
End Object
Start Object133
	16517.3769531 -97084.921875 19946.0214844
	1337464008
	0.0#0.0#0.0
	0.000000
End Object
Start Object134
	17360.3203125 -94682.2734375 19906.0019531
	1337464008
	0.0#0.0#0.0
	0.000000
End Object
Start Object135
	16996.3300781 -94623.3515625 19908.6015625
	1337464008
	0.0#0.0#0.0
	0.000000
End Object
Start Object136
	17114.3320313 -94976.71875 19908.3710938
	1337464008
	0.0#0.0#0.0
	0.000000
End Object
Start Object137
	17948.9765625 -93277.859375 19897.6542969
	1337464008
	0.0#0.0#0.0
	0.000000
End Object
Start Object138
	17668.3710938 -93184.84375 19899.5507813
	1337464008
	0.0#0.0#0.0
	0.000000
End Object
Start Object139
	18146.7089844 -93031.4609375 19895.4609375
	1337464008
	0.0#0.0#0.0
	0.000000
End Object
Start Object140
	17833.1484375 -92670.9140625 19895.4824219
	1337464008
	0.0#0.0#0.0
	0.000000
End Object
Start Object141
	17833 -92670 20127.9199219
	1337464008
	0.0#0.0#0.0
	0.000000
End Object
Start Object142
	17914.59375 -92549.65625 19893.5019531
	1337464012
	0.0#0.0#0.0
	0.000000
End Object
Start Object143
	17701.3828125 -92583.5859375 19893.2929688
	1337464012
	0.0#0.0#0.0
	0.000000
End Object
Start Object144
	17773.7070313 -92811.1171875 19896.0703125
	1337464012
	0.0#0.0#0.0
	0.000000
End Object
Start Object145
	17954.1523438 -92821.90625 19893.7519531
	1337464012
	0.0#0.0#0.0
	0.000000
End Object
Start Object146
	18057.1894531 -92653.625 19894.0976563
	1337464012
	0.0#0.0#0.0
	0.000000
End Object
Start Object147
	17767.3378906 -92271.78125 19894.9804688
	1337464008
	0.0#0.0#0.0
	0.000000
End Object
Start Object148
	18058.8300781 -92329.1875 19892.59375
	1337464008
	0.0#0.0#0.0
	0.000000
End Object
Start Object149
	18267.2382813 -92559.8046875 19893.6289063
	1337464008
	0.0#0.0#0.0
	0.000000
End Object
Start Object150
	17604.875 -92876.2109375 19897.1894531
	1337464008
	0.0#0.0#0.0
	0.000000
End Object
Start Object151
	18374.8769531 -92486.953125 19894.6777344
	1337464014
	0.0#0.0#0.0
	0.000000
End Object
Start Object152
	18220.8339844 -92307.0390625 19892.1132813
	1337464014
	0.0#0.0#0.0
	0.000000
End Object
Start Object153
	18093.3222656 -92462.4375 19893.0527344
	1337464014
	0.0#0.0#0.0
	0.000000
End Object
Start Object154
	18226.9960938 -92920.7734375 19894.1445313
	1337464012
	0.0#0.0#0.0
	0.000000
End Object
Start Object155
	18414.09375 -92844.7578125 19894.515625
	1337464014
	0.0#0.0#0.0
	0.000000
End Object
Start Object156
	19777.5058594 -92828.8046875 19889.234375
	1337464008
	0.0#0.0#0.0
	0.000000
End Object
Start Object157
	19740.1757813 -92585.578125 19889.4257813
	1337464008
	0.0#0.0#0.0
	0.000000
End Object
Start Object158
	19595.9355469 -92510.828125 19888.0800781
	1337464008
	0.0#0.0#0.0
	0.000000
End Object
Start Object159
	20086.4492188 -92375.46875 19887.4765625
	1337464008
	0.0#0.0#0.0
	0.000000
End Object
Start Object160
	20213.5214844 -92749.8125 19887.6914063
	1337464008
	0.0#0.0#0.0
	0.000000
End Object
Start Object161
	20456.0644531 -94214.6875 19889.0917969
	1337464008
	0.0#0.0#0.0
	0.000000
End Object
Start Object162
	20635.5625 -94517.53125 19890.4765625
	1337464008
	0.0#0.0#0.0
	0.000000
End Object
Start Object163
	20232.0390625 -94473.8828125 19890.7148438
	1337464008
	0.0#0.0#0.0
	0.000000
End Object
Start Object164
	19900.5859375 -94980.328125 19892.8964844
	1337464008
	0.0#0.0#0.0
	0.000000
End Object
Start Object165
	19323.3027344 -94984.6953125 19900.8925781
	1337464008
	0.0#0.0#0.0
	0.000000
End Object
Start Object166
	18927.4804688 -94080.2890625 19894.9550781
	1337464008
	0.0#0.0#0.0
	0.000000
End Object
Start Object167
	22205.6914063 -93104.625 19862.5820313
	1337464008
	0.0#0.0#0.0
	0.000000
End Object
Start Object168
	21974.6835938 -93058.8046875 19887.4316406
	1337464008
	0.0#0.0#0.0
	0.000000
End Object
Start Object169
	21764.7382813 -92677.1796875 19888.2851563
	1337464008
	0.0#0.0#0.0
	0.000000
End Object
Start Object170
	22118.2539063 -92750.6484375 19888.9335938
	1337464008
	0.0#0.0#0.0
	0.000000
End Object
Start Object171
	21668.8808594 -93000.65625 19888.2304688
	1337464008
	0.0#0.0#0.0
	0.000000
End Object
Start Object172
	21686.4980469 -94060.375 19887.9492188
	1337464008
	0.0#0.0#0.0
	0.000000
End Object
Start Object173
	18152.9003906 -91268.6015625 19889.7773438
	1337464008
	0.0#0.0#0.0
	0.000000
End Object
Start Object174
	17859.625 -91375.859375 19889.5332031
	1337464008
	0.0#0.0#0.0
	0.000000
End Object
Start Object175
	18112.8320313 -91571.71875 19891.9355469
	1337464008
	0.0#0.0#0.0
	0.000000
End Object
Start Object176
	20056.2636719 -91269.2578125 19927.7460938
	1337464008
	0.0#0.0#0.0
	0.000000
End Object
Start Object177
	19776.0039063 -91393.171875 19893.4394531
	1337464008
	0.0#0.0#0.0
	0.000000
End Object
Start Object178
	20216.6503906 -91568.484375 19895.1484375
	1337464008
	0.0#0.0#0.0
	0.000000
End Object
Start Object179
	22938.3476563 -90196.59375 19885.8769531
	1337464008
	0.0#0.0#0.0
	0.000000
End Object
Start Object180
	22689.1113281 -90453.4609375 19886.4257813
	1337464008
	0.0#0.0#0.0
	0.000000
End Object
Start Object181
	23209.0488281 -90839.734375 19886.5585938
	1337464008
	0.0#0.0#0.0
	0.000000
End Object
Start Object182
	23371.4257813 -90332.953125 19886.2539063
	1337464008
	0.0#0.0#0.0
	0.000000
End Object
Start Object183
	19308.4589844 -88264.0234375 19829.1914063
	1337464013
	0.0#0.0#0.0
	0.000000
End Object
Start Object184
	19545.6132813 -88173.8359375 19853.3730469
	1337464011
	0.0#0.0#0.0
	0.000000
End Object
Start Object185
	19767.6757813 -87966.578125 19811.6757813
	1337464014
	0.0#0.0#0.0
	0.000000
End Object
Start Object186
	19357.8847656 -87991.40625 19785.3164063
	1337464014
	0.0#0.0#0.0
	0.000000
End Object
Start Object187
	19048.8085938 -87443.0078125 19724.5527344
	1337464008
	0.0#0.0#0.0
	0.000000
End Object
Start Object188
	18877.0976563 -87743.4296875 19742.0019531
	1337464008
	0.0#0.0#0.0
	0.000000
End Object
Start Object189
	19246.8417969 -87675.546875 19747.7695313
	1337464008
	0.0#0.0#0.0
	0.000000
End Object
Start Object190
	18512.6621094 -88552.6171875 19788.6875
	1337464008
	0.0#0.0#0.0
	0.000000
End Object
Start Object191
	18340.6015625 -89702.640625 19861.2617188
	1337464008
	0.0#0.0#0.0
	0.000000
End Object
Start Object192
	14856.0615234 -89195.2734375 19893.296875
	1337464008
	0.0#0.0#0.0
	0.000000
End Object
Start Object193
	15285.5058594 -89174.75 19892.4550781
	1337464008
	0.0#0.0#0.0
	0.000000
End Object
Start Object194
	15700.1679688 -88926.1015625 19890.0878906
	1337464008
	0.0#0.0#0.0
	0.000000
End Object
Start Object195
	15360.7353516 -88905.4140625 19891.5351563
	1337464008
	0.0#0.0#0.0
	0.000000
End Object
Start Object196
	16075.53125 -90289.1953125 19889.8769531
	1337464008
	0.0#0.0#0.0
	0.000000
End Object
Start Object197
	16209.8769531 -89581.75 19888.1660156
	1337464008
	0.0#0.0#0.0
	0.000000
End Object
Start Object198
	16179.2910156 -89805.59375 19890.3808594
	1337464008
	0.0#0.0#0.0
	0.000000
End Object
Start Object199
	15867.3105469 -89670.984375 19890.5273438
	1337464008
	0.0#0.0#0.0
	0.000000
End Object
Start Object200
	14306.1445313 -87968.46875 19885.5351563
	1337464008
	0.0#0.0#0.0
	0.000000
End Object
Start Object201
	14230.8544922 -88256.3671875 19893.9140625
	1337464008
	0.0#0.0#0.0
	0.000000
End Object
Start Object202
	14603.2285156 -88138.1171875 19880.9648438
	1337464008
	0.0#0.0#0.0
	0.000000
End Object
Start Object203
	13787.4052734 -87405.8359375 19946.9804688
	1337464012
	0.0#0.0#0.0
	0.000000
End Object
Start Object204
	13770.8105469 -87644.1953125 19965.34375
	1337464010
	0.0#0.0#0.0
	0.000000
End Object
Start Object205
	13986.4433594 -87521.28125 19893.4023438
	1337464014
	0.0#0.0#0.0
	0.000000
End Object
Start Object206
	13805.7441406 -87810.34375 19932.0742188
	1337464014
	0.0#0.0#0.0
	0.000000
End Object
Start Object207
	20419.7089844 -85915.2734375 19602.9648438
	1337464008
	0.0#0.0#0.0
	0.000000
End Object
Start Object208
	19923.7695313 -85854.7265625 19624.0625
	1337464008
	0.0#0.0#0.0
	0.000000
End Object
Start Object209
	20174.9023438 -86129.015625 19641.0878906
	1337464008
	0.0#0.0#0.0
	0.000000
End Object
Start Object210
	20174.0878906 -85617.2265625 19595.3417969
	1337464008
	0.0#0.0#0.0
	0.000000
End Object
Start Object211
	20451.3808594 -85585.40625 19593.7207031
	1337464008
	0.0#0.0#0.0
	0.000000
End Object
Start Object212
	21410.9023438 -86858.8984375 19767.2753906
	1337464008
	0.0#0.0#0.0
	0.000000
End Object
Start Object213
	21369.2304688 -87123.6328125 19777.6347656
	1337464008
	0.0#0.0#0.0
	0.000000
End Object
Start Object214
	21715.2949219 -87178.453125 19785.4414063
	1337464008
	0.0#0.0#0.0
	0.000000
End Object
Start Object215
	21216.3476563 -88139.171875 19784.8515625
	1337464008
	0.0#0.0#0.0
	0.000000
End Object
Start Object216
	22648.1484375 -88148.0546875 19824.8691406
	1337464008
	0.0#0.0#0.0
	0.000000
End Object
Start Object217
	22935.9765625 -88398.4296875 19837.5722656
	1337464008
	0.0#0.0#0.0
	0.000000
End Object
Start Object218
	22671.9121094 -88558.0546875 19835.0078125
	1337464008
	0.0#0.0#0.0
	0.000000
End Object
Start Object219
	25130.0605469 -86674.3671875 19456.2207031
	1337464008
	0.0#0.0#0.0
	0.000000
End Object
Start Object220
	24741.3105469 -86657.1171875 19450.6171875
	1337464008
	0.0#0.0#0.0
	0.000000
End Object
Start Object221
	24838.9648438 -86308.5625 19447.78125
	1337464008
	0.0#0.0#0.0
	0.000000
End Object
Start Object222
	23157.2695313 -85973.8359375 19631.1679688
	1337464008
	0.0#0.0#0.0
	0.000000
End Object
Start Object223
	23313.3339844 -85765.0859375 19622.421875
	1337464008
	0.0#0.0#0.0
	0.000000
End Object
Start Object224
	23037.7636719 -85655.2421875 19649.0546875
	1337464008
	0.0#0.0#0.0
	0.000000
End Object
Start Object225
	21743.2929688 -85217.109375 19629.7226563
	1337464008
	0.0#0.0#0.0
	0.000000
End Object
Start Object226
	17118.5 -85696.21875 19679.75
	1337464008
	0.0#0.0#0.0
	0.000000
End Object
Start Object227
	17105.2089844 -86110.765625 19718.6035156
	1337464008
	0.0#0.0#0.0
	0.000000
End Object
Start Object228
	16769.2714844 -85638.84375 19716.0644531
	1337464008
	0.0#0.0#0.0
	0.000000
End Object
Start Object229
	17598.1855469 -84723.8125 19586.078125
	1337464008
	0.0#0.0#0.0
	0.000000
End Object
Start Object230
	17283.9824219 -84408.25 19596.7988281
	1337464008
	0.0#0.0#0.0
	0.000000
End Object
Start Object231
	15672.5644531 -82883.5546875 19844.4238281
	1337464008
	0.0#0.0#0.0
	0.000000
End Object
Start Object232
	15311.4716797 -82814.4453125 19843.0371094
	1337464008
	0.0#0.0#0.0
	0.000000
End Object
Start Object233
	15380.5585938 -82412.21875 19841.8300781
	1337464008
	0.0#0.0#0.0
	0.000000
End Object
Start Object234
	13897.5498047 -83241.3984375 19819.828125
	1337464008
	0.0#0.0#0.0
	0.000000
End Object
Start Object235
	13659.8925781 -82836.9921875 19854.046875
	1337464008
	0.0#0.0#0.0
	0.000000
End Object
Start Object236
	13597.0996094 -83176.6796875 19868.8671875
	1337464008
	0.0#0.0#0.0
	0.000000
End Object
Start Object237
	12732.6982422 -79747.6328125 20531.25
	1337464008
	0.0#0.0#0.0
	0.000000
End Object
Start Object238
	12675.7851563 -80239.546875 20530.5449219
	1337464008
	0.0#0.0#0.0
	0.000000
End Object
Start Object239
	14214.5244141 -79036.09375 20523.5898438
	1337464008
	0.0#0.0#0.0
	0.000000
End Object
Start Object240
	14296.0390625 -79305.8359375 20411.9804688
	1337464008
	0.0#0.0#0.0
	0.000000
End Object
Start Object241
	14908.6533203 -80909.0390625 19963.2304688
	1337464008
	0.0#0.0#0.0
	0.000000
End Object
Start Object242
	17956.6308594 -82940.125 19372.3613281
	1337464008
	0.0#0.0#0.0
	0.000000
End Object
Start Object243
	17634.3691406 -83335.734375 19413.1113281
	1337464008
	0.0#0.0#0.0
	0.000000
End Object
Start Object244
	18187.3339844 -83245.53125 19399.8828125
	1337464008
	0.0#0.0#0.0
	0.000000
End Object
Start Object245
	18366.0058594 -79835.5390625 19154.0742188
	1337464008
	0.0#0.0#0.0
	0.000000
End Object
Start Object246
	17997.4492188 -79712.640625 19149.2773438
	1337464008
	0.0#0.0#0.0
	0.000000
End Object
Start Object247
	17838.4746094 -80081.109375 19211.4414063
	1337464008
	0.0#0.0#0.0
	0.000000
End Object
Start Object248
	18368.4707031 -80836.1796875 19215.9902344
	1337464008
	0.0#0.0#0.0
	0.000000
End Object
Start Object249
	18227.7460938 -81070.390625 19234.3886719
	1337464008
	0.0#0.0#0.0
	0.000000
End Object
Start Object250
	17471.4550781 -81129.1015625 19287.8710938
	1337464008
	0.0#0.0#0.0
	0.000000
End Object
Start Object251
	18154.0097656 -82170.8125 19314.1582031
	1337464008
	0.0#0.0#0.0
	0.000000
End Object
Start Object252
	20427.65625 -83701.015625 19433.7753906
	1337464008
	0.0#0.0#0.0
	0.000000
End Object
Start Object253
	20579.6855469 -84111.6953125 19472.8105469
	1337464008
	0.0#0.0#0.0
	0.000000
End Object
Start Object254
	20759.9042969 -83797.3984375 19441.5585938
	1337464008
	0.0#0.0#0.0
	0.000000
End Object
Start Object255
	23737.7109375 -83944.9609375 19447.1796875
	1337464008
	0.0#0.0#0.0
	0.000000
End Object
Start Object256
	23825.6757813 -84239.0078125 19455.6601563
	1337464008
	0.0#0.0#0.0
	0.000000
End Object
Start Object257
	24232.7109375 -84144.5390625 19444.0527344
	1337464008
	0.0#0.0#0.0
	0.000000
End Object
Start Object258
	25023.8183594 -85440.0234375 19400.5625
	1337464008
	0.0#0.0#0.0
	0.000000
End Object
Start Object259
	22028.5820313 -81184.65625 19243.4726563
	1337464008
	0.0#0.0#0.0
	0.000000
End Object
Start Object260
	22330.0449219 -81525.1640625 19317.1074219
	1337464008
	0.0#0.0#0.0
	0.000000
End Object
Start Object261
	22070.828125 -82431.078125 19357.6230469
	1337464008
	0.0#0.0#0.0
	0.000000
End Object
Start Object262
	21906.4921875 -82058.234375 19326.2949219
	1337464008
	0.0#0.0#0.0
	0.000000
End Object
Start Object263
	23864.6933594 -81074.96875 19257.7441406
	1337464008
	0.0#0.0#0.0
	0.000000
End Object
Start Object264
	24178.7988281 -81196.1640625 19259.5058594
	1337464008
	0.0#0.0#0.0
	0.000000
End Object
Start Object265
	23157.7773438 -79852.953125 19283.9921875
	1337464008
	0.0#0.0#0.0
	0.000000
End Object
Start Object266
	22968.296875 -79973.890625 19291.5449219
	1337464008
	0.0#0.0#0.0
	0.000000
End Object
Start Object267
	23376.46875 -80087.3359375 19272.0273438
	1337464008
	0.0#0.0#0.0
	0.000000
End Object
Start Object268
	23536.5175781 -82103.359375 19314.8203125
	1337464008
	0.0#0.0#0.0
	0.000000
End Object
Start Object269
	17075.8496094 -94558.921875 20161.8671875
	1337464007
	0.0#0.0#0.0
	0.000000
End Object
Start Object270
	17221.2773438 -94618.6171875 20163.9785156
	1337464007
	0.0#0.0#0.0
	0.000000
End Object
Start Object271
	17090.9824219 -94916.6015625 20164.0058594
	1337464007
	0.0#0.0#0.0
	0.000000
End Object
Start Object272
	17724.0976563 -92302.5234375 20150.1914063
	1337464007
	0.0#0.0#0.0
	0.000000
End Object
Start Object273
	18361.4257813 -95676.625 20166.1015625
	1337464007
	0.0#0.0#0.0
	0.000000
End Object
Start Object274
	17546.0351563 -97997.765625 20305.0117188
	1337464007
	0.0#0.0#0.0
	0.000000
End Object
Start Object275
	17682.4277344 -98156.3359375 20312.0742188
	1337464007
	0.0#0.0#0.0
	0.000000
End Object
Start Object276
	16231.2929688 -97021.015625 20203.9648438
	1337464007
	0.0#0.0#0.0
	0.000000
End Object
Start Object277
	12705.1298828 -100148.273438 20293.984375
	1337464007
	0.0#0.0#0.0
	0.000000
End Object
Start Object278
	12692.0351563 -100270.8125 20297.1582031
	1337464007
	0.0#0.0#0.0
	0.000000
End Object
Start Object279
	13032.7675781 -99994.4140625 20299.2890625
	1337464004
	0.0#0.0#0.0
	0.000000
End Object
Start Object280
	12910.7978516 -99717.0625 20282.140625
	1337464004
	0.0#0.0#0.0
	0.000000
End Object
Start Object281
	12877.0527344 -99908.859375 20291.3789063
	1337464004
	0.0#0.0#0.0
	0.000000
End Object
Start Object282
	12862.8613281 -101379.21875 20312.4375
	1337464006
	0.0#0.0#0.0
	0.000000
End Object
Start Object283
	12812.6337891 -101429.085938 20308.9101563
	1337464006
	0.0#0.0#0.0
	0.000000
End Object
Start Object284
	12661.4501953 -101195.210938 20299.7480469
	1337464006
	0.0#0.0#0.0
	0.000000
End Object
Start Object285
	12724.5166016 -101308.546875 20305.65625
	1337464003
	0.0#0.0#0.0
	0.000000
End Object
Start Object286
	12831.2939453 -101249.867188 20309.6308594
	1337464003
	0.0#0.0#0.0
	0.000000
End Object
Start Object287
	14684.7851563 -101931.054688 20383.9863281
	1337464007
	0.0#0.0#0.0
	0.000000
End Object
Start Object288
	14579.3183594 -101976.296875 20377.4785156
	1337464007
	0.0#0.0#0.0
	0.000000
End Object
Start Object289
	14704.34375 -101504.3125 20396.8964844
	1337464007
	0.0#0.0#0.0
	0.000000
End Object
Start Object290
	14822.5644531 -101751.15625 20395.0390625
	1337464007
	0.0#0.0#0.0
	0.000000
End Object
Start Object291
	17149.3203125 -86106.6171875 19973.3320313
	1337464007
	0.0#0.0#0.0
	0.000000
End Object
Start Object292
	17155.0117188 -85723.53125 19951.9804688
	1337464007
	0.0#0.0#0.0
	0.000000
End Object
Start Object293
	16850.6660156 -85675.0078125 19964.421875
	1337464007
	0.0#0.0#0.0
	0.000000
End Object
Start Object294
	18097.8984375 -82976.390625 19630.2832031
	1337464007
	0.0#0.0#0.0
	0.000000
End Object
Start Object295
	18208.5585938 -83160.3046875 19646.5507813
	1337464007
	0.0#0.0#0.0
	0.000000
End Object
Start Object296
	17977.359375 -82983.890625 19630.03125
	1337464007
	0.0#0.0#0.0
	0.000000
End Object
Start Object297
	18211.3027344 -81091.9765625 19492.9140625
	1337464007
	0.0#0.0#0.0
	0.000000
End Object
Start Object298
	18296.0449219 -80855.875 19476.90625
	1337464007
	0.0#0.0#0.0
	0.000000
End Object
Start Object299
	18361.6738281 -80988.6171875 19482.3984375
	1337464007
	0.0#0.0#0.0
	0.000000
End Object
Start Object300
	22349.7890625 -81481.046875 19549.7714844
	1337464007
	0.0#0.0#0.0
	0.000000
End Object
Start Object301
	22047.078125 -81204.890625 19528.15625
	1337464007
	0.0#0.0#0.0
	0.000000
End Object
Start Object302
	23101.1855469 -79829.375 19541.8847656
	1337464007
	0.0#0.0#0.0
	0.000000
End Object
Start Object303
	22764.2890625 -88464.96875 20085.8476563
	1337464007
	0.0#0.0#0.0
	0.000000
End Object
Start Object304
	22793.6875 -88164.7265625 20081.1445313
	1337464007
	0.0#0.0#0.0
	0.000000
End Object
Start Object305
	22891.0371094 -88389.8671875 20092.921875
	1337464007
	0.0#0.0#0.0
	0.000000
End Object
ObjectCount 306