AreaDataFile

Start Object000
    13607.940430 -52165.703125 16383.500000
    807123463
    0.000000#0.000000#0.000000
    476.000000
End Object
Start Object001
    13608.384766 -67252.687500 16383.500000
    807123463
    0.000000#0.000000#0.000000
    476.000000
End Object
Start Object002
    13615.192383 -66084.695313 16383.500000
    807123463
    0.000000#0.000000#0.000000
    476.000000
End Object
Start Object003
    13606.214844 -64820.722656 16383.500000
    807123463
    0.000000#0.000000#0.000000
    476.000000
End Object
Start Object004
    12782.609375 -69438.015625 16383.500000
    807123463
    0.000000#0.000000#0.000000
    346.000000
End Object
Start Object005
    11339.291016 -70875.554688 16383.500000
    807123463
    0.000000#0.000000#0.000000
    346.000000
End Object
Start Object006
    11328.963867 -72975.882813 16383.500000
    807123463
    0.000000#0.000000#0.000000
    346.000000
End Object
Start Object007
    11332.575195 -75061.796875 16383.500000
    807123463
    0.000000#0.000000#0.000000
    346.000000
End Object
Start Object008
    12779.501953 -76522.398438 16383.500000
    807123463
    0.000000#0.000000#0.000000
    346.000000
End Object
Start Object009
    19026.287109 -74106.593750 16383.500000
    807123463
    0.000000#0.000000#0.000000
    476.000000
End Object
Start Object010
    20531.998047 -74109.093750 16383.500000
    807123463
    0.000000#0.000000#0.000000
    476.000000
End Object
Start Object011
    16001.041992 -64814.289063 16383.500000
    807123463
    0.000000#0.000000#0.000000
    476.000000
End Object
Start Object012
    24831.228516 -53105.238281 16383.500000
    807123463
    0.000000#0.000000#0.000000
    338.000000
End Object
Start Object013
    22621.328125 -60228.136719 16383.500000
    807123463
    0.000000#0.000000#0.000000
    338.000000
End Object
Start Object014
    16008.549805 -67238.023438 16383.500000
    807123463
    0.000000#0.000000#0.000000
    476.000000
End Object
Start Object015
    15988.432617 -68749.242188 16383.500000
    807123463
    0.000000#0.000000#0.000000
    476.000000
End Object
Start Object016
    19028.644531 -71719.812500 16383.500000
    807123463
    0.000000#0.000000#0.000000
    476.000000
End Object
Start Object017
    20530.304688 -71721.164063 16383.500000
    807123463
    0.000000#0.000000#0.000000
    476.000000
End Object
Start Object018
    23461.363281 -60892.164063 16383.500000
    807123463
    0.000000#0.000000#0.000000
    479.000000
End Object
Start Object019
    23449.050781 -62398.089844 16383.500000
    807123463
    0.000000#0.000000#0.000000
    479.000000
End Object
Start Object020
    23457.019531 -63478.910156 16383.500000
    807123463
    0.000000#0.000000#0.000000
    479.000000
End Object
Start Object021
    23453.960938 -64984.878906 16383.500000
    807123463
    0.000000#0.000000#0.000000
    479.000000
End Object
Start Object022
    23449.742188 -66147.140625 16383.500000
    807123463
    0.000000#0.000000#0.000000
    479.000000
End Object
Start Object023
    23453.408203 -67413.742188 16383.500000
    807123463
    0.000000#0.000000#0.000000
    479.000000
End Object
Start Object024
    23450.599609 -68568.703125 16383.500000
    807123463
    0.000000#0.000000#0.000000
    479.000000
End Object
Start Object025
    22542.195313 -76447.187500 16383.500000
    807123463
    0.000000#0.000000#0.000000
    346.000000
End Object
Start Object026
    21104.935547 -75017.289063 16383.500000
    807123463
    0.000000#0.000000#0.000000
    346.000000
End Object
Start Object027
    21103.994141 -70827.195313 16383.500000
    807123463
    0.000000#0.000000#0.000000
    346.000000
End Object
Start Object028
    21167.419922 -58773.460938 16383.500000
    807123463
    0.000000#0.000000#0.000000
    338.000000
End Object
Start Object029
    21170.130859 -56665.351563 16383.500000
    807123463
    0.000000#0.000000#0.000000
    338.000000
End Object
Start Object030
    21170.666016 -54553.074219 16383.500000
    807123463
    0.000000#0.000000#0.000000
    338.000000
End Object
Start Object031
    22627.505859 -53102.890625 16383.500000
    807123463
    0.000000#0.000000#0.000000
    338.000000
End Object
Start Object032
    16003.417969 -66089.984375 16383.500000
    807123463
    0.000000#0.000000#0.000000
    476.000000
End Object
Start Object033
    16000.571289 -63656.218750 16383.500000
    807123463
    0.000000#0.000000#0.000000
    476.000000
End Object
Start Object034
    15999.094727 -62424.417969 16383.500000
    807123463
    0.000000#0.000000#0.000000
    476.000000
End Object
Start Object035
    16002.453125 -60902.617188 16383.500000
    807123463
    0.000000#0.000000#0.000000
    476.000000
End Object
Start Object036
    15996.005859 -59752.593750 16383.500000
    807123463
    0.000000#0.000000#0.000000
    476.000000
End Object
Start Object037
    16005.544922 -58480.687500 16383.500000
    807123463
    0.000000#0.000000#0.000000
    476.000000
End Object
Start Object038
    15993.210938 -57335.210938 16383.500000
    807123463
    0.000000#0.000000#0.000000
    476.000000
End Object
Start Object039
    15999.597656 -56102.917969 16383.500000
    807123463
    0.000000#0.000000#0.000000
    476.000000
End Object
Start Object040
    15999.208008 -54598.644531 16383.500000
    807123463
    0.000000#0.000000#0.000000
    476.000000
End Object
Start Object041
    15998.272461 -53428.804688 16383.500000
    807123463
    0.000000#0.000000#0.000000
    476.000000
End Object
Start Object042
    15995.796875 -52161.890625 16383.500000
    807123463
    0.000000#0.000000#0.000000
    476.000000
End Object
Start Object043
    16972.957031 -69440.781250 16383.500000
    807123463
    0.000000#0.000000#0.000000
    346.000000
End Object
Start Object044
    18416.908203 -70880.937500 16383.500000
    807123463
    0.000000#0.000000#0.000000
    346.000000
End Object
Start Object045
    18411.507813 -75075.750000 16383.500000
    807123463
    0.000000#0.000000#0.000000
    346.000000
End Object
Start Object046
    16970.433594 -76523.445313 16383.500000
    807123463
    0.000000#0.000000#0.000000
    346.000000
End Object
Start Object047
    13612.002930 -68746.968750 16383.500000
    807123463
    0.000000#0.000000#0.000000
    476.000000
End Object
Start Object048
    13612.619141 -53432.945313 16383.500000
    807123463
    0.000000#0.000000#0.000000
    476.000000
End Object
Start Object049
    13607.573242 -54602.722656 16383.500000
    807123463
    0.000000#0.000000#0.000000
    476.000000
End Object
Start Object050
    13601.268555 -56099.093750 16383.500000
    807123463
    0.000000#0.000000#0.000000
    476.000000
End Object
Start Object051
    13605.704102 -57320.296875 16383.500000
    807123463
    0.000000#0.000000#0.000000
    476.000000
End Object
Start Object052
    13599.970703 -58491.914063 16383.500000
    807123463
    0.000000#0.000000#0.000000
    476.000000
End Object
Start Object053
    13611.224609 -59749.875000 16383.500000
    807123463
    0.000000#0.000000#0.000000
    476.000000
End Object
Start Object054
    13605.791016 -60921.648438 16383.500000
    807123463
    0.000000#0.000000#0.000000
    476.000000
End Object
Start Object055
    13602.262695 -62422.035156 16383.500000
    807123463
    0.000000#0.000000#0.000000
    476.000000
End Object
Start Object056
    13608.457031 -63654.550781 16383.500000
    807123463
    0.000000#0.000000#0.000000
    476.000000
End Object
Start Object057
    24730.000000 -56660.000000 16383.500000
    1276175125
    0.000000#0.000000#90.000000
    0.000000
End Object
Start Object058
    24640.000000 -61670.000000 16383.500000
    3322686878
    0.000000#0.000000#180.000000
    0.000000
End Object
Start Object059
    19750.000000 -72910.000000 16383.500000
    3322686878
    0.000000#0.000000#90.000000
    0.000000
End Object
Start Object060
    14810.000000 -53410.000000 16383.500000
    3453634549
    0.000000#0.000000#0.000000
    0.000000
End Object
Start Object061
    14810.000000 -59730.000000 16383.500000
    3453634549
    0.000000#0.000000#0.000000
    0.000000
End Object
Start Object062
    24640.000000 -66170.000000 16383.500000
    3453634549
    0.000000#0.000000#180.000000
    0.000000
End Object
Start Object063
    14810.000000 -66060.000000 16383.500000
    3453634549
    0.000000#0.000000#0.000000
    0.000000
End Object
Start Object064
    18216.845703 -71778.773438 16383.500000
    3982077190
    0.000000#0.000000#0.000000
    1527.000000
End Object
Start Object065
    18204.919922 -74194.085938 16383.500000
    3982077190
    0.000000#0.000000#0.000000
    1527.000000
End Object
Start Object066
    16077.591797 -76328.210938 16383.500000
    3982077190
    0.000000#0.000000#0.000000
    1527.000000
End Object
Start Object067
    13686.336914 -76317.062500 16383.500000
    3982077190
    0.000000#0.000000#0.000000
    1527.000000
End Object
Start Object068
    11545.144531 -74185.617188 16383.500000
    3982077190
    0.000000#0.000000#0.000000
    1527.000000
End Object
Start Object069
    11533.555664 -71772.117188 16383.500000
    3982077190
    0.000000#0.000000#0.000000
    1527.000000
End Object
Start Object070
    13680.780273 -69626.210938 16383.500000
    3982077190
    0.000000#0.000000#0.000000
    1527.000000
End Object
Start Object071
    16064.452148 -69672.390625 16383.500000
    3982077190
    0.000000#0.000000#0.000000
    1527.000000
End Object
Start Object072
    21310.878906 -71724.414063 16383.500000
    3982077190
    0.000000#0.000000#0.000000
    1527.000000
End Object
Start Object073
    21299.349609 -74119.312500 16383.500000
    3982077190
    0.000000#0.000000#0.000000
    1527.000000
End Object
Start Object074
    23461.119141 -76261.851563 16383.500000
    3982077190
    0.000000#0.000000#0.000000
    1527.000000
End Object
Start Object075
    23455.115234 -69603.140625 16383.500000
    3982077190
    0.000000#0.000000#0.000000
    1527.000000
End Object
Start Object076
    23521.763672 -60031.476563 16383.500000
    3982077190
    0.000000#0.000000#0.000000
    1525.000000
End Object
Start Object077
    21366.691406 -57871.089844 16383.500000
    3982077190
    0.000000#0.000000#0.000000
    1525.000000
End Object
Start Object078
    21362.859375 -55457.816406 16383.500000
    3982077190
    0.000000#0.000000#0.000000
    1525.000000
End Object
Start Object079
    23535.623047 -53310.421875 16383.500000
    3982077190
    0.000000#0.000000#0.000000
    1525.000000
End Object
Start Object080
    14870.000000 -72970.000000 16383.500000
    4180790606
    0.000000#0.000000#90.000000
    0.000000
End Object
Start Object081
    24650.000000 -72930.000000 16383.500000
    4180790606
    0.000000#0.000000#270.000000
    0.000000
End Object

ObjectCount 82
