AreaDataFile

Start Object000
    67537.507813 -122713.335938 20665.488281
    720392170
    0.000000#0.000000#60.000000
    -70.000000
End Object
Start Object001
    54133.191406 -123154.843750 20596.000000
    1169015100
    0.000000#0.000000#90.000000
    -60.000000
End Object
Start Object002
    55776.496094 -108697.093750 19244.515625
    1503676723
    0.000000#0.000000#195.000000
    -50.000000
End Object
Start Object003
    64845.476563 -124899.578125 20622.203125
    1503676723
    0.000000#0.000000#90.000000
    -60.000000
End Object
Start Object004
    53589.437500 -110431.750000 19292.589844
    1980607488
    0.000000#0.000000#195.000000
    -110.000000
End Object
Start Object005
    65662.476563 -124302.781250 20617.000000
    2115361874
    0.000000#0.000000#225.000000
    -70.000000
End Object
Start Object006
    66688.882813 -122052.234375 20630.130859
    2175718077
    0.000000#0.000000#60.000000
    -70.000000
End Object
Start Object007
    70095.234375 -108714.359375 19963.720703
    2399981002
    0.000000#15.000000#225.000000
    2.000000
End Object
Start Object008
    68505.359375 -116105.570313 20656.712891
    2406144081
    0.000000#15.000000#225.000000
    2.000000
End Object
Start Object009
    70706.382813 -108096.835938 19984.630859
    2406144081
    0.000000#15.000000#195.000000
    -73.000000
End Object
Start Object010
    54200.621094 -121547.914063 20594.734375
    2585303992
    0.000000#0.000000#90.000000
    -60.000000
End Object
Start Object011
    62911.941406 -125302.507813 20626.136719
    3023319692
    0.000000#0.000000#180.000000
    -70.000000
End Object
Start Object012
    61906.804688 -124980.015625 20638.035156
    3193282972
    0.000000#0.000000#90.000000
    -90.000000
End Object

ObjectCount 13
