AreaDataFile

Start Object000
    24418.357422 -89304.062500 11488.030273
    234517142
    0.000000#0.000000#225.000000
    0.000000
End Object
Start Object001
    19784.486328 -99831.664063 11480.617188
    234517142
    0.000000#0.000000#255.000000
    0.000000
End Object
Start Object002
    17541.660156 -83205.453125 12662.602539
    486960621
    0.000000#0.000000#0.000000
    0.000000
End Object
Start Object003
    10565.496094 -101048.007813 12712.445313
    865570388
    0.000000#0.000000#90.000000
    -2.000000
End Object
Start Object004
    8203.322266 -98478.539063 12805.400391
    865570388
    0.000000#15.000000#90.000000
    0.000000
End Object
Start Object005
    24694.498047 -98089.578125 12828.332031
    865570388
    0.000000#0.000000#120.000000
    0.000000
End Object
Start Object006
    9169.154297 -97869.632813 12838.610352
    865570388
    0.000000#0.000000#15.000000
    0.000000
End Object
Start Object007
    17815.855469 -79093.617188 12470.417969
    1337000007
    0.000000#0.000000#0.000000
    -5.000000
End Object
Start Object008
    19587.144531 -77193.070313 12519.669922
    1337000015
    0.000000#0.000000#0.000000
    -5.000000
End Object
Start Object009
    14778.809570 -83460.375000 12869.915039
    1337000015
    0.000000#0.000000#0.000000
    -5.000000
End Object
Start Object010
    17958.103516 -83843.359375 12671.947266
    1337000015
    0.000000#0.000000#0.000000
    -5.000000
End Object
Start Object011
    17555.966797 -79556.914063 12468.512695
    1337000015
    0.000000#0.000000#0.000000
    -5.000000
End Object
Start Object012
    19201.554688 -86929.414063 12443.474609
    1337000057
    0.000000#0.000000#0.000000
    -22.000000
End Object
Start Object013
    15522.689453 -83298.804688 12778.625000
    1337000060
    0.000000#0.000000#0.000000
    -30.000000
End Object
Start Object014
    10544.957031 -94402.750000 13117.950195
    1337000060
    0.000000#0.000000#0.000000
    -30.000000
End Object
Start Object015
    13301.067383 -92953.000000 13093.134766
    1337000060
    0.000000#0.000000#0.000000
    -30.000000
End Object
Start Object016
    11457.972656 -88236.210938 13115.777344
    1337000074
    0.000000#0.000000#0.000000
    -30.000000
End Object
Start Object017
    9552.646484 -96959.007813 12880.557617
    1337000076
    0.000000#0.000000#0.000000
    0.000000
End Object
Start Object018
    20087.687500 -84178.875000 12821.594727
    1337000098
    0.000000#0.000000#0.000000
    -22.000000
End Object
Start Object019
    14303.633789 -95977.476563 12375.167969
    1337000098
    0.000000#0.000000#0.000000
    -22.000000
End Object
Start Object020
    21446.037109 -81819.132813 12296.612305
    1337464008
    0.000000#0.000000#0.000000
    -273.000000
End Object
Start Object021
    21152.005859 -82206.609375 12376.674805
    1337464008
    0.000000#0.000000#0.000000
    -273.000000
End Object
Start Object022
    20908.548828 -82066.320313 12401.065430
    1337464008
    0.000000#0.000000#0.000000
    -273.000000
End Object
Start Object023
    21060.410156 -81816.078125 12342.480469
    1337464008
    0.000000#0.000000#0.000000
    -273.000000
End Object
Start Object024
    20263.738281 -81332.812500 12374.337891
    1337464008
    0.000000#0.000000#0.000000
    -273.000000
End Object
Start Object025
    17019.611328 -84725.773438 12651.472656
    1337464008
    0.000000#0.000000#0.000000
    -273.000000
End Object
Start Object026
    17094.443359 -84152.703125 12662.589844
    1337464008
    0.000000#0.000000#0.000000
    -273.000000
End Object
Start Object027
    20325.125000 -86251.460938 12489.584961
    1337464008
    0.000000#0.000000#0.000000
    -273.000000
End Object
Start Object028
    13730.032227 -82496.398438 13018.745117
    1337464008
    0.000000#0.000000#0.000000
    -273.000000
End Object
Start Object029
    13379.187500 -83217.164063 13059.615234
    1337464008
    0.000000#0.000000#0.000000
    -273.000000
End Object
Start Object030
    14113.049805 -85039.476563 12912.830078
    1337464008
    0.000000#0.000000#0.000000
    -273.000000
End Object
Start Object031
    15094.993164 -84262.234375 12834.860352
    1337464008
    0.000000#0.000000#0.000000
    -273.000000
End Object
Start Object032
    13536.436523 -84588.578125 12957.620117
    1337464008
    0.000000#0.000000#0.000000
    -273.000000
End Object
Start Object033
    14582.501953 -85093.421875 12885.259766
    1337464008
    0.000000#0.000000#0.000000
    -273.000000
End Object
Start Object034
    14094.044922 -85652.773438 12905.525391
    1337464008
    0.000000#0.000000#0.000000
    -273.000000
End Object
Start Object035
    18592.251953 -89035.304688 12208.669922
    1337464008
    0.000000#0.000000#0.000000
    -273.000000
End Object
Start Object036
    16753.580078 -92099.171875 12147.570313
    1337464008
    0.000000#0.000000#0.000000
    -273.000000
End Object
Start Object037
    16393.636719 -90584.492188 12536.179688
    1337464008
    0.000000#0.000000#0.000000
    -273.000000
End Object
Start Object038
    16544.767578 -89330.640625 12625.610352
    1337464008
    0.000000#0.000000#0.000000
    -273.000000
End Object
Start Object039
    15490.353516 -88277.312500 12799.665039
    1337464008
    0.000000#0.000000#0.000000
    -273.000000
End Object
Start Object040
    11665.998047 -88814.820313 13078.500000
    1337464008
    0.000000#0.000000#0.000000
    -273.000000
End Object
Start Object041
    12551.868164 -92867.031250 13041.525391
    1337464008
    0.000000#0.000000#0.000000
    -273.000000
End Object
Start Object042
    10775.291992 -93328.617188 13186.924805
    1337464008
    0.000000#0.000000#0.000000
    -273.000000
End Object
Start Object043
    12031.158203 -96445.585938 12628.134766
    1337464008
    0.000000#0.000000#0.000000
    -273.000000
End Object
Start Object044
    12754.500977 -96291.695313 12704.592773
    1337464008
    0.000000#0.000000#0.000000
    -273.000000
End Object
Start Object045
    15245.653320 -99256.640625 12178.355469
    1337464008
    0.000000#0.000000#0.000000
    -273.000000
End Object
Start Object046
    15295.661133 -97388.710938 12213.894531
    1337464008
    0.000000#0.000000#0.000000
    -273.000000
End Object
Start Object047
    15921.423828 -97507.671875 12135.052734
    1337464008
    0.000000#0.000000#0.000000
    -273.000000
End Object
Start Object048
    18749.394531 -88145.632813 12285.540039
    1337464008
    0.000000#0.000000#0.000000
    -273.000000
End Object
Start Object049
    17932.187500 -86083.593750 12564.275391
    1337464008
    0.000000#0.000000#0.000000
    -273.000000
End Object
Start Object050
    18520.117188 -84315.109375 12697.450195
    1357777101
    0.000000#0.000000#0.000000
    -273.000000
End Object
Start Object051
    25077.642578 -101286.093750 12790.772461
    2188671155
    0.000000#0.000000#0.000000
    0.000000
End Object
Start Object052
    20445.876953 -78319.796875 12342.797852
    2233363945
    0.000000#0.000000#0.000000
    -91.000000
End Object
Start Object053
    11417.522461 -87058.351563 13262.144531
    2233363945
    0.000000#0.000000#45.000000
    0.000000
End Object
Start Object054
    13482.000000 -89535.000000 13205.415039
    2534098066
    0.000000#0.000000#0.000000
    0.000000
End Object
Start Object055
    14520.328125 -80147.500000 12545.865234
    2534098066
    0.000000#0.000000#0.000000
    0.000000
End Object
Start Object056
    9299.045898 -95826.312500 13052.250000
    2707916055
    0.000000#0.000000#0.000000
    0.000000
End Object
Start Object057
    15882.262695 -86154.296875 12792.884766
    2715558757
    0.000000#0.000000#345.000000
    -10.000000
End Object
Start Object058
    16216.016602 -86814.796875 12786.004883
    2715558757
    0.000000#0.000000#345.000000
    -10.000000
End Object
Start Object059
    19284.009766 -77934.179688 12415.570313
    2767369424
    0.000000#0.000000#90.000000
    -2.000000
End Object
Start Object060
    12155.102539 -99272.531250 12521.394531
    2767369424
    0.000000#0.000000#90.000000
    -2.000000
End Object
Start Object061
    10009.907227 -99730.117188 12700.384766
    2767369424
    0.000000#0.000000#0.000000
    152.000000
End Object
Start Object062
    19089.494141 -89344.210938 12173.080078
    2767369424
    0.000000#0.000000#0.000000
    -30.000000
End Object
Start Object063
    17873.332031 -79322.726563 12462.089844
    2767369424
    0.000000#0.000000#0.000000
    -30.000000
End Object
Start Object064
    20432.626953 -78056.203125 12359.580078
    2767369424
    0.000000#0.000000#0.000000
    -30.000000
End Object
Start Object065
    20391.732422 -79063.015625 12315.747070
    2767369424
    0.000000#0.000000#0.000000
    -30.000000
End Object
Start Object066
    17848.904297 -81834.835938 12540.775391
    2945693258
    0.000000#0.000000#0.000000
    0.000000
End Object
Start Object067
    19967.548828 -94041.671875 11913.900391
    3142948920
    0.000000#0.000000#150.000000
    0.000000
End Object
Start Object068
    19115.599609 -82966.992188 12759.264648
    3335310088
    0.000000#0.000000#0.000000
    0.000000
End Object
Start Object069
    11488.000000 -77701.000000 13333.787109
    3456333148
    0.000000#0.000000#0.000000
    0.000000
End Object
Start Object070
    11369.827148 -86021.718750 13220.285156
    3696590585
    0.000000#0.000000#180.000000
    0.000000
End Object
Start Object071
    9124.963867 -95244.335938 13064.290039
    3696590585
    0.000000#0.000000#180.000000
    0.000000
End Object
Start Object072
    9660.992188 -93480.226563 13505.900391
    3696590585
    0.000000#0.000000#0.000000
    0.000000
End Object
Start Object073
    14415.165039 -89601.414063 13066.405273
    3757913405
    0.000000#0.000000#30.000000
    0.000000
End Object
Start Object074
    8791.515625 -101091.851563 13000.445313
    3757913405
    0.000000#0.000000#15.000000
    0.000000
End Object
Start Object075
    13869.912109 -81619.867188 13032.572266
    4122892297
    0.000000#0.000000#15.000000
    0.000000
End Object
Start Object076
    15385.746094 -96225.671875 12146.537109
    4138408309
    0.000000#0.000000#0.000000
    0.000000
End Object
Start Object077
    14785.119141 -90531.164063 12773.947266
    4236108718
    0.000000#0.000000#180.000000
    0.000000
End Object

ObjectCount 78
