AreaDataFile

Start Object000
    120425.000000 -139462.578125 16383.500000
    807123463
    0.000000#0.000000#0.000000
    481.000000
End Object
Start Object001
    119152.585938 -139458.265625 16383.500000
    807123463
    0.000000#0.000000#0.000000
    481.000000
End Object
Start Object002
    117990.726563 -139457.734375 16383.500000
    807123463
    0.000000#0.000000#0.000000
    481.000000
End Object
Start Object003
    126000.687500 -136328.218750 16383.500000
    807123463
    0.000000#0.000000#0.000000
    481.000000
End Object
Start Object004
    126016.531250 -134824.906250 16383.500000
    807123463
    0.000000#0.000000#0.000000
    481.000000
End Object
Start Object005
    122999.835938 -129389.437500 16383.500000
    807123463
    0.000000#0.000000#0.000000
    481.000000
End Object
Start Object006
    121788.289063 -129382.085938 16383.500000
    807123463
    0.000000#0.000000#0.000000
    481.000000
End Object
Start Object007
    121332.656250 -129387.757813 16383.500000
    807123463
    0.000000#0.000000#0.000000
    481.000000
End Object
Start Object008
    122993.007813 -131773.250000 16383.500000
    807123463
    0.000000#0.000000#0.000000
    481.000000
End Object
Start Object009
    121790.781250 -131769.484375 16383.500000
    807123463
    0.000000#0.000000#0.000000
    481.000000
End Object
Start Object010
    121325.125000 -131768.687500 16383.500000
    807123463
    0.000000#0.000000#0.000000
    481.000000
End Object
Start Object011
    112833.398438 -141845.921875 16383.500000
    807123463
    0.000000#0.000000#0.000000
    481.000000
End Object
Start Object012
    108944.812500 -141833.640625 16383.500000
    807123463
    0.000000#0.000000#0.000000
    481.000000
End Object
Start Object013
    107777.171875 -141840.000000 16383.500000
    807123463
    0.000000#0.000000#0.000000
    481.000000
End Object
Start Object014
    106517.039063 -141833.093750 16383.500000
    807123463
    0.000000#0.000000#0.000000
    481.000000
End Object
Start Object015
    105357.203125 -141840.218750 16383.500000
    807123463
    0.000000#0.000000#0.000000
    481.000000
End Object
Start Object016
    104120.132813 -141851.031250 16383.500000
    807123463
    0.000000#0.000000#0.000000
    481.000000
End Object
Start Object017
    102620.718750 -141850.125000 16383.500000
    807123463
    0.000000#0.000000#0.000000
    481.000000
End Object
Start Object018
    121584.570313 -139455.937500 16383.500000
    807123463
    0.000000#0.000000#0.000000
    481.000000
End Object
Start Object019
    116765.171875 -139458.703125 16383.500000
    807123463
    0.000000#0.000000#0.000000
    481.000000
End Object
Start Object020
    102579.375000 -131768.671875 16383.500000
    807123463
    0.000000#0.000000#0.000000
    481.000000
End Object
Start Object021
    103846.453125 -131769.703125 16383.500000
    807123463
    0.000000#0.000000#0.000000
    481.000000
End Object
Start Object022
    105000.875000 -131773.250000 16383.500000
    807123463
    0.000000#0.000000#0.000000
    481.000000
End Object
Start Object023
    106500.937500 -131771.937500 16383.500000
    807123463
    0.000000#0.000000#0.000000
    481.000000
End Object
Start Object024
    111298.195313 -129364.062500 16383.500000
    807123463
    0.000000#0.000000#0.000000
    481.000000
End Object
Start Object025
    112799.484375 -129363.585938 16383.500000
    807123463
    0.000000#0.000000#0.000000
    481.000000
End Object
Start Object026
    112788.820313 -131761.031250 16383.500000
    807123463
    0.000000#0.000000#0.000000
    481.000000
End Object
Start Object027
    111298.679688 -131756.718750 16383.500000
    807123463
    0.000000#0.000000#0.000000
    481.000000
End Object
Start Object028
    110141.078125 -131744.000000 16383.500000
    807123463
    0.000000#0.000000#0.000000
    481.000000
End Object
Start Object029
    108867.203125 -131748.546875 16383.500000
    807123463
    0.000000#0.000000#0.000000
    481.000000
End Object
Start Object030
    107714.031250 -131753.609375 16383.500000
    807123463
    0.000000#0.000000#0.000000
    481.000000
End Object
Start Object031
    111674.601563 -139463.765625 16383.500000
    807123463
    0.000000#0.000000#0.000000
    481.000000
End Object
Start Object032
    110447.375000 -139454.312500 16383.500000
    807123463
    0.000000#0.000000#0.000000
    481.000000
End Object
Start Object033
    108941.320313 -139452.593750 16383.500000
    807123463
    0.000000#0.000000#0.000000
    481.000000
End Object
Start Object034
    107785.781250 -139451.546875 16383.500000
    807123463
    0.000000#0.000000#0.000000
    481.000000
End Object
Start Object035
    106509.906250 -139447.343750 16383.500000
    807123463
    0.000000#0.000000#0.000000
    481.000000
End Object
Start Object036
    105354.796875 -139456.812500 16383.500000
    807123463
    0.000000#0.000000#0.000000
    481.000000
End Object
Start Object037
    104126.015625 -139464.359375 16383.500000
    807123463
    0.000000#0.000000#0.000000
    481.000000
End Object
Start Object038
    115258.414063 -139454.796875 16383.500000
    807123463
    0.000000#0.000000#0.000000
    481.000000
End Object
Start Object039
    114101.429688 -139455.593750 16383.500000
    807123463
    0.000000#0.000000#0.000000
    481.000000
End Object
Start Object040
    112829.890625 -139460.000000 16383.500000
    807123463
    0.000000#0.000000#0.000000
    481.000000
End Object
Start Object041
    110141.109375 -129369.367188 16383.500000
    807123463
    0.000000#0.000000#0.000000
    481.000000
End Object
Start Object042
    108865.757813 -129360.742188 16383.500000
    807123463
    0.000000#0.000000#0.000000
    481.000000
End Object
Start Object043
    107707.187500 -129369.125000 16383.500000
    807123463
    0.000000#0.000000#0.000000
    481.000000
End Object
Start Object044
    106516.562500 -129382.945313 16383.500000
    807123463
    0.000000#0.000000#0.000000
    481.000000
End Object
Start Object045
    105010.859375 -129384.195313 16383.500000
    807123463
    0.000000#0.000000#0.000000
    481.000000
End Object
Start Object046
    103837.093750 -129385.468750 16383.500000
    807123463
    0.000000#0.000000#0.000000
    481.000000
End Object
Start Object047
    102579.164063 -129383.757813 16383.500000
    807123463
    0.000000#0.000000#0.000000
    481.000000
End Object
Start Object048
    123096.312500 -141847.578125 16383.500000
    807123463
    0.000000#0.000000#0.000000
    481.000000
End Object
Start Object049
    121586.265625 -141851.671875 16383.500000
    807123463
    0.000000#0.000000#0.000000
    481.000000
End Object
Start Object050
    120431.437500 -141847.203125 16383.500000
    807123463
    0.000000#0.000000#0.000000
    481.000000
End Object
Start Object051
    119154.734375 -141847.859375 16383.500000
    807123463
    0.000000#0.000000#0.000000
    481.000000
End Object
Start Object052
    117999.843750 -141846.515625 16383.500000
    807123463
    0.000000#0.000000#0.000000
    481.000000
End Object
Start Object053
    116779.867188 -141850.031250 16383.500000
    807123463
    0.000000#0.000000#0.000000
    481.000000
End Object
Start Object054
    115268.382813 -141838.312500 16383.500000
    807123463
    0.000000#0.000000#0.000000
    481.000000
End Object
Start Object055
    114106.625000 -141847.296875 16383.500000
    807123463
    0.000000#0.000000#0.000000
    481.000000
End Object
Start Object056
    123082.953125 -139455.453125 16383.500000
    807123463
    0.000000#0.000000#0.000000
    481.000000
End Object
Start Object057
    110443.828125 -141833.250000 16383.500000
    807123463
    0.000000#0.000000#0.000000
    481.000000
End Object
Start Object058
    111674.507813 -141843.671875 16383.500000
    807123463
    0.000000#0.000000#0.000000
    481.000000
End Object
Start Object059
    125059.468750 -134125.265625 16383.500000
    807123463
    0.000000#0.000000#270.000000
    339.000000
End Object
Start Object060
    123620.125000 -132672.250000 16383.500000
    807123463
    0.000000#0.000000#270.000000
    339.000000
End Object
Start Object061
    123617.226563 -128489.773438 16383.500000
    807123463
    0.000000#0.000000#270.000000
    339.000000
End Object
Start Object062
    119069.859375 -133999.343750 16383.500000
    807123463
    0.000000#0.000000#270.000000
    339.000000
End Object
Start Object063
    120516.398438 -132548.156250 16383.500000
    807123463
    0.000000#0.000000#270.000000
    339.000000
End Object
Start Object064
    120516.421875 -128363.101563 16383.500000
    807123463
    0.000000#0.000000#270.000000
    339.000000
End Object
Start Object065
    113446.171875 -128353.210938 16383.500000
    807123463
    0.000000#0.000000#270.000000
    339.000000
End Object
Start Object066
    113441.531250 -132536.453125 16383.500000
    807123463
    0.000000#0.000000#270.000000
    339.000000
End Object
Start Object067
    114874.101563 -133993.781250 16383.500000
    807123463
    0.000000#0.000000#270.000000
    339.000000
End Object
Start Object068
    116979.156250 -133991.796875 16383.500000
    807123463
    0.000000#0.000000#270.000000
    339.000000
End Object
Start Object069
    123781.609375 -142632.046875 16383.500000
    807123463
    0.000000#0.000000#270.000000
    339.000000
End Object
Start Object070
    125211.382813 -144084.078125 16383.500000
    807123463
    0.000000#0.000000#270.000000
    339.000000
End Object
Start Object071
    127324.820313 -144092.578125 16383.500000
    807123463
    0.000000#0.000000#270.000000
    339.000000
End Object
Start Object072
    125225.218750 -137001.421875 16383.500000
    807123463
    0.000000#0.000000#270.000000
    339.000000
End Object
Start Object073
    123775.343750 -138451.265625 16383.500000
    807123463
    0.000000#0.000000#270.000000
    339.000000
End Object
Start Object074
    102620.625000 -139459.375000 16383.500000
    807123463
    0.000000#0.000000#0.000000
    481.000000
End Object
Start Object075
    122900.000000 -130570.000000 16383.500000
    2847936845
    0.000000#0.000000#90.000000
    0.000000
End Object
Start Object076
    121220.000000 -130570.000000 16383.500000
    2847936845
    0.000000#0.000000#90.000000
    0.000000
End Object
Start Object077
    121680.000000 -130570.000000 16383.500000
    2847936845
    0.000000#0.000000#90.000000
    0.000000
End Object
Start Object078
    127190.000000 -135600.000000 16383.500000
    3322686878
    0.000000#0.000000#180.000000
    0.000000
End Object
Start Object079
    107760.000000 -140640.000000 16383.500000
    3453634549
    0.000000#0.000000#90.000000
    0.000000
End Object
Start Object080
    114080.000000 -140650.000000 16383.500000
    3453634549
    0.000000#0.000000#90.000000
    0.000000
End Object
Start Object081
    120400.000000 -140650.000000 16383.500000
    3453634549
    0.000000#0.000000#90.000000
    0.000000
End Object
Start Object082
    103820.000000 -130570.000000 16383.500000
    3453634549
    0.000000#0.000000#90.000000
    0.000000
End Object
Start Object083
    110110.000000 -130550.000000 16383.500000
    3453634549
    0.000000#0.000000#90.000000
    0.000000
End Object
Start Object084
    123802.812500 -129375.742188 16383.500000
    3982077190
    0.000000#0.000000#270.000000
    1520.000000
End Object
Start Object085
    123828.875000 -131774.968750 16383.500000
    3982077190
    0.000000#0.000000#270.000000
    1520.000000
End Object
Start Object086
    125968.187500 -133924.343750 16383.500000
    3982077190
    0.000000#0.000000#270.000000
    1520.000000
End Object
Start Object087
    126113.843750 -143896.890625 16383.500000
    3982077190
    0.000000#0.000000#270.000000
    1520.000000
End Object
Start Object088
    123980.664063 -141736.390625 16383.500000
    3982077190
    0.000000#0.000000#270.000000
    1520.000000
End Object
Start Object089
    123958.828125 -139333.250000 16383.500000
    3982077190
    0.000000#0.000000#270.000000
    1520.000000
End Object
Start Object090
    126117.773438 -137212.906250 16383.500000
    3982077190
    0.000000#0.000000#270.000000
    1520.000000
End Object
Start Object091
    120315.789063 -131657.328125 16383.500000
    3982077190
    0.000000#0.000000#270.000000
    1520.000000
End Object
Start Object092
    120318.937500 -129249.617188 16383.500000
    3982077190
    0.000000#0.000000#270.000000
    1520.000000
End Object
Start Object093
    118174.164063 -133801.546875 16383.500000
    3982077190
    0.000000#0.000000#270.000000
    1520.000000
End Object
Start Object094
    115772.296875 -133797.312500 16383.500000
    3982077190
    0.000000#0.000000#270.000000
    1520.000000
End Object
Start Object095
    113632.937500 -131646.406250 16383.500000
    3982077190
    0.000000#0.000000#270.000000
    1520.000000
End Object
Start Object096
    113629.914063 -129256.546875 16383.500000
    3982077190
    0.000000#0.000000#270.000000
    1520.000000
End Object
Start Object097
    127170.000000 -130580.000000 16383.500000
    4180790606
    0.000000#0.000000#0.000000
    0.000000
End Object
Start Object098
    127310.000000 -140550.000000 16383.500000
    4180790606
    0.000000#0.000000#180.000000
    0.000000
End Object
Start Object099
    116970.000000 -130460.000000 16383.500000
    4180790606
    0.000000#0.000000#180.000000
    0.000000
End Object

ObjectCount 100
