AreaDataFile

Start Object000
    61593.250000 -76612.289063 19136.500000
    65510116
    0.000000#0.000000#0.000000
    0.000000
End Object
Start Object001
    66189.140625 -76615.164063 19136.500000
    65510116
    0.000000#0.000000#0.000000
    0.000000
End Object
Start Object002
    71225.593750 -76612.945313 19136.500000
    65510116
    0.000000#0.000000#90.000000
    0.000000
End Object
Start Object003
    52879.832031 -76542.593750 20143.144531
    569394331
    0.000000#0.000000#0.000000
    0.000000
End Object
Start Object004
    65190.050781 -76615.554688 19136.500000
    1985750273
    0.000000#0.000000#0.000000
    0.000000
End Object
Start Object005
    62093.402344 -76611.898438 19136.500000
    1985750273
    0.000000#0.000000#0.000000
    0.000000
End Object
Start Object006
    64140.726563 -76614.812500 19136.500000
    2651116942
    0.000000#0.000000#0.000000
    0.000000
End Object
Start Object007
    67086.773438 -76781.187500 19136.500000
    4120669631
    0.000000#0.000000#315.000000
    0.000000
End Object
Start Object008
    66668.171875 -76611.882813 19136.500000
    4120669631
    0.000000#0.000000#345.000000
    0.000000
End Object
Start Object009
    61343.578125 -76611.742188 19136.500000
    4120669631
    0.000000#0.000000#0.000000
    0.000000
End Object
Start Object010
    66888.273438 -76669.523438 19136.500000
    4120669631
    0.000000#0.000000#330.000000
    0.000000
End Object
Start Object011
    61126.679688 -76672.414063 19136.500000
    4120669631
    0.000000#0.000000#15.000000
    0.000000
End Object
Start Object012
    60931.457031 -76789.515625 19136.500000
    4120669631
    0.000000#0.000000#30.000000
    0.000000
End Object
Start Object013
    53516.933594 -83472.390625 19136.500000
    65510116
    0.000000#0.000000#0.000000
    0.000000
End Object
Start Object014
    68578.484375 -78753.343750 19136.500000
    65510116
    0.000000#0.000000#0.000000
    0.000000
End Object
Start Object015
    56711.386719 -81017.023438 19136.500000
    65510116
    0.000000#0.000000#45.000000
    0.000000
End Object
Start Object016
    59183.566406 -78543.992188 19136.500000
    65510116
    0.000000#0.000000#45.000000
    0.000000
End Object
Start Object017
    63981.242188 -97259.289063 18349.431641
    486960621
    0.000000#0.000000#0.000000
    0.000000
End Object
Start Object018
    69991.000000 -98431.000000 18922.000000
    486960621
    0.000000#0.000000#0.000000
    0.000000
End Object
Start Object019
    57335.000000 -81542.000000 19077.000000
    569394331
    0.000000#0.000000#0.000000
    0.000000
End Object
Start Object020
    60713.203125 -92533.906250 17934.130859
    569394331
    0.000000#0.000000#0.000000
    0.000000
End Object
Start Object021
    61521.000000 -77506.000000 19127.000000
    720392170
    0.000000#0.000000#0.000000
    0.000000
End Object
Start Object022
    56676.000000 -98092.000000 18841.000000
    720392170
    0.000000#0.000000#0.000000
    0.000000
End Object
Start Object023
    54935.511719 -80400.593750 19136.500000
    720392170
    0.000000#0.000000#0.000000
    0.000000
End Object
Start Object024
    54924.429688 -89262.742188 18316.380859
    952339315
    0.000000#0.000000#0.000000
    0.000000
End Object
Start Object025
    53617.515625 -84744.601563 19136.500000
    1107711305
    0.000000#0.000000#0.000000
    0.000000
End Object
Start Object026
    71238.343750 -93270.968750 18097.380859
    1107711305
    0.000000#0.000000#0.000000
    0.000000
End Object
Start Object027
    55210.546875 -78506.039063 19729.609375
    1107711305
    0.000000#0.000000#0.000000
    0.000000
End Object
Start Object028
    71091.601563 -89984.500000 17903.890625
    1289994135
    0.000000#0.000000#0.000000
    0.000000
End Object
Start Object029
    76216.000000 -92143.000000 18051.000000
    1353164984
    0.000000#0.000000#0.000000
    0.000000
End Object
Start Object030
    62980.722656 -81767.054688 17965.000000
    1353164984
    0.000000#0.000000#0.000000
    0.000000
End Object
Start Object031
    59093.843750 -91341.945313 17971.042969
    1353164984
    0.000000#0.000000#0.000000
    0.000000
End Object
Start Object032
    59901.000000 -87973.812500 17975.230469
    1671224775
    0.000000#0.000000#0.000000
    0.000000
End Object
Start Object033
    64699.558594 -92529.093750 18030.355469
    1780937370
    0.000000#0.000000#135.000000
    0.000000
End Object
Start Object034
    55300.445313 -82427.609375 19136.500000
    1985750273
    0.000000#0.000000#45.000000
    0.000000
End Object
Start Object035
    56005.453125 -81722.421875 19136.500000
    1985750273
    0.000000#0.000000#45.000000
    0.000000
End Object
Start Object036
    57065.128906 -80663.171875 19136.500000
    1985750273
    0.000000#0.000000#45.000000
    0.000000
End Object
Start Object037
    69079.953125 -78754.500000 19136.500000
    1985750273
    0.000000#0.000000#0.000000
    0.000000
End Object
Start Object038
    54594.042969 -83133.351563 19136.500000
    1985750273
    0.000000#0.000000#45.000000
    0.000000
End Object
Start Object039
    67579.531250 -78752.687500 19136.500000
    1985750273
    0.000000#0.000000#0.000000
    0.000000
End Object
Start Object040
    71225.734375 -77610.625000 19136.500000
    1985750273
    0.000000#0.000000#90.000000
    0.000000
End Object
Start Object041
    52522.507813 -83473.429688 19136.500000
    1985750273
    0.000000#0.000000#0.000000
    0.000000
End Object
Start Object042
    57771.171875 -79956.453125 19136.500000
    1985750273
    0.000000#0.000000#45.000000
    0.000000
End Object
Start Object043
    58477.566406 -79250.554688 19136.500000
    1985750273
    0.000000#0.000000#45.000000
    0.000000
End Object
Start Object044
    71226.625000 -78609.898438 19136.500000
    1985750273
    0.000000#0.000000#90.000000
    0.000000
End Object
Start Object045
    59537.523438 -78189.929688 19136.500000
    1985750273
    0.000000#0.000000#45.000000
    0.000000
End Object
Start Object046
    51522.878906 -83473.250000 19136.500000
    1985750273
    0.000000#0.000000#0.000000
    0.000000
End Object
Start Object047
    67428.406250 -77603.914063 19136.500000
    1985750273
    0.000000#0.000000#270.000000
    0.000000
End Object
Start Object048
    60242.925781 -77482.828125 19136.500000
    1985750273
    0.000000#0.000000#45.000000
    0.000000
End Object
Start Object049
    70079.062500 -78755.671875 19136.500000
    1985750273
    0.000000#0.000000#0.000000
    0.000000
End Object
Start Object050
    76499.414063 -99976.125000 19055.582031
    2188671155
    0.000000#0.000000#0.000000
    0.000000
End Object
Start Object051
    60485.718750 -91204.343750 17929.675781
    2188671155
    0.000000#0.000000#0.000000
    0.000000
End Object
Start Object052
    63164.234375 -81194.726563 17965.000000
    2288483325
    0.000000#0.000000#90.000000
    0.000000
End Object
Start Object053
    63184.000000 -78660.000000 18611.000000
    2288483325
    0.000000#0.000000#90.000000
    0.000000
End Object
Start Object054
    65007.171875 -78725.250000 18735.056641
    2288483325
    0.000000#0.000000#270.000000
    0.000000
End Object
Start Object055
    65041.410156 -81355.000000 18045.552734
    2288483325
    0.000000#0.000000#270.000000
    0.000000
End Object
Start Object056
    64253.554688 -84413.437500 16224.500000
    2349765063
    0.000000#0.000000#270.000000
    0.000000
End Object
Start Object057
    71886.218750 -79118.765625 19112.839844
    2376089798
    0.000000#0.000000#0.000000
    0.000000
End Object
Start Object058
    62867.093750 -98998.109375 18409.273438
    2376089798
    0.000000#0.000000#0.000000
    0.000000
End Object
Start Object059
    53014.218750 -80032.500000 19745.230469
    2376089798
    0.000000#0.000000#0.000000
    0.000000
End Object
Start Object060
    73819.304688 -97937.093750 19061.654297
    2399205967
    0.000000#0.000000#0.000000
    0.000000
End Object
Start Object061
    61336.203125 -95982.242188 18227.535156
    2399205967
    0.000000#0.000000#0.000000
    0.000000
End Object
Start Object062
    66644.382813 -77415.882813 19136.500000
    2585303992
    0.000000#0.000000#0.000000
    0.000000
End Object
Start Object063
    67429.468750 -78751.750000 19136.500000
    2648951033
    0.000000#0.000000#180.000000
    0.000000
End Object
Start Object064
    71227.273438 -78757.617188 19136.500000
    2648951033
    0.000000#0.000000#270.000000
    0.000000
End Object
Start Object065
    69041.726563 -95706.554688 18305.033203
    3193282972
    0.000000#0.000000#0.000000
    0.000000
End Object
Start Object066
    67056.109375 -95290.039063 18239.220703
    3455398876
    0.000000#0.000000#0.000000
    0.000000
End Object
Start Object067
    74226.523438 -86660.523438 17370.785156
    3515438753
    0.000000#0.000000#180.000000
    0.000000
End Object
Start Object068
    65211.414063 -81812.101563 17973.373047
    3689520799
    0.000000#0.000000#0.000000
    0.000000
End Object
Start Object069
    68057.023438 -89565.398438 17955.765625
    3689520799
    0.000000#0.000000#0.000000
    0.000000
End Object
Start Object070
    66487.343750 -79401.960938 19022.390625
    3689520799
    0.000000#0.000000#0.000000
    0.000000
End Object
Start Object071
    64225.714844 -87852.359375 17934.500000
    3703934181
    0.000000#0.000000#180.000000
    0.000000
End Object
Start Object072
    72169.828125 -98886.679688 19404.859375
    3748653682
    0.000000#0.000000#0.000000
    0.000000
End Object
Start Object073
    68396.148438 -93803.382813 18151.636719
    3748653682
    0.000000#0.000000#0.000000
    0.000000
End Object
Start Object074
    57755.800781 -76982.875000 19432.724609
    3748653682
    0.000000#0.000000#0.000000
    0.000000
End Object
Start Object075
    54079.000000 -99318.000000 19037.000000
    3765746359
    0.000000#0.000000#0.000000
    0.000000
End Object
Start Object076
    55760.804688 -88933.773438 18253.312500
    3765746359
    0.000000#0.000000#0.000000
    0.000000
End Object
Start Object077
    53996.652344 -83475.710938 19136.500000
    4120669631
    0.000000#0.000000#15.000000
    0.000000
End Object
Start Object078
    54417.093750 -83308.734375 19136.500000
    4120669631
    0.000000#0.000000#45.000000
    0.000000
End Object
Start Object079
    54217.812500 -83420.062500 19136.500000
    4120669631
    0.000000#0.000000#30.000000
    0.000000
End Object
Start Object080
    67249.203125 -76939.476563 19136.500000
    4120669631
    0.000000#0.000000#300.000000
    0.000000
End Object
Start Object081
    67366.453125 -77135.437500 19136.500000
    4120669631
    0.000000#0.000000#285.000000
    0.000000
End Object
Start Object082
    67428.468750 -77354.500000 19136.500000
    4120669631
    0.000000#0.000000#270.000000
    0.000000
End Object
Start Object083
    57557.125000 -93365.921875 18251.626953
    4138381346
    0.000000#0.000000#0.000000
    0.000000
End Object

Start Object084
	72899.484375 -94096.7578125 17883.0917969
	1337464008
	0.0#0.0#0.0
	0.000000
End Object
Start Object085
	73432.2578125 -93987.3515625 17873.1777344
	1337464008
	0.0#0.0#0.0
	0.000000
End Object
Start Object086
	73832.9609375 -94108.5859375 17873.4765625
	1337464008
	0.0#0.0#0.0
	0.000000
End Object
Start Object087
	73488.96875 -93741.421875 17862.8222656
	1337464008
	0.0#0.0#0.0
	0.000000
End Object
Start Object088
	71982.21875 -94367.8046875 17905.2304688
	1337464008
	0.0#0.0#0.0
	0.000000
End Object
Start Object089
	71382.8359375 -94227.3359375 17910.4375
	1337464008
	0.0#0.0#0.0
	0.000000
End Object
Start Object090
	71210.7421875 -94354.859375 17921.7070313
	1337464008
	0.0#0.0#0.0
	0.000000
End Object
Start Object091
	73487.71875 -95753.7578125 18076.5507813
	1337464008
	0.0#0.0#0.0
	0.000000
End Object
Start Object092
	73309.421875 -95907.0546875 18147.8476563
	1337464008
	0.0#0.0#0.0
	0.000000
End Object
Start Object093
	72565.4453125 -95816.0234375 18138.0859375
	1337464008
	0.0#0.0#0.0
	0.000000
End Object
Start Object094
	78099.21875 -99727.2109375 18771.2851563
	1337464008
	0.0#0.0#0.0
	0.000000
End Object
Start Object095
	78012.6875 -99949.703125 18810.1132813
	1337464008
	0.0#0.0#0.0
	0.000000
End Object
Start Object096
	78024.21875 -99349.046875 18758.9941406
	1337464008
	0.0#0.0#0.0
	0.000000
End Object
Start Object097
	75945.0625 -98528.546875 18669.5585938
	1337464008
	0.0#0.0#0.0
	0.000000
End Object
Start Object098
	76092.046875 -98225.1796875 18634.796875
	1337464008
	0.0#0.0#0.0
	0.000000
End Object
Start Object099
	76216.046875 -98447.1328125 18642.9257813
	1337464008
	0.0#0.0#0.0
	0.000000
End Object
Start Object100
	75626.328125 -99425.453125 18814.6464844
	1337464008
	0.0#0.0#0.0
	0.000000
End Object
Start Object101
	75536.8671875 -99643.65625 18842.9492188
	1337464008
	0.0#0.0#0.0
	0.000000
End Object
Start Object102
	75364.8828125 -98756.25 18744.5351563
	1337464008
	0.0#0.0#0.0
	0.000000
End Object
Start Object103
	75771.1953125 -91049.046875 17758.75
	1337464008
	0.0#0.0#0.0
	0.000000
End Object
Start Object104
	76235.7109375 -91017.5234375 17775.3476563
	1337464008
	0.0#0.0#0.0
	0.000000
End Object
Start Object105
	76073.46875 -90845.90625 17763.8847656
	1337464008
	0.0#0.0#0.0
	0.000000
End Object
Start Object106
	74351.859375 -90914.21875 17726.8515625
	1337464008
	0.0#0.0#0.0
	0.000000
End Object
Start Object107
	74325.2578125 -90672.796875 17707.0917969
	1337464008
	0.0#0.0#0.0
	0.000000
End Object
Start Object108
	72670.359375 -91048.5 17740.1699219
	1337464008
	0.0#0.0#0.0
	0.000000
End Object
Start Object109
	71502.109375 -90559.90625 17722.7050781
	1337464008
	0.0#0.0#0.0
	0.000000
End Object
Start Object110
	72321.2421875 -90496.09375 17699.2734375
	1337464008
	0.0#0.0#0.0
	0.000000
End Object
Start Object111
	75486.09375 -90054.09375 17684.4101563
	1337464008
	0.0#0.0#0.0
	0.000000
End Object
Start Object112
	76913.125 -90488.21875 17795.8828125
	1337464008
	0.0#0.0#0.0
	0.000000
End Object
Start Object113
	77170.8359375 -90339.9765625 17810.8984375
	1337464008
	0.0#0.0#0.0
	0.000000
End Object
Start Object114
	72341.25 -98194.765625 19058.6992188
	1337464008
	0.0#0.0#0.0
	0.000000
End Object
Start Object115
	71722.203125 -98149.359375 19056.7792969
	1337464008
	0.0#0.0#0.0
	0.000000
End Object
Start Object116
	71708.2421875 -98275.7421875 19062.5117188
	1337464008
	0.0#0.0#0.0
	0.000000
End Object
Start Object117
	70159.859375 -99745.9140625 18998.8125
	1337464008
	0.0#0.0#0.0
	0.000000
End Object
Start Object118
	69664.84375 -99529.1640625 18883.9960938
	1337464008
	0.0#0.0#0.0
	0.000000
End Object
Start Object119
	69516.2890625 -99654.921875 18873.7167969
	1337464008
	0.0#0.0#0.0
	0.000000
End Object
Start Object120
	70365.0625 -100543.367188 19245.4511719
	1337464008
	0.0#0.0#0.0
	0.000000
End Object
Start Object121
	70193.65625 -100847.015625 19279.7753906
	1337464008
	0.0#0.0#0.0
	0.000000
End Object
Start Object122
	69623.0625 -100710.53125 19131.7265625
	1337464008
	0.0#0.0#0.0
	0.000000
End Object
Start Object123
	70784.6171875 -99531.2578125 19138.1582031
	1337464008
	0.0#0.0#0.0
	0.000000
End Object
Start Object124
	68403.6875 -101000.273438 18943.6074219
	1337464008
	0.0#0.0#0.0
	0.000000
End Object
Start Object125
	68016.734375 -101251.9375 18939.3417969
	1337464008
	0.0#0.0#0.0
	0.000000
End Object
Start Object126
	67831.265625 -101304.242188 18920.9902344
	1337464008
	0.0#0.0#0.0
	0.000000
End Object
Start Object127
	69072.671875 -103494.15625 19524.921875
	1337464008
	0.0#0.0#0.0
	0.000000
End Object
Start Object128
	68839.609375 -103575.34375 19417.4921875
	1337464008
	0.0#0.0#0.0
	0.000000
End Object
Start Object129
	68593.8984375 -103705.367188 19399.0605469
	1337464008
	0.0#0.0#0.0
	0.000000
End Object
Start Object130
	67319.4375 -103887.03125 19290.921875
	1337464008
	0.0#0.0#0.0
	0.000000
End Object
Start Object131
	67123.7578125 -104409.890625 19290.4667969
	1337464008
	0.0#0.0#0.0
	0.000000
End Object
Start Object132
	67310.3359375 -104622.984375 19324.0722656
	1337464008
	0.0#0.0#0.0
	0.000000
End Object
Start Object133
	66369.3359375 -103390.921875 19147.8398438
	1337464008
	0.0#0.0#0.0
	0.000000
End Object
Start Object134
	66050.421875 -103811.078125 19175.0449219
	1337464008
	0.0#0.0#0.0
	0.000000
End Object
Start Object135
	65367.6757813 -105264.453125 19206.5
	1337464008
	0.0#0.0#0.0
	0.000000
End Object
Start Object136
	65353.7382813 -105621.1875 19204.8847656
	1337464008
	0.0#0.0#0.0
	0.000000
End Object
Start Object137
	65493.3671875 -105943.03125 19226.0253906
	1337464008
	0.0#0.0#0.0
	0.000000
End Object
Start Object138
	68850.078125 -105700.695313 19333.515625
	1337464008
	0.0#0.0#0.0
	0.000000
End Object
Start Object139
	68269.6171875 -106298.203125 19303.328125
	1337464008
	0.0#0.0#0.0
	0.000000
End Object
Start Object140
	68177.375 -106524.476563 19307.1914063
	1337464008
	0.0#0.0#0.0
	0.000000
End Object
Start Object141
	67487.5703125 -105965.148438 19335.6484375
	1337464008
	0.0#0.0#0.0
	0.000000
End Object
Start Object142
	67216.0625 -106116.726563 19322.2753906
	1337464008
	0.0#0.0#0.0
	0.000000
End Object
Start Object143
	67921.9296875 -92575.4140625 17830.75
	1337464008
	0.0#0.0#0.0
	0.000000
End Object
Start Object144
	67472.90625 -92375.9921875 17809.921875
	1337464008
	0.0#0.0#0.0
	0.000000
End Object
Start Object145
	67401.953125 -92659.3828125 17808.6484375
	1337464008
	0.0#0.0#0.0
	0.000000
End Object
Start Object146
	67595.8515625 -92681.546875 17812.9042969
	1337464008
	0.0#0.0#0.0
	0.000000
End Object
Start Object147
	66522.9140625 -92404.40625 17802.5566406
	1337464008
	0.0#0.0#0.0
	0.000000
End Object
Start Object148
	66290.640625 -92637.2578125 17801.1015625
	1337464008
	0.0#0.0#0.0
	0.000000
End Object
Start Object149
	66635.8984375 -92933.828125 17802.6035156
	1337464008
	0.0#0.0#0.0
	0.000000
End Object
Start Object150
	66592.5234375 -93861.7578125 17854.2109375
	1337464008
	0.0#0.0#0.0
	0.000000
End Object
Start Object151
	67112.8515625 -93714.65625 17859.2109375
	1337464008
	0.0#0.0#0.0
	0.000000
End Object
Start Object152
	67093.4765625 -93909.84375 17886.0253906
	1337464008
	0.0#0.0#0.0
	0.000000
End Object
Start Object153
	65180.5546875 -93684.703125 17791.3203125
	1337464008
	0.0#0.0#0.0
	0.000000
End Object
Start Object154
	65216.3203125 -94055.8046875 17831.9023438
	1337464008
	0.0#0.0#0.0
	0.000000
End Object
Start Object155
	65598.1328125 -94177.96875 17857.5078125
	1337464008
	0.0#0.0#0.0
	0.000000
End Object
Start Object156
	65656.84375 -94379.453125 17887.5351563
	1337464008
	0.0#0.0#0.0
	0.000000
End Object
Start Object157
	65401.3320313 -95254.9765625 17976.5253906
	1337464008
	0.0#0.0#0.0
	0.000000
End Object
Start Object158
	64804.3398438 -95248.7265625 17958.9335938
	1337464008
	0.0#0.0#0.0
	0.000000
End Object
Start Object159
	64978.6914063 -95372.0703125 17975.8710938
	1337464008
	0.0#0.0#0.0
	0.000000
End Object
Start Object160
	68959.859375 -92945.640625 17875.2539063
	1337464008
	0.0#0.0#0.0
	0.000000
End Object
Start Object161
	69186.640625 -92842.296875 17873.1835938
	1337464008
	0.0#0.0#0.0
	0.000000
End Object
Start Object162
	69125.4140625 -92600.875 17863.3457031
	1337464008
	0.0#0.0#0.0
	0.000000
End Object
Start Object163
	67015.90625 -89070.3984375 17655.75
	1337464008
	0.0#0.0#0.0
	0.000000
End Object
Start Object164
	67497.203125 -89116.0625 17678.7597656
	1337464008
	0.0#0.0#0.0
	0.000000
End Object
Start Object165
	67437.40625 -89576.25 17715.6738281
	1337464008
	0.0#0.0#0.0
	0.000000
End Object
Start Object166
	69348.84375 -90006.2265625 17724.8671875
	1337464008
	0.0#0.0#0.0
	0.000000
End Object
Start Object167
	69749.328125 -89391.0234375 17647.5820313
	1337464008
	0.0#0.0#0.0
	0.000000
End Object
Start Object168
	69926.9453125 -89704.5078125 17681.515625
	1337464008
	0.0#0.0#0.0
	0.000000
End Object
Start Object169
	65997.703125 -97069.4296875 18202.9277344
	1337464008
	0.0#0.0#0.0
	0.000000
End Object
Start Object170
	66099.609375 -97453.546875 18200.7871094
	1337464008
	0.0#0.0#0.0
	0.000000
End Object
Start Object171
	66611.9140625 -97110.296875 18189.7539063
	1337464008
	0.0#0.0#0.0
	0.000000
End Object
Start Object172
	68481.171875 -97511.5078125 18180.9199219
	1337464008
	0.0#0.0#0.0
	0.000000
End Object
Start Object173
	68832.1796875 -97412.53125 18235.7441406
	1337464008
	0.0#0.0#0.0
	0.000000
End Object
Start Object174
	68294.71875 -97534.53125 18168.5742188
	1337464008
	0.0#0.0#0.0
	0.000000
End Object
Start Object175
	67945.5703125 -97889.171875 18169.2050781
	1337464008
	0.0#0.0#0.0
	0.000000
End Object
Start Object176
	66197.546875 -99366.8203125 18350.4355469
	1337464008
	0.0#0.0#0.0
	0.000000
End Object
Start Object177
	65764.9296875 -99556.328125 18366.4589844
	1337464008
	0.0#0.0#0.0
	0.000000
End Object
Start Object178
	65498.4375 -99539.0625 18377.5585938
	1337464008
	0.0#0.0#0.0
	0.000000
End Object
Start Object179
	64755.3203125 -99607.578125 18383.0253906
	1337464008
	0.0#0.0#0.0
	0.000000
End Object
Start Object180
	64303.765625 -99721.046875 18377.5488281
	1337464008
	0.0#0.0#0.0
	0.000000
End Object
Start Object181
	64854.2070313 -100953.492188 18407.546875
	1337464008
	0.0#0.0#0.0
	0.000000
End Object
Start Object182
	64769.0078125 -101088.507813 18414.125
	1337464008
	0.0#0.0#0.0
	0.000000
End Object
Start Object183
	63827.421875 -97850.53125 18120.6660156
	1337464008
	0.0#0.0#0.0
	0.000000
End Object
Start Object184
	64501.9375 -97963.1640625 18196.1757813
	1337464008
	0.0#0.0#0.0
	0.000000
End Object
Start Object185
	64820.4335938 -97911.4921875 18201.6015625
	1337464008
	0.0#0.0#0.0
	0.000000
End Object
Start Object186
	66779.7734375 -98368.6015625 18245.1523438
	1337464008
	0.0#0.0#0.0
	0.000000
End Object
Start Object187
	67065.328125 -97983.90625 18230.5996094
	1337464008
	0.0#0.0#0.0
	0.000000
End Object
Start Object188
	67850.453125 -96442.6328125 18154.7910156
	1337464008
	0.0#0.0#0.0
	0.000000
End Object
Start Object189
	57255.453125 -101116.15625 18821.6621094
	1337464008
	0.0#0.0#0.0
	0.000000
End Object
Start Object190
	57055.9570313 -101360.007813 18841.6464844
	1337464008
	0.0#0.0#0.0
	0.000000
End Object
Start Object191
	57584.9765625 -101160.984375 18798.2871094
	1337464008
	0.0#0.0#0.0
	0.000000
End Object
Start Object192
	58698.21875 -99526.3359375 18451.5371094
	1337464008
	0.0#0.0#0.0
	0.000000
End Object
Start Object193
	58957.9960938 -98567.09375 18311.7480469
	1337464008
	0.0#0.0#0.0
	0.000000
End Object
Start Object194
	59381.75 -98574.3828125 18293.59375
	1337464008
	0.0#0.0#0.0
	0.000000
End Object
Start Object195
	56994.0507813 -100107.429688 18708.1679688
	1337464008
	0.0#0.0#0.0
	0.000000
End Object
Start Object196
	56370.9375 -100052.851563 18732.5605469
	1337464008
	0.0#0.0#0.0
	0.000000
End Object
Start Object197
	56477.0625 -99691.015625 18716.4921875
	1337464008
	0.0#0.0#0.0
	0.000000
End Object
Start Object198
	55702.234375 -99847.6171875 18747.2636719
	1337464008
	0.0#0.0#0.0
	0.000000
End Object
Start Object199
	54910.4296875 -100345.5625 18788.140625
	1337464008
	0.0#0.0#0.0
	0.000000
End Object
Start Object200
	55192.7851563 -100975.0625 18809.6875
	1337464008
	0.0#0.0#0.0
	0.000000
End Object
Start Object201
	52704.9453125 -100149.515625 18813.2675781
	1337464008
	0.0#0.0#0.0
	0.000000
End Object
Start Object202
	52507.6484375 -100015.09375 18784.1542969
	1337464008
	0.0#0.0#0.0
	0.000000
End Object
Start Object203
	54750.0898438 -98038.1484375 18606.0917969
	1337464008
	0.0#0.0#0.0
	0.000000
End Object
Start Object204
	54750.6015625 -98043.671875 18612.0527344
	1337464008
	0.0#0.0#0.0
	0.000000
End Object
Start Object205
	55383.2578125 -97417.0546875 18582.6523438
	1337464008
	0.0#0.0#0.0
	0.000000
End Object
Start Object206
	55552.8007813 -97824.7890625 18609.0488281
	1337464008
	0.0#0.0#0.0
	0.000000
End Object
Start Object207
	52886.65625 -98161.5078125 18400.7070313
	1337464008
	0.0#0.0#0.0
	0.000000
End Object
Start Object208
	53503.2460938 -101083.3125 18883.0117188
	1337464008
	0.0#0.0#0.0
	0.000000
End Object
Start Object209
	53924.2460938 -101156.804688 18902.8613281
	1337464008
	0.0#0.0#0.0
	0.000000
End Object
Start Object210
	52048.671875 -101944.648438 19002.5664063
	1337464008
	0.0#0.0#0.0
	0.000000
End Object
Start Object211
	51474.5625 -102204.523438 19046.0449219
	1337464008
	0.0#0.0#0.0
	0.000000
End Object
Start Object212
	51312.5585938 -100349.0 18688.6503906
	1337464008
	0.0#0.0#0.0
	0.000000
End Object
Start Object213
	51203.9765625 -100760.28125 18769.7363281
	1337464008
	0.0#0.0#0.0
	0.000000
End Object
Start Object214
	52387.5390625 -103600.117188 19057.59375
	1337464008
	0.0#0.0#0.0
	0.000000
End Object
Start Object215
	51768.6679688 -103680.734375 19069.34375
	1337464008
	0.0#0.0#0.0
	0.000000
End Object
Start Object216
	50999.4921875 -103394.125 19089.609375
	1337464008
	0.0#0.0#0.0
	0.000000
End Object
Start Object217
	50541.984375 -103582.085938 19094.3984375
	1337464008
	0.0#0.0#0.0
	0.000000
End Object
Start Object218
	46990.5273438 -102614.390625 18959.3144531
	1337464008
	0.0#0.0#0.0
	0.000000
End Object
Start Object219
	47653.921875 -102725.804688 19028.5996094
	1337464008
	0.0#0.0#0.0
	0.000000
End Object
Start Object220
	48894.7695313 -102761.742188 19077.75
	1337464008
	0.0#0.0#0.0
	0.000000
End Object
Start Object221
	49420.7851563 -102833.421875 19076.5410156
	1337464008
	0.0#0.0#0.0
	0.000000
End Object
Start Object222
	49860.671875 -102990.375 19089.0644531
	1337464008
	0.0#0.0#0.0
	0.000000
End Object
Start Object223
	48979.2890625 -102247.179688 19073.7382813
	1337464008
	0.0#0.0#0.0
	0.000000
End Object
Start Object224
	48333.484375 -102234.367188 19082.7988281
	1337464008
	0.0#0.0#0.0
	0.000000
End Object
Start Object225
	47875.5117188 -103548.851563 18978.5546875
	1337464008
	0.0#0.0#0.0
	0.000000
End Object
Start Object226
	47456.0859375 -103746.328125 18928.8105469
	1337464008
	0.0#0.0#0.0
	0.000000
End Object
Start Object227
	46786.5585938 -103796.125 18846.0839844
	1337464008
	0.0#0.0#0.0
	0.000000
End Object
Start Object228
	46311.9609375 -103441.976563 18746.1308594
	1337464008
	0.0#0.0#0.0
	0.000000
End Object
Start Object229
	46202.6601563 -102845.625 18852.9921875
	1337464008
	0.0#0.0#0.0
	0.000000
End Object
Start Object230
	45945.1875 -102195.34375 18925.0859375
	1337464008
	0.0#0.0#0.0
	0.000000
End Object
Start Object231
	52177.3164063 -96715.34375 18180.0703125
	1337464008
	0.0#0.0#0.0
	0.000000
End Object
Start Object232
	51998.421875 -97129.71875 18182.1855469
	1337464008
	0.0#0.0#0.0
	0.000000
End Object
Start Object233
	51649.359375 -97361.421875 18182.5585938
	1337464008
	0.0#0.0#0.0
	0.000000
End Object
Start Object234
	53247.5976563 -96491.3046875 18186.8964844
	1337464008
	0.0#0.0#0.0
	0.000000
End Object
Start Object235
	53295.5898438 -96288.3984375 18184.6992188
	1337464008
	0.0#0.0#0.0
	0.000000
End Object
Start Object236
	52748.8554688 -95870.703125 18181.6679688
	1337464008
	0.0#0.0#0.0
	0.000000
End Object
Start Object237
	52076.0585938 -95627.9296875 18182.65625
	1337464008
	0.0#0.0#0.0
	0.000000
End Object
Start Object238
	52092.7265625 -95168.2578125 18182.7070313
	1337464008
	0.0#0.0#0.0
	0.000000
End Object
Start Object239
	52099.5429688 -94920.6953125 18180.8828125
	1337464008
	0.0#0.0#0.0
	0.000000
End Object
Start Object240
	54663.109375 -94511.234375 18274.3535156
	1337464008
	0.0#0.0#0.0
	0.000000
End Object
Start Object241
	54469.2382813 -95177.140625 18281.6992188
	1337464008
	0.0#0.0#0.0
	0.000000
End Object
Start Object242
	54763.6523438 -95265.0625 18284.0371094
	1337464008
	0.0#0.0#0.0
	0.000000
End Object
Start Object243
	55394.0195313 -95486.828125 18307.2773438
	1337464008
	0.0#0.0#0.0
	0.000000
End Object
Start Object244
	53047.3984375 -92674.1640625 18168.3007813
	1337464008
	0.0#0.0#0.0
	0.000000
End Object
Start Object245
	53409.7460938 -92759.4609375 18149.1054688
	1337464008
	0.0#0.0#0.0
	0.000000
End Object
Start Object246
	53697.703125 -94288.2734375 18258.078125
	1337464008
	0.0#0.0#0.0
	0.000000
End Object
Start Object247
	54016.7265625 -93588.3125 18225.9355469
	1337464008
	0.0#0.0#0.0
	0.000000
End Object
Start Object248
	54674.9726563 -91661.8515625 18128.5
	1337464008
	0.0#0.0#0.0
	0.000000
End Object
Start Object249
	54211.8007813 -91596.0390625 18135.828125
	1337464008
	0.0#0.0#0.0
	0.000000
End Object
Start Object250
	54225.1210938 -91406.1171875 18135.2832031
	1337464008
	0.0#0.0#0.0
	0.000000
End Object
Start Object251
	51239.6171875 -91783.25 18182.2246094
	1337464008
	0.0#0.0#0.0
	0.000000
End Object
Start Object252
	50207.8242188 -92009.078125 18182.9492188
	1337464008
	0.0#0.0#0.0
	0.000000
End Object
Start Object253
	49606.9492188 -92103.125 18164.8984375
	1337464008
	0.0#0.0#0.0
	0.000000
End Object
Start Object254
	50124.5703125 -91650.078125 18183.1347656
	1337464008
	0.0#0.0#0.0
	0.000000
End Object
Start Object255
	51228.7773438 -91500.3515625 18182.0761719
	1337464008
	0.0#0.0#0.0
	0.000000
End Object
Start Object256
	52123.8710938 -92415.8203125 18177.6796875
	1337464008
	0.0#0.0#0.0
	0.000000
End Object
Start Object257
	52952.0234375 -91705.6015625 18157.2070313
	1337464008
	0.0#0.0#0.0
	0.000000
End Object
Start Object258
	56280.1367188 -91643.9453125 18029.0117188
	1337464008
	0.0#0.0#0.0
	0.000000
End Object
Start Object259
	56440.5390625 -91415.921875 18020.9042969
	1337464008
	0.0#0.0#0.0
	0.000000
End Object
Start Object260
	56103.8476563 -91265.4296875 18045.9121094
	1337464008
	0.0#0.0#0.0
	0.000000
End Object
Start Object261
	56134.40625 -91242.578125 18041.4609375
	1337464008
	0.0#0.0#0.0
	0.000000
End Object
Start Object262
	54882.421875 -92825.9375 18083.2128906
	1337464008
	0.0#0.0#0.0
	0.000000
End Object
Start Object263
	55203.2734375 -92640.703125 18080.1035156
	1337464008
	0.0#0.0#0.0
	0.000000
End Object
Start Object264
	55371.5351563 -92402.1953125 18106.0839844
	1337464008
	0.0#0.0#0.0
	0.000000
End Object
Start Object265
	56873.0859375 -93974.421875 18025.9179688
	1337464008
	0.0#0.0#0.0
	0.000000
End Object
Start Object266
	57631.3476563 -94686.0546875 18007.1601563
	1337464008
	0.0#0.0#0.0
	0.000000
End Object
Start Object267
	57721.0976563 -94500.5546875 18008.2695313
	1337464008
	0.0#0.0#0.0
	0.000000
End Object
Start Object268
	55132.3398438 -91202.3046875 18117.2402344
	1337464008
	0.0#0.0#0.0
	0.000000
End Object
Start Object269
	54982.9023438 -91099.8125 18119.3886719
	1337464008
	0.0#0.0#0.0
	0.000000
End Object
Start Object270
	62361.8984375 -87588.4609375 17656.6035156
	1337464008
	0.0#0.0#0.0
	0.000000
End Object
Start Object271
	62452.9648438 -87541.296875 17654.6191406
	1337464008
	0.0#0.0#0.0
	0.000000
End Object
Start Object272
	62346.203125 -87892.2578125 17655.8378906
	1337464008
	0.0#0.0#0.0
	0.000000
End Object
Start Object273
	61885.7695313 -88421.1953125 17657.5585938
	1337464008
	0.0#0.0#0.0
	0.000000
End Object
Start Object274
	61596.4453125 -88549.9609375 17662.0664063
	1337464008
	0.0#0.0#0.0
	0.000000
End Object
Start Object275
	61406.5390625 -88108.6640625 17656.1679688
	1337464008
	0.0#0.0#0.0
	0.000000
End Object
Start Object276
	61424.0664063 -87607.5625 17647.3125
	1337464008
	0.0#0.0#0.0
	0.000000
End Object
Start Object277
	59984.6757813 -88490.2890625 17737.5507813
	1337464008
	0.0#0.0#0.0
	0.000000
End Object
Start Object278
	60040.4726563 -88565.4296875 17734.75
	1337464008
	0.0#0.0#0.0
	0.000000
End Object
Start Object279
	58453.921875 -88332.59375 17826.7636719
	1337464008
	0.0#0.0#0.0
	0.000000
End Object
Start Object280
	57509.109375 -88407.9921875 17877.6328125
	1337464008
	0.0#0.0#0.0
	0.000000
End Object
Start Object281
	56855.5625 -88468.7109375 17930.984375
	1337464008
	0.0#0.0#0.0
	0.000000
End Object
Start Object282
	57407.9101563 -88571.609375 17905.0585938
	1337464008
	0.0#0.0#0.0
	0.000000
End Object
Start Object283
	58173.734375 -87834.9140625 17836.7753906
	1337464008
	0.0#0.0#0.0
	0.000000
End Object
Start Object284
	58556.2421875 -87748.34375 17805.8984375
	1337464008
	0.0#0.0#0.0
	0.000000
End Object
Start Object285
	56244.1132813 -87988.546875 17923.1445313
	1337464008
	0.0#0.0#0.0
	0.000000
End Object
Start Object286
	56509.6679688 -88073.921875 17942.0585938
	1337464008
	0.0#0.0#0.0
	0.000000
End Object
Start Object287
	53967.109375 -88400.34375 18033.5859375
	1337464008
	0.0#0.0#0.0
	0.000000
End Object
Start Object288
	53944.84375 -88507.6328125 18039.7617188
	1337464008
	0.0#0.0#0.0
	0.000000
End Object
Start Object289
	54070.3828125 -87951.9296875 17981.8828125
	1337464008
	0.0#0.0#0.0
	0.000000
End Object
Start Object290
	52428.734375 -80027.2109375 19480.7988281
	1337464008
	0.0#0.0#0.0
	0.000000
End Object
Start Object291
	52671.421875 -80156.3671875 19479.1289063
	1337464008
	0.0#0.0#0.0
	0.000000
End Object
Start Object292
	54422.015625 -82358.0546875 18861.71875
	1337464008
	0.0#0.0#0.0
	0.000000
End Object
Start Object293
	53827.8164063 -82489.953125 18861.2207031
	1337464008
	0.0#0.0#0.0
	0.000000
End Object
Start Object294
	53843.1132813 -82760.4296875 18863.0644531
	1337464008
	0.0#0.0#0.0
	0.000000
End Object
Start Object295
	53277.0625 -82728.7109375 18865.1484375
	1337464008
	0.0#0.0#0.0
	0.000000
End Object
Start Object296
	53130.1757813 -82736.984375 18863.6542969
	1337464008
	0.0#0.0#0.0
	0.000000
End Object
Start Object297
	51396.8007813 -82843.890625 18865.0292969
	1337464008
	0.0#0.0#0.0
	0.000000
End Object
Start Object298
	50867.9296875 -82792.8515625 18863.7734375
	1337464008
	0.0#0.0#0.0
	0.000000
End Object
Start Object299
	50428.3984375 -82773.1328125 18865.2265625
	1337464008
	0.0#0.0#0.0
	0.000000
End Object
Start Object300
	50012.3554688 -81393.484375 18866.2441406
	1337464008
	0.0#0.0#0.0
	0.000000
End Object
Start Object301
	49881.5898438 -81346.015625 18873.203125
	1337464008
	0.0#0.0#0.0
	0.000000
End Object
Start Object302
	47796.25 -80537.5703125 18862.7910156
	1337464008
	0.0#0.0#0.0
	0.000000
End Object
Start Object303
	47355.0351563 -81560.90625 18861.9394531
	1337464008
	0.0#0.0#0.0
	0.000000
End Object
Start Object304
	47639.171875 -81854.8125 18862.8046875
	1337464008
	0.0#0.0#0.0
	0.000000
End Object
Start Object305
	46070.7382813 -79144.9140625 18863.0585938
	1337464008
	0.0#0.0#0.0
	0.000000
End Object
Start Object306
	47479.671875 -79288.65625 18918.2402344
	1337464008
	0.0#0.0#0.0
	0.000000
End Object
Start Object307
	47459.078125 -78918.2734375 18915.9609375
	1337464008
	0.0#0.0#0.0
	0.000000
End Object
Start Object308
	47464.6914063 -78587.59375 18919.4296875
	1337464008
	0.0#0.0#0.0
	0.000000
End Object
Start Object309
	45978.4414063 -78052.6015625 18864.7109375
	1337464008
	0.0#0.0#0.0
	0.000000
End Object
Start Object310
	46017.796875 -78182.6015625 18862.375
	1337464008
	0.0#0.0#0.0
	0.000000
End Object
Start Object311
	47488.9648438 -77543.421875 18916.2539063
	1337464008
	0.0#0.0#0.0
	0.000000
End Object
Start Object312
	47154.1289063 -77486.03125 18917.7734375
	1337464008
	0.0#0.0#0.0
	0.000000
End Object
Start Object313
	47448.5117188 -76947.1328125 18916.2714844
	1337464008
	0.0#0.0#0.0
	0.000000
End Object
Start Object314
	45846.8867188 -75141.6953125 18864.1171875
	1337464008
	0.0#0.0#0.0
	0.000000
End Object
Start Object315
	46165.65625 -74948.125 18864.6816406
	1337464008
	0.0#0.0#0.0
	0.000000
End Object
Start Object316
	46186.1054688 -75513.25 18863.0664063
	1337464008
	0.0#0.0#0.0
	0.000000
End Object
Start Object317
	46487.0625 -75540.59375 18863.4628906
	1337464008
	0.0#0.0#0.0
	0.000000
End Object
Start Object318
	47228.0820313 -73124.359375 18856.15625
	1337464008
	0.0#0.0#0.0
	0.000000
End Object
Start Object319
	49311.9765625 -72505.6796875 18862.7636719
	1337464008
	0.0#0.0#0.0
	0.000000
End Object
Start Object320
	49361.7265625 -72820.703125 18863.5898438
	1337464008
	0.0#0.0#0.0
	0.000000
End Object
Start Object321
	47993.84375 -72249.9921875 18863.4042969
	1337464008
	0.0#0.0#0.0
	0.000000
End Object
Start Object322
	47852.4335938 -72299.46875 18864.6894531
	1337464008
	0.0#0.0#0.0
	0.000000
End Object
Start Object323
	59382.4179688 -98536.5703125 18564.4375
	1337464007
	0.0#0.0#0.0
	0.000000
End Object
Start Object324
	59475.0976563 -98593.6640625 18567.46875
	1337464007
	0.0#0.0#0.0
	0.000000
End Object
Start Object325
	54008.671875 -93555.46875 18475.7695313
	1337464007
	0.0#0.0#0.0
	0.000000
End Object
Start Object326
	54067.3945313 -93609.8671875 18486.1152344
	1337464007
	0.0#0.0#0.0
	0.000000
End Object
Start Object327
	53390.765625 -92746.15625 18406.5527344
	1337464007
	0.0#0.0#0.0
	0.000000
End Object
Start Object328
	53089.5507813 -92673.25 18421.4863281
	1337464007
	0.0#0.0#0.0
	0.000000
End Object
Start Object329
	53257.0859375 -96485.7578125 18443.1972656
	1337464007
	0.0#0.0#0.0
	0.000000
End Object
Start Object330
	54950.2109375 -100355.023438 19041.0683594
	1337464007
	0.0#0.0#0.0
	0.000000
End Object
Start Object331
	55266.8476563 -100947.65625 19066.5039063
	1337464007
	0.0#0.0#0.0
	0.000000
End Object
Start Object332
	53932.7109375 -101165.226563 19158.7734375
	1337464007
	0.0#0.0#0.0
	0.000000
End Object
ObjectCount 333