AreaDataFile
Start Object000
    38800.000000 -12300.000000 16189.500000
    215252160
    0.000000#270.000000#0.000000
    0.000000
End Object
Start Object001
    38800.000000 -12300.000000 16989.500000
    215252163
    0.000000#0.000000#0.000000
    0.000000
End Object
Start Object002
    38800.000000 -12300.000000 16889.500000
    940409560
    0.000000#0.000000#90.000000
    0.000000
End Object
Start Object003
    38300.000000 -12300.000000 16999.500000
    1406757001
    0.000000#0.000000#90.000000
    0.000000
End Object
ObjectCount 4
