AreaDataFile

Start Object000
    20369.117188 -54456.574219 16388.460938
    135661669
    0.000000#0.000000#180.000000
    0.000000
End Object
Start Object001
    21811.476563 -67645.921875 16542.818359
    135661669
    0.000000#0.000000#180.000000
    0.000000
End Object
Start Object002
    19988.210938 -56943.257813 16290.294922
    393748557
    0.000000#0.000000#210.000000
    0.000000
End Object
Start Object003
    20128.722656 -55916.613281 16360.169922
    565526255
    0.000000#0.000000#180.000000
    0.000000
End Object
Start Object004
    21841.980469 -67757.570313 16550.662109
    565526255
    0.000000#0.000000#180.000000
    0.000000
End Object
Start Object005
    20243.699219 -55980.242188 16368.789063
    1035737884
    0.000000#0.000000#180.000000
    0.000000
End Object
Start Object006
    21711.660156 -68181.851563 16512.568359
    1035737884
    0.000000#0.000000#180.000000
    0.000000
End Object
Start Object007
    20119.000000 -57464.000000 16282.000000
    1685591872
    0.000000#0.000000#210.000000
    0.000000
End Object
Start Object008
    18786.000000 -56695.000000 16303.000000
    1685591872
    -5.900000#-2.950000#-153.440000
    0.000000
End Object
Start Object009
    21717.875000 -66285.554688 16525.410156
    1703863918
    0.000000#0.000000#180.000000
    0.000000
End Object
Start Object010
    20423.375000 -55818.859375 16385.179688
    2219773313
    0.000000#0.000000#180.000000
    0.000000
End Object
Start Object011
    18865.000000 -57805.000000 16293.000000
    2384255575
    2.950000#0.000000#91.480000
    0.000000
End Object
Start Object012
    20322.240234 -55895.847656 16376.529297
    2395018297
    0.000000#0.000000#180.000000
    0.000000
End Object
Start Object013
    21556.113281 -67375.046875 16475.703125
    2401125466
    0.000000#0.000000#180.000000
    0.000000
End Object
Start Object014
    20392.695313 -54270.976563 16387.464844
    2401125466
    0.000000#0.000000#180.000000
    0.000000
End Object
Start Object015
    21402.000000 -67918.343750 16456.789063
    3142948920
    0.000000#0.000000#0.000000
    0.000000
End Object
Start Object016
    20060.673828 -55508.324219 16387.259766
    3142948920
    0.000000#0.000000#0.000000
    0.000000
End Object
Start Object017
    19257.957031 -54827.613281 16389.580078
    3515438753
    0.000000#0.000000#270.000000
    0.000000
End Object

ObjectCount 18