AreaDataFile

Start Object000
    145605.296875 -53992.605469 16383.500000
    807123463
    0.000000#0.000000#0.000000
    475.000000
End Object
Start Object001
    143221.265625 -57850.988281 16383.500000
    807123463
    0.000000#0.000000#0.000000
    475.000000
End Object
Start Object002
    143219.656250 -59007.652344 16383.500000
    807123463
    0.000000#0.000000#0.000000
    475.000000
End Object
Start Object003
    143215.531250 -60295.410156 16383.500000
    807123463
    0.000000#0.000000#0.000000
    475.000000
End Object
Start Object004
    143220.515625 -61456.707031 16383.500000
    807123463
    0.000000#0.000000#0.000000
    475.000000
End Object
Start Object005
    143224.593750 -62950.164063 16383.500000
    807123463
    0.000000#0.000000#0.000000
    475.000000
End Object
Start Object006
    143227.578125 -64186.855469 16383.500000
    807123463
    0.000000#0.000000#0.000000
    475.000000
End Object
Start Object007
    143231.046875 -65341.492188 16383.500000
    807123463
    0.000000#0.000000#0.000000
    475.000000
End Object
Start Object008
    143233.421875 -66615.679688 16383.500000
    807123463
    0.000000#0.000000#0.000000
    475.000000
End Object
Start Object009
    143233.312500 -67782.460938 16383.500000
    807123463
    0.000000#0.000000#0.000000
    475.000000
End Object
Start Object010
    143230.515625 -69282.164063 16383.500000
    807123463
    0.000000#0.000000#0.000000
    475.000000
End Object
Start Object011
    143237.375000 -70520.570313 16383.500000
    807123463
    0.000000#0.000000#0.000000
    475.000000
End Object
Start Object012
    136645.828125 -52622.117188 16383.500000
    807123463
    0.000000#0.000000#0.000000
    343.000000
End Object
Start Object013
    136642.078125 -54721.601563 16383.500000
    807123463
    0.000000#0.000000#0.000000
    343.000000
End Object
Start Object014
    136643.000000 -56815.359375 16383.500000
    807123463
    0.000000#0.000000#0.000000
    343.000000
End Object
Start Object015
    135196.015625 -58261.734375 16383.500000
    807123463
    0.000000#0.000000#0.000000
    343.000000
End Object
Start Object016
    131005.171875 -58251.378906 16383.500000
    807123463
    0.000000#0.000000#0.000000
    343.000000
End Object
Start Object017
    129566.195313 -56803.273438 16383.500000
    807123463
    0.000000#0.000000#0.000000
    343.000000
End Object
Start Object018
    129560.312500 -52610.824219 16383.500000
    807123463
    0.000000#0.000000#0.000000
    343.000000
End Object
Start Object019
    134323.031250 -59139.304688 16383.500000
    807123463
    0.000000#0.000000#0.000000
    471.000000
End Object
Start Object020
    134322.250000 -60298.195313 16383.500000
    807123463
    0.000000#0.000000#0.000000
    471.000000
End Object
Start Object021
    134325.656250 -61567.515625 16383.500000
    807123463
    0.000000#0.000000#0.000000
    471.000000
End Object
Start Object022
    134320.468750 -62721.945313 16383.500000
    807123463
    0.000000#0.000000#0.000000
    471.000000
End Object
Start Object023
    134323.796875 -64231.777344 16383.500000
    807123463
    0.000000#0.000000#0.000000
    471.000000
End Object
Start Object024
    134321.296875 -65465.285156 16383.500000
    807123463
    0.000000#0.000000#0.000000
    471.000000
End Object
Start Object025
    134321.078125 -66618.875000 16383.500000
    807123463
    0.000000#0.000000#0.000000
    471.000000
End Object
Start Object026
    134323.000000 -67896.007813 16383.500000
    807123463
    0.000000#0.000000#0.000000
    471.000000
End Object
Start Object027
    134323.593750 -69051.398438 16383.500000
    807123463
    0.000000#0.000000#0.000000
    471.000000
End Object
Start Object028
    134319.421875 -70558.148438 16383.500000
    807123463
    0.000000#0.000000#0.000000
    471.000000
End Object
Start Object029
    134319.812500 -71798.804688 16383.500000
    807123463
    0.000000#0.000000#0.000000
    471.000000
End Object
Start Object030
    134323.421875 -72950.632813 16383.500000
    807123463
    0.000000#0.000000#0.000000
    471.000000
End Object
Start Object031
    134317.625000 -74224.718750 16383.500000
    807123463
    0.000000#0.000000#0.000000
    471.000000
End Object
Start Object032
    134322.906250 -75380.976563 16383.500000
    807123463
    0.000000#0.000000#0.000000
    471.000000
End Object
Start Object033
    131924.562500 -75385.476563 16383.500000
    807123463
    0.000000#0.000000#0.000000
    471.000000
End Object
Start Object034
    131924.640625 -74234.562500 16383.500000
    807123463
    0.000000#0.000000#0.000000
    471.000000
End Object
Start Object035
    131928.703125 -72953.945313 16383.500000
    807123463
    0.000000#0.000000#0.000000
    471.000000
End Object
Start Object036
    131921.156250 -71795.046875 16383.500000
    807123463
    0.000000#0.000000#0.000000
    471.000000
End Object
Start Object037
    131922.328125 -70563.671875 16383.500000
    807123463
    0.000000#0.000000#0.000000
    471.000000
End Object
Start Object038
    145610.015625 -55149.476563 16383.500000
    807123463
    0.000000#0.000000#0.000000
    475.000000
End Object
Start Object039
    145606.125000 -56650.343750 16383.500000
    807123463
    0.000000#0.000000#0.000000
    475.000000
End Object
Start Object040
    145612.765625 -57864.007813 16383.500000
    807123463
    0.000000#0.000000#0.000000
    475.000000
End Object
Start Object041
    145613.656250 -59017.156250 16383.500000
    807123463
    0.000000#0.000000#0.000000
    475.000000
End Object
Start Object042
    145606.421875 -60292.101563 16383.500000
    807123463
    0.000000#0.000000#0.000000
    475.000000
End Object
Start Object043
    145618.609375 -61441.085938 16383.500000
    807123463
    0.000000#0.000000#0.000000
    475.000000
End Object
Start Object044
    145611.859375 -62952.988281 16383.500000
    807123463
    0.000000#0.000000#0.000000
    475.000000
End Object
Start Object045
    145617.484375 -64188.316406 16383.500000
    807123463
    0.000000#0.000000#0.000000
    475.000000
End Object
Start Object046
    145619.156250 -65353.281250 16383.500000
    807123463
    0.000000#0.000000#0.000000
    475.000000
End Object
Start Object047
    131938.078125 -59148.644531 16383.500000
    807123463
    0.000000#0.000000#0.000000
    471.000000
End Object
Start Object048
    131928.875000 -60294.101563 16383.500000
    807123463
    0.000000#0.000000#0.000000
    471.000000
End Object
Start Object049
    131929.062500 -61568.816406 16383.500000
    807123463
    0.000000#0.000000#0.000000
    471.000000
End Object
Start Object050
    131925.437500 -62720.429688 16383.500000
    807123463
    0.000000#0.000000#0.000000
    471.000000
End Object
Start Object051
    131927.062500 -64238.996094 16383.500000
    807123463
    0.000000#0.000000#0.000000
    471.000000
End Object
Start Object052
    131921.390625 -65466.371094 16383.500000
    807123463
    0.000000#0.000000#0.000000
    471.000000
End Object
Start Object053
    131925.609375 -66628.726563 16383.500000
    807123463
    0.000000#0.000000#0.000000
    471.000000
End Object
Start Object054
    131928.343750 -67896.023438 16383.500000
    807123463
    0.000000#0.000000#0.000000
    471.000000
End Object
Start Object055
    131924.640625 -69058.445313 16383.500000
    807123463
    0.000000#0.000000#0.000000
    471.000000
End Object
Start Object056
    128906.250000 -55979.625000 16383.500000
    807123463
    0.000000#0.000000#0.000000
    475.000000
End Object
Start Object057
    128902.531250 -53587.957031 16383.500000
    807123463
    0.000000#0.000000#0.000000
    475.000000
End Object
Start Object058
    143219.359375 -56648.570313 16383.500000
    807123463
    0.000000#0.000000#0.000000
    475.000000
End Object
Start Object059
    143219.343750 -55140.308594 16383.500000
    807123463
    0.000000#0.000000#0.000000
    475.000000
End Object
Start Object060
    143221.921875 -53987.136719 16383.500000
    807123463
    0.000000#0.000000#0.000000
    475.000000
End Object
Start Object061
    143216.843750 -52712.484375 16383.500000
    807123463
    0.000000#0.000000#0.000000
    475.000000
End Object
Start Object062
    145611.187500 -52708.636719 16383.500000
    807123463
    0.000000#0.000000#0.000000
    475.000000
End Object
Start Object063
    145604.921875 -51551.593750 16383.500000
    807123463
    0.000000#0.000000#0.000000
    475.000000
End Object
Start Object064
    143215.843750 -51567.703125 16383.500000
    807123463
    0.000000#0.000000#0.000000
    475.000000
End Object
Start Object065
    145626.140625 -66620.007813 16383.500000
    807123463
    0.000000#0.000000#0.000000
    475.000000
End Object
Start Object066
    145624.687500 -67773.804688 16383.500000
    807123463
    0.000000#0.000000#0.000000
    475.000000
End Object
Start Object067
    145619.000000 -69277.617188 16383.500000
    807123463
    0.000000#0.000000#0.000000
    475.000000
End Object
Start Object068
    145616.453125 -70514.320313 16383.500000
    807123463
    0.000000#0.000000#0.000000
    475.000000
End Object
Start Object069
    145623.281250 -71682.265625 16383.500000
    807123463
    0.000000#0.000000#0.000000
    475.000000
End Object
Start Object070
    145628.828125 -72954.000000 16383.500000
    807123463
    0.000000#0.000000#0.000000
    475.000000
End Object
Start Object071
    145624.718750 -74110.218750 16383.500000
    807123463
    0.000000#0.000000#0.000000
    475.000000
End Object
Start Object072
    145618.515625 -75607.210938 16383.500000
    807123463
    0.000000#0.000000#0.000000
    475.000000
End Object
Start Object073
    143226.046875 -75603.109375 16383.500000
    807123463
    0.000000#0.000000#0.000000
    475.000000
End Object
Start Object074
    143229.484375 -74106.843750 16383.500000
    807123463
    0.000000#0.000000#0.000000
    475.000000
End Object
Start Object075
    143231.515625 -72943.507813 16383.500000
    807123463
    0.000000#0.000000#0.000000
    475.000000
End Object
Start Object076
    143234.453125 -71676.734375 16383.500000
    807123463
    0.000000#0.000000#0.000000
    475.000000
End Object
Start Object077
    128180.000000 -54790.000000 16383.500000
    3322686878
    0.000000#0.000000#270.000000
    0.000000
End Object
Start Object078
    133130.000000 -74200.000000 16383.500000
    3453634549
    0.000000#0.000000#0.000000
    0.000000
End Object
Start Object079
    133130.000000 -67870.000000 16383.500000
    3453634549
    0.000000#0.000000#0.000000
    0.000000
End Object
Start Object080
    133130.000000 -61540.000000 16383.500000
    3453634549
    0.000000#0.000000#0.000000
    0.000000
End Object
Start Object081
    144420.000000 -53960.000000 16383.500000
    3453634549
    0.000000#0.000000#0.000000
    0.000000
End Object
Start Object082
    144420.000000 -60260.000000 16383.500000
    3453634549
    0.000000#0.000000#0.000000
    0.000000
End Object
Start Object083
    144430.000000 -66590.000000 16383.500000
    3453634549
    0.000000#0.000000#0.000000
    0.000000
End Object
Start Object084
    144430.000000 -72920.000000 16383.500000
    3453634549
    0.000000#0.000000#0.000000
    0.000000
End Object
Start Object085
    129773.476563 -53513.746094 16383.500000
    3982077190
    0.000000#0.000000#0.000000
    1508.000000
End Object
Start Object086
    129774.375000 -55911.687500 16383.500000
    3982077190
    0.000000#0.000000#0.000000
    1508.000000
End Object
Start Object087
    131899.265625 -58061.691406 16383.500000
    3982077190
    0.000000#0.000000#0.000000
    1508.000000
End Object
Start Object088
    134308.265625 -58035.046875 16383.500000
    3982077190
    0.000000#0.000000#0.000000
    1508.000000
End Object
Start Object089
    136450.109375 -55923.476563 16383.500000
    3982077190
    0.000000#0.000000#0.000000
    1508.000000
End Object
Start Object090
    136454.343750 -53524.515625 16383.500000
    3982077190
    0.000000#0.000000#0.000000
    1508.000000
End Object
Start Object091
    134310.437500 -51339.761719 16383.500000
    3982077190
    0.000000#0.000000#0.000000
    1508.000000
End Object
Start Object092
    131911.843750 -51367.664063 16383.500000
    3982077190
    0.000000#0.000000#0.000000
    1508.000000
End Object
Start Object093
    133110.000000 -54720.000000 16383.500000
    4180790606
    0.000000#0.000000#270.000000
    0.000000
End Object

ObjectCount 94
