AreaDataFile

Start Object000
    61504.441406 -16289.337891 16383.500000
    807123463
    0.000000#0.000000#0.000000
    473.000000
End Object
Start Object001
    62666.589844 -16286.364258 16383.500000
    807123463
    0.000000#0.000000#0.000000
    473.000000
End Object
Start Object002
    64172.929688 -16296.698242 16383.500000
    807123463
    0.000000#0.000000#0.000000
    473.000000
End Object
Start Object003
    51520.875000 -18682.744141 16383.500000
    807123463
    0.000000#0.000000#0.000000
    473.000000
End Object
Start Object004
    52768.578125 -18690.826172 16383.500000
    807123463
    0.000000#0.000000#0.000000
    473.000000
End Object
Start Object005
    53924.312500 -18697.587891 16383.500000
    807123463
    0.000000#0.000000#0.000000
    473.000000
End Object
Start Object006
    55194.792969 -18686.628906 16383.500000
    807123463
    0.000000#0.000000#0.000000
    473.000000
End Object
Start Object007
    56354.835938 -18691.226563 16383.500000
    807123463
    0.000000#0.000000#0.000000
    473.000000
End Object
Start Object008
    57857.304688 -18692.406250 16383.500000
    807123463
    0.000000#0.000000#0.000000
    473.000000
End Object
Start Object009
    52175.097656 -24205.980469 16383.500000
    807123463
    0.000000#0.000000#0.000000
    340.000000
End Object
Start Object010
    64474.621094 -25064.972656 16383.500000
    807123463
    0.000000#0.000000#0.000000
    474.000000
End Object
Start Object011
    62961.867188 -25063.816406 16383.500000
    807123463
    0.000000#0.000000#0.000000
    474.000000
End Object
Start Object012
    61807.839844 -25057.302734 16383.500000
    807123463
    0.000000#0.000000#0.000000
    474.000000
End Object
Start Object013
    60537.968750 -25054.128906 16383.500000
    807123463
    0.000000#0.000000#0.000000
    474.000000
End Object
Start Object014
    59387.972656 -25066.000000 16383.500000
    807123463
    0.000000#0.000000#0.000000
    474.000000
End Object
Start Object015
    58131.714844 -25066.818359 16383.500000
    807123463
    0.000000#0.000000#0.000000
    474.000000
End Object
Start Object016
    56635.921875 -25067.830078 16383.500000
    807123463
    0.000000#0.000000#0.000000
    474.000000
End Object
Start Object017
    55472.312500 -25072.250000 16383.500000
    807123463
    0.000000#0.000000#0.000000
    474.000000
End Object
Start Object018
    54204.941406 -25065.630859 16383.500000
    807123463
    0.000000#0.000000#0.000000
    474.000000
End Object
Start Object019
    53049.207031 -25070.058594 16383.500000
    807123463
    0.000000#0.000000#0.000000
    474.000000
End Object
Start Object020
    65048.820313 -24017.523438 16383.500000
    807123463
    0.000000#0.000000#0.000000
    348.000000
End Object
Start Object021
    66489.875000 -22567.789063 16383.500000
    807123463
    0.000000#0.000000#0.000000
    348.000000
End Object
Start Object022
    70674.257813 -22566.025391 16383.500000
    807123463
    0.000000#0.000000#0.000000
    348.000000
End Object
Start Object023
    72115.453125 -24011.644531 16383.500000
    807123463
    0.000000#0.000000#0.000000
    348.000000
End Object
Start Object024
    67364.179688 -21875.910156 16383.500000
    807123463
    0.000000#0.000000#0.000000
    478.000000
End Object
Start Object025
    69748.039063 -21877.636719 16383.500000
    807123463
    0.000000#0.000000#0.000000
    478.000000
End Object
Start Object026
    72851.812500 -24959.429688 16383.500000
    807123463
    0.000000#0.000000#0.000000
    478.000000
End Object
Start Object027
    74360.414063 -24957.052734 16383.500000
    807123463
    0.000000#0.000000#0.000000
    478.000000
End Object
Start Object028
    75511.351563 -24956.496094 16383.500000
    807123463
    0.000000#0.000000#0.000000
    478.000000
End Object
Start Object029
    76778.421875 -24956.960938 16383.500000
    807123463
    0.000000#0.000000#0.000000
    478.000000
End Object
Start Object030
    72856.843750 -18630.115234 16383.500000
    807123463
    0.000000#0.000000#0.000000
    481.000000
End Object
Start Object031
    74016.085938 -16243.418945 16383.500000
    807123463
    0.000000#0.000000#0.000000
    481.000000
End Object
Start Object032
    72857.015625 -16252.552734 16383.500000
    807123463
    0.000000#0.000000#0.000000
    481.000000
End Object
Start Object033
    64894.203125 -19601.970703 16383.500000
    807123463
    0.000000#0.000000#0.000000
    344.000000
End Object
Start Object034
    66335.203125 -21044.828125 16383.500000
    807123463
    0.000000#0.000000#0.000000
    344.000000
End Object
Start Object035
    70527.726563 -21041.099609 16383.500000
    807123463
    0.000000#0.000000#0.000000
    344.000000
End Object
Start Object036
    71969.890625 -19600.783203 16383.500000
    807123463
    0.000000#0.000000#0.000000
    344.000000
End Object
Start Object037
    71969.125000 -15411.654297 16383.500000
    807123463
    0.000000#0.000000#0.000000
    344.000000
End Object
Start Object038
    70538.023438 -13962.871094 16383.500000
    807123463
    0.000000#0.000000#0.000000
    344.000000
End Object
Start Object039
    68434.945313 -13962.780273 16383.500000
    807123463
    0.000000#0.000000#0.000000
    344.000000
End Object
Start Object040
    66339.476563 -13963.405273 16383.500000
    807123463
    0.000000#0.000000#0.000000
    344.000000
End Object
Start Object041
    64895.652344 -15412.829102 16383.500000
    807123463
    0.000000#0.000000#0.000000
    344.000000
End Object
Start Object042
    64172.179688 -18685.451172 16383.500000
    807123463
    0.000000#0.000000#0.000000
    473.000000
End Object
Start Object043
    62666.531250 -18682.400391 16383.500000
    807123463
    0.000000#0.000000#0.000000
    473.000000
End Object
Start Object044
    61510.945313 -18680.275391 16383.500000
    807123463
    0.000000#0.000000#0.000000
    473.000000
End Object
Start Object045
    60234.777344 -18682.935547 16383.500000
    807123463
    0.000000#0.000000#0.000000
    473.000000
End Object
Start Object046
    59086.507813 -18679.671875 16383.500000
    807123463
    0.000000#0.000000#0.000000
    473.000000
End Object
Start Object047
    60236.261719 -16290.885742 16383.500000
    807123463
    0.000000#0.000000#0.000000
    473.000000
End Object
Start Object048
    59077.781250 -16290.231445 16383.500000
    807123463
    0.000000#0.000000#0.000000
    473.000000
End Object
Start Object049
    57851.683594 -16300.012695 16383.500000
    807123463
    0.000000#0.000000#0.000000
    473.000000
End Object
Start Object050
    56345.457031 -16299.418945 16383.500000
    807123463
    0.000000#0.000000#0.000000
    473.000000
End Object
Start Object051
    55188.292969 -16303.128906 16383.500000
    807123463
    0.000000#0.000000#0.000000
    473.000000
End Object
Start Object052
    53911.507813 -16303.386719 16383.500000
    807123463
    0.000000#0.000000#0.000000
    473.000000
End Object
Start Object053
    52760.542969 -16300.990234 16383.500000
    807123463
    0.000000#0.000000#0.000000
    473.000000
End Object
Start Object054
    51522.957031 -16291.449219 16383.500000
    807123463
    0.000000#0.000000#0.000000
    473.000000
End Object
Start Object055
    76448.664063 -18625.275391 16383.500000
    807123463
    0.000000#0.000000#0.000000
    481.000000
End Object
Start Object056
    76447.593750 -16241.046875 16383.500000
    807123463
    0.000000#0.000000#0.000000
    481.000000
End Object
Start Object057
    75289.867188 -16243.730469 16383.500000
    807123463
    0.000000#0.000000#0.000000
    481.000000
End Object
Start Object058
    75291.593750 -18620.929688 16383.500000
    807123463
    0.000000#0.000000#0.000000
    481.000000
End Object
Start Object059
    74017.671875 -18627.701172 16383.500000
    807123463
    0.000000#0.000000#0.000000
    481.000000
End Object
Start Object060
    68550.000000 -21780.000000 16383.500000
    2847936845
    0.000000#0.000000#0.000000
    0.000000
End Object
Start Object061
    75260.000000 -17430.000000 16383.500000
    3453634549
    0.000000#0.000000#90.000000
    0.000000
End Object
Start Object062
    61480.000000 -17480.000000 16383.500000
    3453634549
    0.000000#0.000000#90.000000
    0.000000
End Object
Start Object063
    55160.000000 -17490.000000 16383.500000
    3453634549
    0.000000#0.000000#90.000000
    0.000000
End Object
Start Object064
    71766.140625 -16306.854492 16383.500000
    3982077190
    0.000000#0.000000#0.000000
    1520.000000
End Object
Start Object065
    71775.859375 -18699.046875 16383.500000
    3982077190
    0.000000#0.000000#0.000000
    1520.000000
End Object
Start Object066
    69639.632813 -14160.324219 16383.500000
    3982077190
    0.000000#0.000000#0.000000
    1520.000000
End Object
Start Object067
    67236.835938 -14144.394531 16383.500000
    3982077190
    0.000000#0.000000#0.000000
    1520.000000
End Object
Start Object068
    65093.992188 -16303.455078 16383.500000
    3982077190
    0.000000#0.000000#0.000000
    1520.000000
End Object
Start Object069
    65076.570313 -18711.472656 16383.500000
    3982077190
    0.000000#0.000000#0.000000
    1520.000000
End Object
Start Object070
    67227.140625 -20855.802734 16383.500000
    3982077190
    0.000000#0.000000#0.000000
    1520.000000
End Object
Start Object071
    69634.250000 -20866.806641 16383.500000
    3982077190
    0.000000#0.000000#0.000000
    1520.000000
End Object
Start Object072
    51976.203125 -25100.929688 16383.500000
    3982077190
    0.000000#0.000000#0.000000
    1521.000000
End Object
Start Object073
    65263.890625 -24921.218750 16383.500000
    3982077190
    0.000000#0.000000#0.000000
    1525.000000
End Object
Start Object074
    71913.875000 -24909.798828 16383.500000
    3982077190
    0.000000#0.000000#0.000000
    1525.000000
End Object
Start Object075
    69772.664063 -22772.044922 16383.500000
    3982077190
    0.000000#0.000000#0.000000
    1525.000000
End Object
Start Object076
    67371.460938 -22772.363281 16383.500000
    3982077190
    0.000000#0.000000#0.000000
    1525.000000
End Object
Start Object077
    68440.000000 -17500.000000 16383.500000
    4180790606
    0.000000#0.000000#0.000000
    0.000000
End Object

ObjectCount 78
