TextureSet

TextureCount 11

Start Texture001
    "d:\ymir work\terrainmaps\vmt2\b_field_01_01.dds"
    2.000000
    2.000000
    0.000000
    0.000000
    0
    0
    0
End Texture001
Start Texture002
    "d:\ymir work\terrainmaps\b\field\field 02_01.dds"
    3.000000
    3.000000
    0.000000
    0.000000
    0
    0
    0
End Texture002
Start Texture003
    "d:\ymir work\terrainmaps\b\field\field 03_01.dds"
    5.000000
    5.000000
    0.000000
    0.000000
    0
    0
    0
End Texture003
Start Texture004
    "d:\ymir work\terrainmaps\b\field\field 04_01.dds"
    5.000000
    5.000000
    0.000000
    0.000000
    0
    0
    0
End Texture004
Start Texture005
    "d:\ymir work\terrainmaps\b\grass\grass 01_01.dds"
    5.000000
    5.000000
    0.000000
    0.000000
    90
    0
    0
End Texture005
Start Texture006
    "d:\ymir work\terrainmaps\b\grass\grass 02_01.dds"
    5.000000
    5.000000
    0.000000
    0.000000
    0
    0
    0
End Texture006
Start Texture007
    "d:\ymir work\terrainmaps\b\grass\grass 03_01.dds"
    4.000000
    4.000000
    0.000000
    0.000000
    0
    0
    0
End Texture007
Start Texture008
    "d:\ymir work\terrainmaps\b\stone\stone01_01.dds"
    2.500000
    2.500000
    0.000000
    0.000000
    90
    0
    0
End Texture008
Start Texture009
    "d:\ymir work\terrainmaps\b\stone\stone03_01.dds"
    5.000000
    5.000000
    0.000000
    0.000000
    90
    0
    0
End Texture009
Start Texture010
    "d:\ymir work\terrainmaps\b\stone\stone04_01.dds"
    5.000000
    5.000000
    0.000000
    0.000000
    0
    0
    0
End Texture010
Start Texture011
    "d:\ymir work\terrainmaps\b\tile\tile01.dds"
    5.000000
    5.000000
    0.000000
    0.000000
    0
    0
    0
End Texture011
