AreaDataFile

Start Object000
    49115.828125 -104807.500000 19268.556641
    486960621
    0.000000#0.000000#0.000000
    0.000000
End Object
Start Object001
    31415.958984 -111606.875000 17321.841797
    486960621
    0.000000#0.000000#120.000000
    0.000000
End Object
Start Object002
    46900.863281 -110725.703125 19830.937500
    569394331
    0.000000#0.000000#0.000000
    0.000000
End Object
Start Object003
    36344.023438 -106218.421875 17806.515625
    569394331
    0.000000#0.000000#0.000000
    0.000000
End Object
Start Object004
    35785.000000 -115973.000000 17429.000000
    1107711305
    0.000000#0.000000#285.000000
    0.000000
End Object
Start Object005
    48051.695313 -106566.132813 19218.132813
    1107711305
    0.000000#0.000000#0.000000
    0.000000
End Object
Start Object006
    30295.066406 -116262.429688 17488.175781
    1107711305
    0.000000#0.000000#0.000000
    0.000000
End Object
Start Object007
    29976.103516 -114840.601563 17566.240234
    1289994135
    0.000000#0.000000#0.000000
    0.000000
End Object
Start Object008
    27704.716797 -108838.765625 16952.164063
    1353164984
    0.000000#0.000000#120.000000
    0.000000
End Object
Start Object009
    48230.980469 -112186.250000 19759.669922
    1353164984
    0.000000#0.000000#0.000000
    0.000000
End Object
Start Object010
    35079.968750 -104852.757813 17533.822266
    1353164984
    0.000000#0.000000#0.000000
    0.000000
End Object
Start Object011
    34958.445313 -110508.507813 17576.574219
    1671224775
    0.000000#0.000000#120.000000
    0.000000
End Object
Start Object012
    39621.894531 -115372.296875 18244.984375
    1671224775
    0.000000#0.000000#0.000000
    0.000000
End Object
Start Object013
    27332.363281 -110145.234375 17050.812500
    2188671155
    0.000000#0.000000#120.000000
    0.000000
End Object
Start Object014
    33600.957031 -104143.109375 17529.011719
    2188671155
    0.000000#0.000000#0.000000
    0.000000
End Object
Start Object015
    28311.039063 -114479.109375 17552.267578
    2188671155
    0.000000#0.000000#0.000000
    0.000000
End Object
Start Object016
    46470.343750 -111971.976563 19767.609375
    2188671155
    0.000000#0.000000#0.000000
    0.000000
End Object
Start Object017
    47822.980469 -104020.226563 19204.345703
    2376089798
    0.000000#0.000000#0.000000
    0.000000
End Object
Start Object018
    37408.121094 -102933.218750 17849.945313
    2376089798
    0.000000#0.000000#0.000000
    0.000000
End Object
Start Object019
    42354.000000 -114390.000000 18723.000000
    2376089798
    0.000000#0.000000#0.000000
    0.000000
End Object
Start Object020
    45323.355469 -114947.523438 19599.435547
    2399205967
    0.000000#0.000000#0.000000
    0.000000
End Object
Start Object021
    26568.722656 -106685.148438 16956.607422
    2399205967
    0.000000#0.000000#120.000000
    0.000000
End Object
Start Object022
    32284.765625 -105126.390625 17574.929688
    3193282972
    0.000000#0.000000#0.000000
    0.000000
End Object
Start Object023
    46844.882813 -114046.101563 19705.785156
    3193282972
    0.000000#0.000000#0.000000
    0.000000
End Object
Start Object024
    26662.816406 -115183.851563 17538.089844
    3193282972
    0.000000#0.000000#0.000000
    0.000000
End Object
Start Object025
    28662.767578 -115685.250000 17557.306641
    3455398876
    0.000000#0.000000#0.000000
    0.000000
End Object
Start Object026
    40758.554688 -116536.195313 18610.865234
    3455398876
    0.000000#0.000000#0.000000
    0.000000
End Object
Start Object027
    31542.421875 -110791.523438 17344.355469
    3455398876
    0.000000#0.000000#120.000000
    0.000000
End Object
Start Object028
    26658.892578 -111062.773438 17085.644531
    3689520799
    0.000000#0.000000#120.000000
    0.000000
End Object
Start Object029
    33401.957031 -106182.617188 17631.636719
    3748653682
    0.000000#0.000000#0.000000
    0.000000
End Object
Start Object030
    43428.000000 -114349.000000 19003.000000
    3748653682
    0.000000#0.000000#0.000000
    0.000000
End Object
Start Object031
    27596.289063 -106101.078125 17176.404297
    3748653682
    0.000000#0.000000#120.000000
    0.000000
End Object

Start Object032
	44658.125 -103023.039063 18614.7636719
	1337464008
	0.0#0.0#0.0
	0.000000
End Object
Start Object033
	44441.1835938 -103623.28125 18527.8554688
	1337464008
	0.0#0.0#0.0
	0.000000
End Object
Start Object034
	44627.6367188 -103880.765625 18578.1210938
	1337464008
	0.0#0.0#0.0
	0.000000
End Object
Start Object035
	44239.5664063 -101967.820313 18791.3203125
	1337464008
	0.0#0.0#0.0
	0.000000
End Object
Start Object036
	44112.0898438 -101840.9375 18772.4804688
	1337464008
	0.0#0.0#0.0
	0.000000
End Object
Start Object037
	43840.5625 -101818.875 18740.9609375
	1337464008
	0.0#0.0#0.0
	0.000000
End Object
Start Object038
	45213.5664063 -102417.1875 18844.3496094
	1337464008
	0.0#0.0#0.0
	0.000000
End Object
Start Object039
	45268.96875 -102446.132813 18848.21875
	1337464008
	0.0#0.0#0.0
	0.000000
End Object
Start Object040
	45100.8632813 -103593.976563 18637.1953125
	1337464008
	0.0#0.0#0.0
	0.000000
End Object
Start Object041
	42200.5898438 -103183.570313 18102.7617188
	1337464008
	0.0#0.0#0.0
	0.000000
End Object
Start Object042
	41922.5742188 -103157.695313 18005.7792969
	1337464008
	0.0#0.0#0.0
	0.000000
End Object
Start Object043
	42089.90625 -103530.195313 18013.7753906
	1337464008
	0.0#0.0#0.0
	0.000000
End Object
Start Object044
	41403.0429688 -101286.804688 18366.0410156
	1337464008
	0.0#0.0#0.0
	0.000000
End Object
Start Object045
	40722.296875 -101087.367188 18352.9199219
	1337464008
	0.0#0.0#0.0
	0.000000
End Object
Start Object046
	40430.96875 -101353.125 18284.7089844
	1337464008
	0.0#0.0#0.0
	0.000000
End Object
Start Object047
	39248.3515625 -100447.90625 18237.0722656
	1337464008
	0.0#0.0#0.0
	0.000000
End Object
Start Object048
	39379.1640625 -100544.203125 18224.6328125
	1337464008
	0.0#0.0#0.0
	0.000000
End Object
Start Object049
	39461.5585938 -100554.335938 18230.8398438
	1337464008
	0.0#0.0#0.0
	0.000000
End Object
Start Object050
	39406.4257813 -100797.390625 18183.7363281
	1337464008
	0.0#0.0#0.0
	0.000000
End Object
Start Object051
	40463.8867188 -103618.34375 17724.3242188
	1337464008
	0.0#0.0#0.0
	0.000000
End Object
Start Object052
	39931.7382813 -103556.117188 17697.4199219
	1337464008
	0.0#0.0#0.0
	0.000000
End Object
Start Object053
	39627.7304688 -102990.546875 17747.6386719
	1337464008
	0.0#0.0#0.0
	0.000000
End Object
Start Object054
	38368.7539063 -97929.1328125 18416.2226563
	1337464008
	0.0#0.0#0.0
	0.000000
End Object
Start Object055
	38206.4140625 -97406.3359375 18453.3574219
	1337464008
	0.0#0.0#0.0
	0.000000
End Object
Start Object056
	38331.84375 -97125.2890625 18469.3613281
	1337464008
	0.0#0.0#0.0
	0.000000
End Object
Start Object057
	38318.7695313 -100123.539063 18270.9785156
	1337464008
	0.0#0.0#0.0
	0.000000
End Object
Start Object058
	38119.3359375 -100148.96875 18257.96875
	1337464008
	0.0#0.0#0.0
	0.000000
End Object
Start Object059
	38733.0 -101709.945313 17922.1601563
	1337464008
	0.0#0.0#0.0
	0.000000
End Object
Start Object060
	39492.703125 -102014.859375 17909.3125
	1337464008
	0.0#0.0#0.0
	0.000000
End Object
Start Object061
	39842.3320313 -102149.671875 17950.34375
	1337464008
	0.0#0.0#0.0
	0.000000
End Object
Start Object062
	39958.1796875 -98290.015625 18298.3632813
	1337464008
	0.0#0.0#0.0
	0.000000
End Object
Start Object063
	39810.1875 -98705.25 18290.7617188
	1337464008
	0.0#0.0#0.0
	0.000000
End Object
Start Object064
	40069.421875 -98880.078125 18275.265625
	1337464008
	0.0#0.0#0.0
	0.000000
End Object
Start Object065
	39915.8046875 -97593.875 18384.375
	1337464008
	0.0#0.0#0.0
	0.000000
End Object
Start Object066
	39557.9765625 -97230.2421875 18436.7539063
	1337464008
	0.0#0.0#0.0
	0.000000
End Object
Start Object067
	39784.59375 -96972.6015625 18494.4003906
	1337464008
	0.0#0.0#0.0
	0.000000
End Object
Start Object068
	40291.296875 -96923.828125 18469.6328125
	1337464008
	0.0#0.0#0.0
	0.000000
End Object
Start Object069
	40832.890625 -97187.5234375 18417.2617188
	1337464008
	0.0#0.0#0.0
	0.000000
End Object
Start Object070
	41107.7382813 -97603.109375 18352.453125
	1337464008
	0.0#0.0#0.0
	0.000000
End Object
Start Object071
	40522.6992188 -98060.8125 18324.4394531
	1337464008
	0.0#0.0#0.0
	0.000000
End Object
Start Object072
	42646.7851563 -96103.9609375 18310.390625
	1337464008
	0.0#0.0#0.0
	0.000000
End Object
Start Object073
	43067.0625 -95815.15625 18280.5605469
	1337464008
	0.0#0.0#0.0
	0.000000
End Object
Start Object074
	42206.3984375 -96673.0859375 18331.0625
	1337464008
	0.0#0.0#0.0
	0.000000
End Object
Start Object075
	41844.8007813 -97161.46875 18337.2421875
	1337464008
	0.0#0.0#0.0
	0.000000
End Object
Start Object076
	42731.1835938 -98169.5234375 18202.3671875
	1337464008
	0.0#0.0#0.0
	0.000000
End Object
Start Object077
	41853.953125 -98582.359375 18246.7539063
	1337464008
	0.0#0.0#0.0
	0.000000
End Object
Start Object078
	42864.3710938 -98949.640625 18195.8125
	1337464008
	0.0#0.0#0.0
	0.000000
End Object
Start Object079
	44370.3203125 -98902.015625 18190.890625
	1337464008
	0.0#0.0#0.0
	0.000000
End Object
Start Object080
	45008.640625 -98747.484375 18160.9375
	1337464008
	0.0#0.0#0.0
	0.000000
End Object
Start Object081
	43838.6757813 -97208.390625 18183.1015625
	1337464008
	0.0#0.0#0.0
	0.000000
End Object
Start Object082
	44337.0585938 -96863.34375 18183.9277344
	1337464008
	0.0#0.0#0.0
	0.000000
End Object
Start Object083
	44385.4570313 -96194.9140625 18192.5390625
	1337464008
	0.0#0.0#0.0
	0.000000
End Object
Start Object084
	44813.9921875 -95440.828125 18186.1289063
	1337464008
	0.0#0.0#0.0
	0.000000
End Object
Start Object085
	44123.5273438 -96453.390625 18189.8476563
	1337464008
	0.0#0.0#0.0
	0.000000
End Object
Start Object086
	43957.8828125 -97430.3515625 18180.9921875
	1337464008
	0.0#0.0#0.0
	0.000000
End Object
Start Object087
	44218.8984375 -97670.5625 18181.9941406
	1337464008
	0.0#0.0#0.0
	0.000000
End Object
Start Object088
	43844.671875 -98309.515625 18183.1171875
	1337464008
	0.0#0.0#0.0
	0.000000
End Object
Start Object089
	42675.3789063 -97798.828125 18225.4980469
	1337464008
	0.0#0.0#0.0
	0.000000
End Object
Start Object090
	42574.640625 -97707.828125 18230.6699219
	1337464008
	0.0#0.0#0.0
	0.000000
End Object
Start Object091
	30338.7265625 -103549.007813 17256.609375
	1337464008
	0.0#0.0#0.0
	0.000000
End Object
Start Object092
	30329.2519531 -103681.726563 17264.8105469
	1337464008
	0.0#0.0#0.0
	0.000000
End Object
Start Object093
	30314.9921875 -102678.546875 17178.5839844
	1337464008
	0.0#0.0#0.0
	0.000000
End Object
Start Object094
	31128.2617188 -103130.664063 17171.171875
	1337464008
	0.0#0.0#0.0
	0.000000
End Object
Start Object095
	31186.6328125 -103712.296875 17220.0703125
	1337464008
	0.0#0.0#0.0
	0.000000
End Object
Start Object096
	29094.5351563 -103619.304688 17409.9394531
	1337464008
	0.0#0.0#0.0
	0.000000
End Object
Start Object097
	29107.2480469 -104425.65625 17427.3320313
	1337464008
	0.0#0.0#0.0
	0.000000
End Object
Start Object098
	29088.9804688 -104830.070313 17417.3710938
	1337464008
	0.0#0.0#0.0
	0.000000
End Object
Start Object099
	31151.2832031 -105621.46875 17302.5625
	1337464008
	0.0#0.0#0.0
	0.000000
End Object
Start Object100
	32157.4375 -107029.132813 17421.5234375
	1337464008
	0.0#0.0#0.0
	0.000000
End Object
Start Object101
	32421.1875 -107144.46875 17416.4882813
	1337464008
	0.0#0.0#0.0
	0.000000
End Object
Start Object102
	32028.5019531 -105880.445313 17364.4726563
	1337464008
	0.0#0.0#0.0
	0.000000
End Object
Start Object103
	29676.7597656 -108000.117188 17240.2363281
	1337464008
	0.0#0.0#0.0
	0.000000
End Object
Start Object104
	29999.1328125 -109477.296875 17229.2050781
	1337464008
	0.0#0.0#0.0
	0.000000
End Object
Start Object105
	30007.3808594 -109756.609375 17212.1503906
	1337464008
	0.0#0.0#0.0
	0.000000
End Object
Start Object106
	33092.6875 -108815.882813 17351.8554688
	1337464008
	0.0#0.0#0.0
	0.000000
End Object
Start Object107
	33281.390625 -109667.765625 17307.7539063
	1337464008
	0.0#0.0#0.0
	0.000000
End Object
Start Object108
	32948.921875 -109088.28125 17328.5761719
	1337464008
	0.0#0.0#0.0
	0.000000
End Object
Start Object109
	35554.703125 -108304.546875 17541.0097656
	1337464008
	0.0#0.0#0.0
	0.000000
End Object
Start Object110
	35803.7070313 -108619.289063 17550.1875
	1337464008
	0.0#0.0#0.0
	0.000000
End Object
Start Object111
	35273.3203125 -108330.710938 17518.078125
	1337464008
	0.0#0.0#0.0
	0.000000
End Object
Start Object112
	28805.7753906 -105783.882813 17292.6074219
	1337464008
	0.0#0.0#0.0
	0.000000
End Object
Start Object113
	28692.3203125 -105170.460938 17429.609375
	1337464008
	0.0#0.0#0.0
	0.000000
End Object
Start Object114
	28288.7617188 -105017.304688 17414.0390625
	1337464008
	0.0#0.0#0.0
	0.000000
End Object
Start Object115
	28511.1972656 -104852.648438 17458.3691406
	1337464008
	0.0#0.0#0.0
	0.000000
End Object
Start Object116
	34358.8476563 -108061.4375 17439.2382813
	1337464008
	0.0#0.0#0.0
	0.000000
End Object
Start Object117
	34016.7929688 -107777.9375 17438.9394531
	1337464008
	0.0#0.0#0.0
	0.000000
End Object
Start Object118
	32387.1035156 -114585.421875 17125.1210938
	1337464008
	0.0#0.0#0.0
	0.000000
End Object
Start Object119
	33280.8945313 -114929.96875 17126.984375
	1337464008
	0.0#0.0#0.0
	0.000000
End Object
Start Object120
	33377.6835938 -115021.84375 17129.25
	1337464008
	0.0#0.0#0.0
	0.000000
End Object
Start Object121
	33581.6171875 -115824.101563 17126.4921875
	1337464008
	0.0#0.0#0.0
	0.000000
End Object
Start Object122
	34216.7148438 -115480.210938 17129.7148438
	1337464008
	0.0#0.0#0.0
	0.000000
End Object
Start Object123
	34091.8046875 -113663.078125 17124.9941406
	1337464008
	0.0#0.0#0.0
	0.000000
End Object
Start Object124
	33266.9492188 -113640.132813 17129.7089844
	1337464008
	0.0#0.0#0.0
	0.000000
End Object
Start Object125
	32643.3984375 -113472.273438 17128.5546875
	1337464008
	0.0#0.0#0.0
	0.000000
End Object
Start Object126
	31958.4414063 -113187.265625 17097.8242188
	1337464008
	0.0#0.0#0.0
	0.000000
End Object
Start Object127
	33273.0234375 -113248.070313 17125.4921875
	1337464008
	0.0#0.0#0.0
	0.000000
End Object
Start Object128
	35428.9296875 -114293.65625 17188.3046875
	1337464008
	0.0#0.0#0.0
	0.000000
End Object
Start Object129
	34546.734375 -114325.710938 17126.2832031
	1337464008
	0.0#0.0#0.0
	0.000000
End Object
Start Object130
	36871.9453125 -114662.640625 17483.6015625
	1337464008
	0.0#0.0#0.0
	0.000000
End Object
Start Object131
	36881.2265625 -114405.921875 17435.6191406
	1337464008
	0.0#0.0#0.0
	0.000000
End Object
Start Object132
	36052.3046875 -114469.421875 17381.6777344
	1337464008
	0.0#0.0#0.0
	0.000000
End Object
Start Object133
	39342.2148438 -113526.992188 17925.7578125
	1337464008
	0.0#0.0#0.0
	0.000000
End Object
Start Object134
	39292.9609375 -113770.179688 17911.5351563
	1337464008
	0.0#0.0#0.0
	0.000000
End Object
Start Object135
	38375.5078125 -113942.070313 17851.5097656
	1337464008
	0.0#0.0#0.0
	0.000000
End Object
Start Object136
	38286.1835938 -114858.820313 17784.5859375
	1337464008
	0.0#0.0#0.0
	0.000000
End Object
Start Object137
	38335.0117188 -114996.367188 17791.9589844
	1337464008
	0.0#0.0#0.0
	0.000000
End Object
Start Object138
	43562.1640625 -113040.796875 18730.7480469
	1337464008
	0.0#0.0#0.0
	0.000000
End Object
Start Object139
	43142.5039063 -112438.390625 18617.6191406
	1337464008
	0.0#0.0#0.0
	0.000000
End Object
Start Object140
	42834.703125 -112681.710938 18567.7460938
	1337464008
	0.0#0.0#0.0
	0.000000
End Object
Start Object141
	42779.5273438 -113071.523438 18593.5117188
	1337464008
	0.0#0.0#0.0
	0.000000
End Object
Start Object142
	41944.265625 -113375.789063 18259.0351563
	1337464008
	0.0#0.0#0.0
	0.000000
End Object
Start Object143
	41749.9804688 -113236.390625 18215.9257813
	1337464008
	0.0#0.0#0.0
	0.000000
End Object
Start Object144
	41880.9023438 -115001.742188 18499.1914063
	1337464008
	0.0#0.0#0.0
	0.000000
End Object
Start Object145
	42086.3320313 -115461.976563 18595.6699219
	1337464008
	0.0#0.0#0.0
	0.000000
End Object
Start Object146
	42067.3789063 -115835.273438 18625.4023438
	1337464008
	0.0#0.0#0.0
	0.000000
End Object
Start Object147
	41606.375 -114989.03125 18382.96875
	1337464008
	0.0#0.0#0.0
	0.000000
End Object
Start Object148
	41510.3007813 -114726.328125 18222.8808594
	1337464008
	0.0#0.0#0.0
	0.000000
End Object
Start Object149
	41066.515625 -113956.328125 18043.9667969
	1337464008
	0.0#0.0#0.0
	0.000000
End Object
Start Object150
	43849.7617188 -111879.484375 18663.5722656
	1337464008
	0.0#0.0#0.0
	0.000000
End Object
Start Object151
	44200.5820313 -112258.710938 18742.3222656
	1337464008
	0.0#0.0#0.0
	0.000000
End Object
Start Object152
	45316.8632813 -112568.125 19152.5839844
	1337464008
	0.0#0.0#0.0
	0.000000
End Object
Start Object153
	45973.828125 -112620.523438 19422.5683594
	1337464008
	0.0#0.0#0.0
	0.000000
End Object
Start Object154
	46351.0429688 -112855.132813 19553.3164063
	1337464008
	0.0#0.0#0.0
	0.000000
End Object
Start Object155
	46185.1171875 -112344.40625 19481.4511719
	1337464008
	0.0#0.0#0.0
	0.000000
End Object
Start Object156
	45738.0390625 -112126.726563 19288.6757813
	1337464008
	0.0#0.0#0.0
	0.000000
End Object
Start Object157
	45655.9765625 -111696.296875 19215.7207031
	1337464008
	0.0#0.0#0.0
	0.000000
End Object
Start Object158
	45153.9453125 -113194.789063 19100.7773438
	1337464008
	0.0#0.0#0.0
	0.000000
End Object
Start Object159
	44881.3046875 -113056.5625 18983.6015625
	1337464008
	0.0#0.0#0.0
	0.000000
End Object
Start Object160
	44647.03125 -110962.726563 18655.8789063
	1337464008
	0.0#0.0#0.0
	0.000000
End Object
Start Object161
	44660.7734375 -110702.828125 18633.0234375
	1337464008
	0.0#0.0#0.0
	0.000000
End Object
Start Object162
	44267.4882813 -111219.023438 18628.3925781
	1337464008
	0.0#0.0#0.0
	0.000000
End Object
Start Object163
	45199.7617188 -111544.0 18936.8945313
	1337464008
	0.0#0.0#0.0
	0.000000
End Object
Start Object164
	46239.1953125 -108825.171875 18786.9355469
	1337464008
	0.0#0.0#0.0
	0.000000
End Object
Start Object165
	46462.6640625 -108102.5625 18776.2421875
	1337464008
	0.0#0.0#0.0
	0.000000
End Object
Start Object166
	46723.890625 -108091.96875 18822.0390625
	1337464008
	0.0#0.0#0.0
	0.000000
End Object
Start Object167
	47653.0 -108770.15625 19282.953125
	1337464008
	0.0#0.0#0.0
	0.000000
End Object
Start Object168
	47653.0 -108770.15625 19282.953125
	1337464008
	0.0#0.0#0.0
	0.000000
End Object
Start Object169
	48039.3007813 -109717.382813 19572.21875
	1337464008
	0.0#0.0#0.0
	0.000000
End Object
Start Object170
	48274.2734375 -110389.335938 19640.7734375
	1337464008
	0.0#0.0#0.0
	0.000000
End Object
Start Object171
	48631.65625 -109547.570313 19557.78125
	1337464008
	0.0#0.0#0.0
	0.000000
End Object
Start Object172
	48647.4882813 -108891.679688 19461.5722656
	1337464008
	0.0#0.0#0.0
	0.000000
End Object
Start Object173
	48176.078125 -108628.617188 19358.1035156
	1337464008
	0.0#0.0#0.0
	0.000000
End Object
Start Object174
	47552.9765625 -107602.75 18911.5546875
	1337464008
	0.0#0.0#0.0
	0.000000
End Object
Start Object175
	47294.2773438 -107373.976563 18835.8945313
	1337464008
	0.0#0.0#0.0
	0.000000
End Object
Start Object176
	49082.8007813 -107041.34375 19087.2382813
	1337464008
	0.0#0.0#0.0
	0.000000
End Object
Start Object177
	49723.8398438 -107021.984375 19141.8417969
	1337464008
	0.0#0.0#0.0
	0.000000
End Object
Start Object178
	50388.5078125 -107325.359375 19215.4335938
	1337464008
	0.0#0.0#0.0
	0.000000
End Object
Start Object179
	50807.9140625 -107616.695313 19295.1953125
	1337464008
	0.0#0.0#0.0
	0.000000
End Object
Start Object180
	50985.09375 -103380.84375 19346.8808594
	1337464007
	0.0#0.0#0.0
	0.000000
End Object
Start Object181
	51060.2421875 -103348.523438 19346.0019531
	1337464007
	0.0#0.0#0.0
	0.000000
End Object
Start Object182
	50587.3320313 -103559.398438 19349.8105469
	1337464007
	0.0#0.0#0.0
	0.000000
End Object
Start Object183
	51749.4335938 -103676.328125 19342.5136719
	1337464007
	0.0#0.0#0.0
	0.000000
End Object
Start Object184
	46775.203125 -103736.195313 19099.5605469
	1337464007
	0.0#0.0#0.0
	0.000000
End Object
Start Object185
	46195.4960938 -103444.460938 18991.5898438
	1337464007
	0.0#0.0#0.0
	0.000000
End Object
Start Object186
	46119.8242188 -102868.242188 19085.3359375
	1337464007
	0.0#0.0#0.0
	0.000000
End Object
ObjectCount 187