AreaDataFile

Start Object000
    58260.675781 -8791.948242 16383.500000
    807123463
    0.000000#0.000000#0.000000
    481.000000
End Object
Start Object001
    56993.714844 -8785.719727 16383.500000
    807123463
    0.000000#0.000000#0.000000
    481.000000
End Object
Start Object002
    55836.773438 -8778.058594 16383.500000
    807123463
    0.000000#0.000000#0.000000
    481.000000
End Object
Start Object003
    54322.890625 -8778.168945 16383.500000
    807123463
    0.000000#0.000000#0.000000
    481.000000
End Object
Start Object004
    53097.554688 -8783.158203 16383.500000
    807123463
    0.000000#0.000000#0.000000
    481.000000
End Object
Start Object005
    51934.773438 -8780.765625 16383.500000
    807123463
    0.000000#0.000000#0.000000
    481.000000
End Object
Start Object006
    68113.937500 -11034.896484 16383.500000
    807123463
    0.000000#0.000000#0.000000
    481.000000
End Object
Start Object007
    62687.378906 -14425.083984 16383.500000
    807123463
    0.000000#0.000000#0.000000
    481.000000
End Object
Start Object008
    65064.343750 -14421.293945 16383.500000
    807123463
    0.000000#0.000000#0.000000
    481.000000
End Object
Start Object009
    68217.960938 -17562.412109 16383.500000
    807123463
    0.000000#0.000000#0.000000
    481.000000
End Object
Start Object010
    69726.875000 -17567.392578 16383.500000
    807123463
    0.000000#0.000000#0.000000
    481.000000
End Object
Start Object011
    70894.640625 -17558.312500 16383.500000
    807123463
    0.000000#0.000000#0.000000
    481.000000
End Object
Start Object012
    72156.140625 -17560.343750 16383.500000
    807123463
    0.000000#0.000000#0.000000
    481.000000
End Object
Start Object013
    73301.851563 -17548.085938 16383.500000
    807123463
    0.000000#0.000000#0.000000
    481.000000
End Object
Start Object014
    73312.046875 -19936.957031 16383.500000
    807123463
    0.000000#0.000000#0.000000
    481.000000
End Object
Start Object015
    72155.742188 -19936.904297 16383.500000
    807123463
    0.000000#0.000000#0.000000
    481.000000
End Object
Start Object016
    70871.210938 -19935.039063 16383.500000
    807123463
    0.000000#0.000000#0.000000
    481.000000
End Object
Start Object017
    69726.859375 -19947.056641 16383.500000
    807123463
    0.000000#0.000000#0.000000
    481.000000
End Object
Start Object018
    68211.218750 -19928.203125 16383.500000
    807123463
    0.000000#0.000000#0.000000
    481.000000
End Object
Start Object019
    62801.281250 -23136.708984 16383.500000
    807123463
    0.000000#0.000000#0.000000
    481.000000
End Object
Start Object020
    62790.765625 -24304.486328 16383.500000
    807123463
    0.000000#0.000000#0.000000
    481.000000
End Object
Start Object021
    75616.789063 -22371.105469 16383.500000
    807123463
    0.000000#0.000000#270.000000
    338.000000
End Object
Start Object022
    74164.601563 -20908.701172 16383.500000
    807123463
    0.000000#0.000000#270.000000
    338.000000
End Object
Start Object023
    74163.835938 -16688.876953 16383.500000
    807123463
    0.000000#0.000000#270.000000
    338.000000
End Object
Start Object024
    75632.695313 -15234.824219 16383.500000
    807123463
    0.000000#0.000000#270.000000
    338.000000
End Object
Start Object025
    67417.843750 -12060.121094 16383.500000
    807123463
    0.000000#0.000000#0.000000
    349.000000
End Object
Start Object026
    65971.726563 -13507.646484 16383.500000
    807123463
    0.000000#0.000000#0.000000
    349.000000
End Object
Start Object027
    61786.128906 -13507.666992 16383.500000
    807123463
    0.000000#0.000000#0.000000
    349.000000
End Object
Start Object028
    60349.441406 -12054.792969 16383.500000
    807123463
    0.000000#0.000000#0.000000
    349.000000
End Object
Start Object029
    60345.468750 -7865.979492 16383.500000
    807123463
    0.000000#0.000000#0.000000
    349.000000
End Object
Start Object030
    61791.515625 -6421.774414 16383.500000
    807123463
    0.000000#0.000000#0.000000
    349.000000
End Object
Start Object031
    63879.097656 -6420.228516 16383.500000
    807123463
    0.000000#0.000000#0.000000
    349.000000
End Object
Start Object032
    65985.695313 -6432.570313 16383.500000
    807123463
    0.000000#0.000000#0.000000
    349.000000
End Object
Start Object033
    67414.515625 -7874.244141 16383.500000
    807123463
    0.000000#0.000000#0.000000
    349.000000
End Object
Start Object034
    61858.960938 -22343.087891 16383.500000
    807123463
    0.000000#0.000000#0.000000
    490.000000
End Object
Start Object035
    66139.914063 -22331.093750 16383.500000
    807123463
    0.000000#0.000000#0.000000
    490.000000
End Object
Start Object036
    67529.179688 -20868.640625 16383.500000
    807123463
    0.000000#0.000000#0.000000
    490.000000
End Object
Start Object037
    67528.585938 -16640.824219 16383.500000
    807123463
    0.000000#0.000000#0.000000
    490.000000
End Object
Start Object038
    66045.968750 -15198.222656 16383.500000
    807123463
    0.000000#0.000000#0.000000
    490.000000
End Object
Start Object039
    61856.015625 -15202.552734 16383.500000
    807123463
    0.000000#0.000000#0.000000
    490.000000
End Object
Start Object040
    60414.859375 -16640.373047 16383.500000
    807123463
    0.000000#0.000000#0.000000
    490.000000
End Object
Start Object041
    60414.183594 -20859.093750 16383.500000
    807123463
    0.000000#0.000000#0.000000
    490.000000
End Object
Start Object042
    55825.109375 -11175.067383 16383.500000
    807123463
    0.000000#0.000000#0.000000
    481.000000
End Object
Start Object043
    54324.554688 -11170.373047 16383.500000
    807123463
    0.000000#0.000000#0.000000
    481.000000
End Object
Start Object044
    59421.933594 -8771.112305 16383.500000
    807123463
    0.000000#0.000000#0.000000
    481.000000
End Object
Start Object045
    70786.835938 -8665.811523 16383.500000
    807123463
    0.000000#0.000000#0.000000
    481.000000
End Object
Start Object046
    72058.046875 -8651.738281 16383.500000
    807123463
    0.000000#0.000000#0.000000
    481.000000
End Object
Start Object047
    73214.390625 -8654.115234 16383.500000
    807123463
    0.000000#0.000000#0.000000
    481.000000
End Object
Start Object048
    74455.046875 -8636.190430 16383.500000
    807123463
    0.000000#0.000000#0.000000
    481.000000
End Object
Start Object049
    75956.828125 -8639.037109 16383.500000
    807123463
    0.000000#0.000000#0.000000
    481.000000
End Object
Start Object050
    75951.875000 -11033.995117 16383.500000
    807123463
    0.000000#0.000000#0.000000
    481.000000
End Object
Start Object051
    74447.101563 -11027.151367 16383.500000
    807123463
    0.000000#0.000000#0.000000
    481.000000
End Object
Start Object052
    53025.582031 -22303.113281 16383.500000
    807123463
    0.000000#0.000000#0.000000
    357.000000
End Object
Start Object053
    59772.312500 -19957.968750 16383.500000
    807123463
    0.000000#0.000000#0.000000
    481.000000
End Object
Start Object054
    76569.195313 -24263.693359 16383.500000
    807123463
    0.000000#0.000000#0.000000
    481.000000
End Object
Start Object055
    54461.421875 -20861.609375 16383.500000
    807123463
    0.000000#0.000000#0.000000
    357.000000
End Object
Start Object056
    54476.265625 -16668.371094 16383.500000
    807123463
    0.000000#0.000000#0.000000
    357.000000
End Object
Start Object057
    53029.191406 -15231.098633 16383.500000
    807123463
    0.000000#0.000000#0.000000
    357.000000
End Object
Start Object058
    68113.398438 -8649.946289 16383.500000
    807123463
    0.000000#0.000000#0.000000
    481.000000
End Object
Start Object059
    76578.882813 -23217.259766 16383.500000
    807123463
    0.000000#0.000000#0.000000
    481.000000
End Object
Start Object060
    65187.792969 -23154.785156 16383.500000
    807123463
    0.000000#0.000000#0.000000
    481.000000
End Object
Start Object061
    65175.316406 -24309.128906 16383.500000
    807123463
    0.000000#0.000000#0.000000
    481.000000
End Object
Start Object062
    65177.742188 -25564.845703 16383.500000
    807123463
    0.000000#0.000000#0.000000
    481.000000
End Object
Start Object063
    62801.546875 -25579.380859 16383.500000
    807123463
    0.000000#0.000000#0.000000
    481.000000
End Object
Start Object064
    51931.699219 -11169.932617 16383.500000
    807123463
    0.000000#0.000000#0.000000
    481.000000
End Object
Start Object065
    53090.273438 -11168.829102 16383.500000
    807123463
    0.000000#0.000000#0.000000
    481.000000
End Object
Start Object066
    55424.304688 -19945.107422 16383.500000
    807123463
    0.000000#0.000000#0.000000
    481.000000
End Object
Start Object067
    55411.855469 -17561.816406 16383.500000
    807123463
    0.000000#0.000000#0.000000
    481.000000
End Object
Start Object068
    55927.113281 -17555.724609 16383.500000
    807123463
    0.000000#0.000000#0.000000
    481.000000
End Object
Start Object069
    57168.191406 -17549.099609 16383.500000
    807123463
    0.000000#0.000000#0.000000
    481.000000
End Object
Start Object070
    58252.710938 -17554.423828 16383.500000
    807123463
    0.000000#0.000000#0.000000
    481.000000
End Object
Start Object071
    59767.437500 -17567.746094 16383.500000
    807123463
    0.000000#0.000000#0.000000
    481.000000
End Object
Start Object072
    56989.871094 -11168.214844 16383.500000
    807123463
    0.000000#0.000000#0.000000
    481.000000
End Object
Start Object073
    58262.949219 -11169.520508 16383.500000
    807123463
    0.000000#0.000000#0.000000
    481.000000
End Object
Start Object074
    69628.007813 -8659.746094 16383.500000
    807123463
    0.000000#0.000000#0.000000
    481.000000
End Object
Start Object075
    52179.410156 -24541.554688 16383.500000
    807123463
    0.000000#0.000000#0.000000
    481.000000
End Object
Start Object076
    52203.992188 -23045.068359 16383.500000
    807123463
    0.000000#0.000000#0.000000
    481.000000
End Object
Start Object077
    73212.804688 -11037.215820 16383.500000
    807123463
    0.000000#0.000000#0.000000
    481.000000
End Object
Start Object078
    72052.375000 -11044.714844 16383.500000
    807123463
    0.000000#0.000000#0.000000
    481.000000
End Object
Start Object079
    59421.250000 -11166.410156 16383.500000
    807123463
    0.000000#0.000000#0.000000
    481.000000
End Object
Start Object080
    58260.207031 -19938.884766 16383.500000
    807123463
    0.000000#0.000000#0.000000
    481.000000
End Object
Start Object081
    57152.144531 -19939.474609 16383.500000
    807123463
    0.000000#0.000000#0.000000
    481.000000
End Object
Start Object082
    55927.105469 -19931.605469 16383.500000
    807123463
    0.000000#0.000000#0.000000
    481.000000
End Object
Start Object083
    70780.140625 -11035.750977 16383.500000
    807123463
    0.000000#0.000000#0.000000
    481.000000
End Object
Start Object084
    69624.835938 -11038.491211 16383.500000
    807123463
    0.000000#0.000000#0.000000
    481.000000
End Object
Start Object085
    55820.000000 -18740.000000 16383.500000
    2847936845
    0.000000#0.000000#90.000000
    0.000000
End Object
Start Object086
    55320.000000 -18740.000000 16383.500000
    2847936845
    0.000000#0.000000#90.000000
    0.000000
End Object
Start Object087
    63880.000000 -14320.000000 16383.500000
    2847936845
    0.000000#0.000000#0.000000
    0.000000
End Object
Start Object088
    57060.000000 -18740.000000 16383.500000
    2847936845
    0.000000#0.000000#90.000000
    0.000000
End Object
Start Object089
    58980.000000 -18740.000000 16383.500000
    3322686878
    0.000000#0.000000#90.000000
    0.000000
End Object
Start Object090
    70910.000000 -18750.000000 16383.500000
    3453634549
    0.000000#0.000000#270.000000
    0.000000
End Object
Start Object091
    70810.000000 -9850.000000 16383.500000
    3453634549
    0.000000#0.000000#270.000000
    0.000000
End Object
Start Object092
    64000.000000 -25550.000000 16383.500000
    3453634549
    0.000000#0.000000#0.000000
    0.000000
End Object
Start Object093
    57020.000000 -9980.000000 16383.500000
    3453634549
    0.000000#0.000000#270.000000
    0.000000
End Object
Start Object094
    63970.000000 -18760.000000 16383.500000
    3740805795
    0.000000#0.000000#0.000000
    0.000000
End Object
Start Object095
    52138.109375 -22121.564453 16383.500000
    3982077190
    0.000000#0.000000#0.000000
    1504.000000
End Object
Start Object096
    54282.214844 -19960.083984 16383.500000
    3982077190
    0.000000#0.000000#0.000000
    1504.000000
End Object
Start Object097
    65086.011719 -13306.858398 16383.500000
    3982077190
    0.000000#0.000000#0.000000
    1529.000000
End Object
Start Object098
    62688.625000 -13303.492188 16383.500000
    3982077190
    0.000000#0.000000#0.000000
    1529.000000
End Object
Start Object099
    60528.125000 -11160.284180 16383.500000
    3982077190
    0.000000#0.000000#0.000000
    1529.000000
End Object
Start Object100
    60548.984375 -8769.761719 16383.500000
    3982077190
    0.000000#0.000000#0.000000
    1529.000000
End Object
Start Object101
    62688.453125 -6628.702637 16383.500000
    3982077190
    0.000000#0.000000#0.000000
    1529.000000
End Object
Start Object102
    65091.531250 -6630.400879 16383.500000
    3982077190
    0.000000#0.000000#0.000000
    1529.000000
End Object
Start Object103
    67219.328125 -8765.766602 16383.500000
    3982077190
    0.000000#0.000000#0.000000
    1529.000000
End Object
Start Object104
    67217.382813 -11165.818359 16383.500000
    3982077190
    0.000000#0.000000#0.000000
    1529.000000
End Object
Start Object105
    67358.726563 -19970.441406 16383.500000
    3982077190
    0.000000#0.000000#0.000000
    1673.000000
End Object
Start Object106
    67339.398438 -17561.654297 16383.500000
    3982077190
    0.000000#0.000000#0.000000
    1673.000000
End Object
Start Object107
    65173.789063 -15385.417969 16383.500000
    3982077190
    0.000000#0.000000#0.000000
    1673.000000
End Object
Start Object108
    62767.015625 -15387.202148 16383.500000
    3982077190
    0.000000#0.000000#0.000000
    1673.000000
End Object
Start Object109
    60589.125000 -17552.869141 16383.500000
    3982077190
    0.000000#0.000000#0.000000
    1673.000000
End Object
Start Object110
    60593.347656 -19960.425781 16383.500000
    3982077190
    0.000000#0.000000#0.000000
    1673.000000
End Object
Start Object111
    62763.910156 -22144.927734 16383.500000
    3982077190
    0.000000#0.000000#0.000000
    1673.000000
End Object
Start Object112
    65170.351563 -22128.773438 16383.500000
    3982077190
    0.000000#0.000000#0.000000
    1673.000000
End Object
Start Object113
    52131.328125 -15426.698242 16383.500000
    3982077190
    0.000000#0.000000#0.000000
    1504.000000
End Object
Start Object114
    54275.085938 -17562.501953 16383.500000
    3982077190
    0.000000#0.000000#0.000000
    1504.000000
End Object
Start Object115
    76515.046875 -15442.414063 16383.500000
    3982077190
    0.000000#0.000000#270.000000
    1515.000000
End Object
Start Object116
    76537.242188 -22154.986328 16383.500000
    3982077190
    0.000000#0.000000#270.000000
    1515.000000
End Object
Start Object117
    74368.398438 -20023.570313 16383.500000
    3982077190
    0.000000#0.000000#270.000000
    1515.000000
End Object
Start Object118
    74355.687500 -17591.480469 16383.500000
    3982077190
    0.000000#0.000000#270.000000
    1515.000000
End Object
Start Object119
    63890.000000 -9960.000000 16383.500000
    4180790606
    0.000000#0.000000#0.000000
    0.000000
End Object

ObjectCount 120
