AreaDataFile

Start Object000
    98500.000000 -68000.000000 19619.500000
    93804060
    0.000000#0.000000#270.000000
    0.000000
End Object
Start Object001
    83500.000000 -68000.000000 19619.500000
    93804060
    0.000000#0.000000#270.000000
    0.000000
End Object
Start Object002
    98500.000000 -57000.000000 19025.000000
    93804060
    0.000000#0.000000#270.000000
    0.000000
End Object
Start Object003
    83500.000000 -57000.000000 19025.000000
    93804060
    0.000000#0.000000#270.000000
    0.000000
End Object
Start Object004
    98500.000000 -61000.000000 19025.000000
    93804060
    0.000000#0.000000#270.000000
    0.000000
End Object
Start Object005
    83500.000000 -61000.000000 19025.000000
    93804060
    0.000000#0.000000#270.000000
    0.000000
End Object
Start Object006
    83500.000000 -64000.000000 19619.500000
    93804060
    0.000000#0.000000#270.000000
    0.000000
End Object
Start Object007
    98500.000000 -64000.000000 19619.500000
    93804060
    0.000000#0.000000#270.000000
    0.000000
End Object
Start Object008
    92384.507813 -68709.007813 19619.500000
    943480121
    0.000000#0.000000#270.000000
    -35.000000
End Object
Start Object009
    89692.460938 -68761.039063 19619.500000
    943480121
    0.000000#0.000000#270.000000
    -35.000000
End Object
Start Object010
    89696.664063 -66881.148438 19619.500000
    943480121
    0.000000#0.000000#270.000000
    -35.000000
End Object
Start Object011
    92433.601563 -66927.453125 19619.500000
    943480121
    0.000000#0.000000#270.000000
    -35.000000
End Object
Start Object012
    92461.460938 -64822.812500 19617.894531
    943480121
    0.000000#0.000000#270.000000
    -35.000000
End Object
Start Object013
    89760.421875 -64805.003906 19619.500000
    943480121
    0.000000#0.000000#270.000000
    -35.000000
End Object
Start Object014
    89695.625000 -61360.851563 19025.000000
    943480121
    0.000000#0.000000#270.000000
    -35.000000
End Object
Start Object015
    89684.710938 -59368.527344 19025.000000
    943480121
    0.000000#0.000000#270.000000
    -35.000000
End Object
Start Object016
    89638.406250 -57369.566406 19025.000000
    943480121
    0.000000#0.000000#270.000000
    -35.000000
End Object
Start Object017
    92494.015625 -57315.542969 19025.000000
    943480121
    0.000000#0.000000#270.000000
    -35.000000
End Object
Start Object018
    92399.484375 -59319.191406 19025.000000
    943480121
    0.000000#0.000000#270.000000
    -35.000000
End Object
Start Object019
    92416.695313 -61425.558594 19025.000000
    943480121
    0.000000#0.000000#270.000000
    -35.000000
End Object
Start Object020
    97182.710938 -61285.062500 19025.000000
    1353164984
    0.000000#0.000000#270.000000
    -35.000000
End Object
Start Object021
    84763.093750 -57483.531250 19025.000000
    1353164984
    0.000000#0.000000#270.000000
    -35.000000
End Object
Start Object022
    84788.234375 -67172.218750 19619.500000
    1353164984
    0.000000#0.000000#270.000000
    -35.000000
End Object
Start Object023
    97026.945313 -71072.648438 20226.000000
    1353164984
    0.000000#0.000000#270.000000
    -35.000000
End Object
Start Object024
    87972.476563 -70902.453125 20226.000000
    1353164984
    0.000000#0.000000#270.000000
    -35.000000
End Object
Start Object025
    97088.656250 -68847.218750 19619.500000
    2399205967
    0.000000#0.000000#270.000000
    -35.000000
End Object
Start Object026
    84947.843750 -64953.203125 19619.500000
    2399205967
    0.000000#0.000000#270.000000
    -35.000000
End Object
Start Object027
    85009.687500 -61360.882813 19025.000000
    2399205967
    0.000000#0.000000#270.000000
    -35.000000
End Object
Start Object028
    97020.320313 -59166.898438 19025.000000
    2399205967
    0.000000#0.000000#270.000000
    -35.000000
End Object
Start Object029
    95299.976563 -71103.820313 20226.000000
    2399205967
    0.000000#0.000000#270.000000
    -35.000000
End Object
Start Object030
    90300.000000 -74900.000000 20817.000000
    3367756539
    0.000000#0.000000#180.000000
    0.000000
End Object
Start Object031
    91700.000000 -74900.000000 20827.000000
    3367756539
    0.000000#0.000000#180.000000
    0.000000
End Object
Start Object032
    90300.000000 -71000.000000 20226.000000
    3367756539
    0.000000#0.000000#180.000000
    0.000000
End Object
Start Object033
    91700.000000 -54000.000000 18996.500000
    3367756539
    0.000000#0.000000#180.000000
    0.000000
End Object
Start Object034
    90300.000000 -54000.000000 19000.500000
    3367756539
    0.000000#0.000000#180.000000
    0.000000
End Object
Start Object035
    91700.000000 -63000.000000 19615.250000
    3367756539
    0.000000#0.000000#180.000000
    0.000000
End Object
Start Object036
    90300.000000 -63000.000000 19619.500000
    3367756539
    0.000000#0.000000#180.000000
    0.000000
End Object
Start Object037
    91700.000000 -71000.000000 20226.000000
    3367756539
    0.000000#0.000000#180.000000
    0.000000
End Object
Start Object038
    86203.375000 -70985.726563 20226.000000
    3455398876
    0.000000#0.000000#270.000000
    -35.000000
End Object
Start Object039
    97124.312500 -67107.789063 19619.500000
    3455398876
    0.000000#0.000000#270.000000
    -35.000000
End Object
Start Object040
    96000.000000 -72500.000000 20226.000000
    3686638315
    0.000000#0.000000#0.000000
    0.000000
End Object
Start Object041
    86000.000000 -72500.000000 20226.000000
    3686638315
    0.000000#0.000000#180.000000
    0.000000
End Object
Start Object042
    88000.000000 -55500.000000 19025.000000
    3686638315
    0.000000#0.000000#180.000000
    0.000000
End Object
Start Object043
    95000.000000 -55500.000000 19025.000000
    3686638315
    0.000000#0.000000#180.000000
    0.000000
End Object
Start Object044
    83500.000000 -67000.000000 19619.500000
    3686638315
    0.000000#0.000000#270.000000
    0.000000
End Object
Start Object045
    98500.000000 -67000.000000 19619.500000
    3686638315
    0.000000#0.000000#270.000000
    0.000000
End Object
Start Object046
    98500.000000 -60000.000000 19025.000000
    3686638315
    0.000000#0.000000#270.000000
    0.000000
End Object
Start Object047
    83500.000000 -60000.000000 19025.000000
    3686638315
    0.000000#0.000000#270.000000
    0.000000
End Object
Start Object048
    97148.367188 -57478.640625 19025.000000
    3689520799
    0.000000#0.000000#270.000000
    -35.000000
End Object
Start Object049
    85062.078125 -59382.554688 19025.000000
    3689520799
    0.000000#0.000000#270.000000
    -35.000000
End Object
Start Object050
    84930.984375 -68886.570313 19619.500000
    3689520799
    0.000000#0.000000#270.000000
    -35.000000
End Object
Start Object051
    97063.859375 -64999.460938 19619.500000
    3689520799
    0.000000#0.000000#270.000000
    -35.000000
End Object
Start Object052
    84745.718750 -71161.398438 20226.000000
    3689520799
    0.000000#0.000000#270.000000
    -35.000000
End Object
Start Object053
    93613.125000 -71103.695313 20226.000000
    3689520799
    0.000000#0.000000#270.000000
    -35.000000
End Object
Start Object054
    91000.000000 -69400.000000 19619.500000
    3837606153
    0.000000#0.000000#180.000000
    0.000000
End Object
Start Object055
    91000.000000 -61400.000000 19025.000000
    3837606153
    0.000000#0.000000#180.000000
    0.000000
End Object
Start Object056
    91000.000000 -52600.000000 18417.500000
    3837606153
    0.000000#0.000000#180.000000
    0.000000
End Object
Start Object057
    91000.000000 -73400.000000 20226.000000
    3837606153
    0.000000#0.000000#180.000000
    0.000000
End Object
Start Object058
    87000.000000 -55500.000000 19025.000000
    3899215216
    0.000000#0.000000#180.000000
    0.000000
End Object
Start Object059
    95000.000000 -55500.000000 19025.000000
    3899215216
    0.000000#0.000000#0.000000
    0.000000
End Object
Start Object060
    94000.000000 -72500.000000 20226.000000
    3899215216
    0.000000#0.000000#0.000000
    0.000000
End Object
Start Object061
    88000.000000 -72500.000000 20226.000000
    3899215216
    0.000000#0.000000#180.000000
    0.000000
End Object
Start Object062
    91000.000000 -76400.000000 20827.000000
    4095860535
    0.000000#0.000000#180.000000
    0.000000
End Object
Start Object063
    91000.000000 -72500.000000 20226.000000
    4095860535
    0.000000#0.000000#0.000000
    0.000000
End Object
Start Object064
    91000.000000 -55500.000000 19025.000000
    4095860535
    0.000000#0.000000#180.000000
    0.000000
End Object
Start Object065
    85000.000000 -72500.000000 20226.000000
    4147623174
    0.000000#0.000000#180.000000
    0.000000
End Object
Start Object066
    83500.000000 -57000.000000 19025.000000
    4147623174
    0.000000#0.000000#90.000000
    0.000000
End Object
Start Object067
    97000.000000 -55500.000000 19025.000000
    4147623174
    0.000000#0.000000#0.000000
    0.000000
End Object
Start Object068
    98500.000000 -71000.000000 20226.000000
    4147623174
    0.000000#0.000000#270.000000
    0.000000
End Object
Start Object069
    94000.000000 -76400.000000 20827.000000
    4147623174
    0.000000#0.000000#0.000000
    0.000000
End Object

ObjectCount 70
