AreaDataFile

Start Object000
    142319.046875 -101380.835938 16383.500000
    807123463
    0.000000#0.000000#0.000000
    348.000000
End Object
Start Object001
    143219.828125 -76822.179688 16383.500000
    807123463
    0.000000#0.000000#0.000000
    475.000000
End Object
Start Object002
    143231.890625 -77984.804688 16383.500000
    807123463
    0.000000#0.000000#0.000000
    475.000000
End Object
Start Object003
    143217.921875 -79258.062500 16383.500000
    807123463
    0.000000#0.000000#0.000000
    475.000000
End Object
Start Object004
    143223.109375 -80419.328125 16383.500000
    807123463
    0.000000#0.000000#0.000000
    475.000000
End Object
Start Object005
    143216.578125 -81917.617188 16383.500000
    807123463
    0.000000#0.000000#0.000000
    475.000000
End Object
Start Object006
    143237.328125 -96940.468750 16383.500000
    807123463
    0.000000#0.000000#0.000000
    475.000000
End Object
Start Object007
    143236.265625 -98209.304688 16383.500000
    807123463
    0.000000#0.000000#0.000000
    475.000000
End Object
Start Object008
    143232.750000 -99368.304688 16383.500000
    807123463
    0.000000#0.000000#0.000000
    475.000000
End Object
Start Object009
    143232.937500 -100868.531250 16383.500000
    807123463
    0.000000#0.000000#0.000000
    475.000000
End Object
Start Object010
    145618.531250 -100868.304688 16383.500000
    807123463
    0.000000#0.000000#0.000000
    475.000000
End Object
Start Object011
    145620.531250 -99368.015625 16383.500000
    807123463
    0.000000#0.000000#0.000000
    475.000000
End Object
Start Object012
    145622.343750 -98209.546875 16383.500000
    807123463
    0.000000#0.000000#0.000000
    475.000000
End Object
Start Object013
    145615.781250 -96935.296875 16383.500000
    807123463
    0.000000#0.000000#0.000000
    475.000000
End Object
Start Object014
    145617.593750 -95784.781250 16383.500000
    807123463
    0.000000#0.000000#0.000000
    475.000000
End Object
Start Object015
    129606.625000 -89083.000000 16383.500000
    807123463
    0.000000#0.000000#0.000000
    340.000000
End Object
Start Object016
    132014.296875 -95620.960938 16383.500000
    807123463
    0.000000#0.000000#0.000000
    469.000000
End Object
Start Object017
    131055.171875 -87646.203125 16383.500000
    807123463
    0.000000#0.000000#0.000000
    340.000000
End Object
Start Object018
    143227.937500 -95782.171875 16383.500000
    807123463
    0.000000#0.000000#0.000000
    475.000000
End Object
Start Object019
    143221.171875 -94548.898438 16383.500000
    807123463
    0.000000#0.000000#0.000000
    475.000000
End Object
Start Object020
    143219.500000 -93053.812500 16383.500000
    807123463
    0.000000#0.000000#0.000000
    475.000000
End Object
Start Object021
    134324.500000 -84302.734375 16383.500000
    807123463
    0.000000#0.000000#0.000000
    471.000000
End Object
Start Object022
    134319.484375 -83220.875000 16383.500000
    807123463
    0.000000#0.000000#0.000000
    471.000000
End Object
Start Object023
    134321.843750 -81717.882813 16383.500000
    807123463
    0.000000#0.000000#0.000000
    471.000000
End Object
Start Object024
    134327.078125 -80557.265625 16383.500000
    807123463
    0.000000#0.000000#0.000000
    471.000000
End Object
Start Object025
    134326.046875 -79285.859375 16383.500000
    807123463
    0.000000#0.000000#0.000000
    471.000000
End Object
Start Object026
    134319.609375 -78123.742188 16383.500000
    807123463
    0.000000#0.000000#0.000000
    471.000000
End Object
Start Object027
    134320.375000 -76889.757813 16383.500000
    807123463
    0.000000#0.000000#0.000000
    471.000000
End Object
Start Object028
    145612.000000 -91898.062500 16383.500000
    807123463
    0.000000#0.000000#0.000000
    475.000000
End Object
Start Object029
    145619.593750 -88227.875000 16383.500000
    807123463
    0.000000#0.000000#0.000000
    475.000000
End Object
Start Object030
    129057.835938 -92409.828125 16383.500000
    807123463
    0.000000#0.000000#0.000000
    473.000000
End Object
Start Object031
    129067.765625 -90013.914063 16383.500000
    807123463
    0.000000#0.000000#0.000000
    473.000000
End Object
Start Object032
    134327.468750 -85672.726563 16383.500000
    807123463
    0.000000#0.000000#0.000000
    471.000000
End Object
Start Object033
    134322.281250 -85816.476563 16383.500000
    807123463
    0.000000#0.000000#0.000000
    471.000000
End Object
Start Object034
    145625.984375 -86721.757813 16383.500000
    807123463
    0.000000#0.000000#0.000000
    475.000000
End Object
Start Object035
    145618.921875 -85561.500000 16383.500000
    807123463
    0.000000#0.000000#0.000000
    475.000000
End Object
Start Object036
    145619.703125 -84294.046875 16383.500000
    807123463
    0.000000#0.000000#0.000000
    475.000000
End Object
Start Object037
    145620.843750 -83142.351563 16383.500000
    807123463
    0.000000#0.000000#0.000000
    475.000000
End Object
Start Object038
    145607.578125 -81927.351563 16383.500000
    807123463
    0.000000#0.000000#0.000000
    475.000000
End Object
Start Object039
    145609.156250 -80423.960938 16383.500000
    807123463
    0.000000#0.000000#0.000000
    475.000000
End Object
Start Object040
    145612.265625 -94557.835938 16383.500000
    807123463
    0.000000#0.000000#0.000000
    475.000000
End Object
Start Object041
    131149.703125 -101321.117188 16383.500000
    807123463
    0.000000#0.000000#0.000000
    341.000000
End Object
Start Object042
    146512.656250 -101391.046875 16383.500000
    807123463
    0.000000#0.000000#0.000000
    348.000000
End Object
Start Object043
    145613.406250 -76823.843750 16383.500000
    807123463
    0.000000#0.000000#0.000000
    475.000000
End Object
Start Object044
    145617.640625 -77979.734375 16383.500000
    807123463
    0.000000#0.000000#0.000000
    475.000000
End Object
Start Object045
    145610.046875 -79255.804688 16383.500000
    807123463
    0.000000#0.000000#0.000000
    475.000000
End Object
Start Object046
    145608.343750 -93053.593750 16383.500000
    807123463
    0.000000#0.000000#0.000000
    475.000000
End Object
Start Object047
    131924.359375 -85816.031250 16383.500000
    807123463
    0.000000#0.000000#0.000000
    471.000000
End Object
Start Object048
    131925.625000 -85666.320313 16383.500000
    807123463
    0.000000#0.000000#0.000000
    471.000000
End Object
Start Object049
    131925.828125 -84306.226563 16383.500000
    807123463
    0.000000#0.000000#0.000000
    471.000000
End Object
Start Object050
    131924.906250 -83222.429688 16383.500000
    807123463
    0.000000#0.000000#0.000000
    471.000000
End Object
Start Object051
    131927.062500 -81714.187500 16383.500000
    807123463
    0.000000#0.000000#0.000000
    471.000000
End Object
Start Object052
    131930.781250 -80554.257813 16383.500000
    807123463
    0.000000#0.000000#0.000000
    471.000000
End Object
Start Object053
    131927.421875 -79286.976563 16383.500000
    807123463
    0.000000#0.000000#0.000000
    471.000000
End Object
Start Object054
    131926.125000 -78126.250000 16383.500000
    807123463
    0.000000#0.000000#0.000000
    471.000000
End Object
Start Object055
    131923.140625 -76888.367188 16383.500000
    807123463
    0.000000#0.000000#0.000000
    471.000000
End Object
Start Object056
    143233.359375 -83128.367188 16383.500000
    807123463
    0.000000#0.000000#0.000000
    475.000000
End Object
Start Object057
    143230.390625 -84295.726563 16383.500000
    807123463
    0.000000#0.000000#0.000000
    475.000000
End Object
Start Object058
    143233.140625 -85573.804688 16383.500000
    807123463
    0.000000#0.000000#0.000000
    475.000000
End Object
Start Object059
    143231.640625 -86729.226563 16383.500000
    807123463
    0.000000#0.000000#0.000000
    475.000000
End Object
Start Object060
    143238.093750 -88230.757813 16383.500000
    807123463
    0.000000#0.000000#0.000000
    475.000000
End Object
Start Object061
    143221.000000 -89467.062500 16383.500000
    807123463
    0.000000#0.000000#0.000000
    475.000000
End Object
Start Object062
    143224.078125 -90622.812500 16383.500000
    807123463
    0.000000#0.000000#0.000000
    475.000000
End Object
Start Object063
    143217.968750 -91888.859375 16383.500000
    807123463
    0.000000#0.000000#0.000000
    475.000000
End Object
Start Object064
    145611.734375 -89471.929688 16383.500000
    807123463
    0.000000#0.000000#0.000000
    475.000000
End Object
Start Object065
    145611.437500 -90625.773438 16383.500000
    807123463
    0.000000#0.000000#0.000000
    475.000000
End Object
Start Object066
    134325.890625 -87169.101563 16383.500000
    807123463
    0.000000#0.000000#0.000000
    471.000000
End Object
Start Object067
    131925.125000 -87178.445313 16383.500000
    807123463
    0.000000#0.000000#0.000000
    471.000000
End Object
Start Object068
    135242.531250 -87640.359375 16383.500000
    807123463
    0.000000#0.000000#0.000000
    340.000000
End Object
Start Object069
    136688.781250 -89094.312500 16383.500000
    807123463
    0.000000#0.000000#0.000000
    340.000000
End Object
Start Object070
    136683.234375 -91185.914063 16383.500000
    807123463
    0.000000#0.000000#0.000000
    340.000000
End Object
Start Object071
    136687.890625 -93282.015625 16383.500000
    807123463
    0.000000#0.000000#0.000000
    340.000000
End Object
Start Object072
    135239.015625 -94724.351563 16383.500000
    807123463
    0.000000#0.000000#0.000000
    340.000000
End Object
Start Object073
    131049.195313 -94725.679688 16383.500000
    807123463
    0.000000#0.000000#0.000000
    340.000000
End Object
Start Object074
    132008.437500 -96775.906250 16383.500000
    807123463
    0.000000#0.000000#0.000000
    469.000000
End Object
Start Object075
    132006.062500 -98049.890625 16383.500000
    807123463
    0.000000#0.000000#0.000000
    469.000000
End Object
Start Object076
    132007.515625 -99209.398438 16383.500000
    807123463
    0.000000#0.000000#0.000000
    469.000000
End Object
Start Object077
    132009.359375 -100710.500000 16383.500000
    807123463
    0.000000#0.000000#0.000000
    469.000000
End Object
Start Object078
    134402.390625 -100709.859375 16383.500000
    807123463
    0.000000#0.000000#0.000000
    469.000000
End Object
Start Object079
    134403.093750 -99200.921875 16383.500000
    807123463
    0.000000#0.000000#0.000000
    469.000000
End Object
Start Object080
    134404.468750 -98048.039063 16383.500000
    807123463
    0.000000#0.000000#0.000000
    469.000000
End Object
Start Object081
    134406.187500 -96772.851563 16383.500000
    807123463
    0.000000#0.000000#0.000000
    469.000000
End Object
Start Object082
    134400.609375 -95613.125000 16383.500000
    807123463
    0.000000#0.000000#0.000000
    469.000000
End Object
Start Object083
    135343.062500 -101327.640625 16383.500000
    807123463
    0.000000#0.000000#0.000000
    341.000000
End Object
Start Object084
    129603.125000 -93272.726563 16383.500000
    807123463
    0.000000#0.000000#0.000000
    340.000000
End Object
Start Object085
    128280.000000 -91210.000000 16383.500000
    3322686878
    0.000000#0.000000#90.000000
    0.000000
End Object
Start Object086
    133130.000000 -85030.000000 16383.500000
    3322686878
    0.000000#0.000000#0.000000
    0.000000
End Object
Start Object087
    133130.000000 -86390.000000 16383.500000
    3322686878
    0.000000#0.000000#0.000000
    0.000000
End Object
Start Object088
    144430.000000 -98180.000000 16383.500000
    3453634549
    0.000000#0.000000#0.000000
    0.000000
End Object
Start Object089
    144420.000000 -91870.000000 16383.500000
    3453634549
    0.000000#0.000000#0.000000
    0.000000
End Object
Start Object090
    133130.000000 -80530.000000 16383.500000
    3453634549
    0.000000#0.000000#0.000000
    0.000000
End Object
Start Object091
    133210.000000 -98020.000000 16383.500000
    3453634549
    0.000000#0.000000#0.000000
    0.000000
End Object
Start Object092
    144420.000000 -79230.000000 16383.500000
    3453634549
    0.000000#0.000000#0.000000
    0.000000
End Object
Start Object093
    144430.000000 -85540.000000 16383.500000
    3453634549
    0.000000#0.000000#0.000000
    0.000000
End Object
Start Object094
    145609.890625 -101568.078125 16383.500000
    3982077190
    0.000000#0.000000#0.000000
    1519.000000
End Object
Start Object095
    143218.812500 -101581.070313 16383.500000
    3982077190
    0.000000#0.000000#0.000000
    1519.000000
End Object
Start Object096
    132056.562500 -101524.500000 16383.500000
    3982077190
    0.000000#0.000000#0.000000
    1519.000000
End Object
Start Object097
    134446.218750 -101524.062500 16383.500000
    3982077190
    0.000000#0.000000#0.000000
    1519.000000
End Object
Start Object098
    134340.046875 -87848.914063 16383.500000
    3982077190
    0.000000#0.000000#0.000000
    1515.000000
End Object
Start Object099
    131952.546875 -87815.468750 16383.500000
    3982077190
    0.000000#0.000000#0.000000
    1515.000000
End Object
Start Object100
    129807.664063 -89986.039063 16383.500000
    3982077190
    0.000000#0.000000#0.000000
    1515.000000
End Object
Start Object101
    129797.937500 -92392.695313 16383.500000
    3982077190
    0.000000#0.000000#0.000000
    1515.000000
End Object
Start Object102
    131940.859375 -94524.765625 16383.500000
    3982077190
    0.000000#0.000000#0.000000
    1515.000000
End Object
Start Object103
    134353.500000 -94516.640625 16383.500000
    3982077190
    0.000000#0.000000#0.000000
    1515.000000
End Object
Start Object104
    136490.125000 -92377.570313 16383.500000
    3982077190
    0.000000#0.000000#0.000000
    1515.000000
End Object
Start Object105
    136474.984375 -89978.492188 16383.500000
    3982077190
    0.000000#0.000000#0.000000
    1515.000000
End Object
Start Object106
    133150.000000 -91190.000000 16383.500000
    4180790606
    0.000000#0.000000#270.000000
    0.000000
End Object

ObjectCount 107
